Name,Age,Division,BodyweightKg,WeightClassKg,Squat1Kg,Squat2Kg,Squat3Kg,Squat4Kg,Best3SquatKg,Bench1Kg,Bench2Kg,Bench3Kg,Bench4Kg,Best3BenchKg,Deadlift1Kg,Deadlift2Kg,Deadlift3Kg,Deadlift4Kg,Best3DeadliftKg,TotalKg,Place,Country,Event,Sex,BirthDate,Equipment
Alex McCarthy #2,22,M_JES_AWPC,79.3,82.5,235,245,250,,250,140,150,155,,155,190,-202.5,-202.5,,190,595,1,Ireland,SBD,M,,Single-ply
Oisin Smith,18,M_TES_3_AWPC,122.95,125,250,270,275,,275,-167.5,167.5,170,,170,225,-240,-240,,225,670,1,Ireland,SBD,M,,Single-ply
Kenneth Condon,51,M_MES_3_AWPC,82.2,82.5,217.5,225,230,,230,120,125,-127.5,,125,237.5,245,245.5,,245.5,600.5,1,USA,SBD,M,,Single-ply
Rhys Lippiatt,30,M_OEM_AWPC,106.85,110,-250,250,265,,265,122.5,-132.5,-132.5,,122.5,220,240,250,,250,637.5,1,UK,SBD,M,,Multi-ply
Richard Curtis,41,M_MES_1_AWPC,89.1,90,225,240,250,,250,135,140,-145,,140,225,240,-250,,240,630,1,UK,SBD,M,,Single-ply
Daljit Singh,45,M_MEM_2_AWPC,82.35,82.5,270,-285,-285,,270,140,150,-160,,150,250,-260,260,,260,680,1,India,SBD,M,,Multi-ply
John Strange,39,M_OES_AWPC,136.6,140,265,280,-300,,280,-165,165,-170,,165,240,275,-300.5,,275,720,1,UK,SBD,M,,Single-ply
Kieran Peters,35,M_OES_AWPC,98.6,100,290,305,312.5,,312.5,185,195,,,195,280,305,315.5,,315.5,823,1,UK,SBD,M,,Single-ply
Mark Moss,61,M_MEM_5_AWPC,101.95,110,180,190,202.5,,202.5,80,-155,-160,,80,150,190,,,190,472.5,1,UK,SBD,M,,Multi-ply
Michael Gallagher #2,48,M_MES_2_AWPC,59.7,60,170,-180,-180,,170,100,110,120,,120,60,,,,60,350,1,Ireland,SBD,M,,Single-ply
Scott Kuderick,50,M_OEM_AWPC,89.95,90,110,,,,110,25,,,,25,110,,,,110,245,1,USA,SBD,M,,Multi-ply
Lilli Mai Coade,16,F_TR_2_AWPC,53.2,56,55,62.5,-70,,62.5,30,35,-40,,35,70,80,87.5,,87.5,185,2,Ireland,SBD,F,,Raw
Nicole Kelly,16,F_TR_2_AWPC,54.1,56,57.5,65,70,,70,27.5,32.5,-35,,32.5,80,87.5,-92.5,,87.5,190,1,Ireland,SBD,F,,Raw
Claire Hand,51,F_MR_3_AWPC,57,60,90,95,97.5,,97.5,50,55,-57.5,,55,95,102.5,-107.5,,102.5,255,1,UK,SBD,F,,Raw
Adia Siegel,24,F_OR_AWPC,59.35,60,75,80,82.5,,82.5,45,47.5,-50,,47.5,100,102.5,-107.5,,102.5,232.5,3,Canada,SBD,F,,Raw
Catherine Duffy #1,65,F_MR_6_AWPC,58.2,60,75,80,-85,,80,47.5,50,52.5,,52.5,100,105,112.5,,112.5,245,1,UK,SBD,F,,Raw
Louise Flatters,52,F_MR_3_AWPC,55.1,56,80,85,-90,,85,45,50,-52.5,,50,110,120,127.5,,127.5,262.5,1,UK,SBD,F,,Raw
Lily Churchyard,21,F_JR_AWPC,44.6,48,80,85,-88,,85,50,52.5,55,-58,55,110,115,120,,120,260,1,UK,SBD,F,,Raw
Emily Hussey,33,F_OR_AWPC,49.7,52,85,90,-95,,90,52.5,55,-60,,55,110,-120,120,,120,265,2,UK,SBD,F,,Raw
Jitka Hall,46,F_MR_2_AWPC,59.4,60,75,85,95,,95,57.5,-62.5,-62.5,,57.5,115,132.5,-145,,132.5,285,1,UK,SBD,F,,Raw
Asia Grabowski,23,F_JR_AWPC,55.6,56,90,95,-97.5,,95,72.5,-78,-78,,72.5,120,130,-135,,130,297.5,1,UK,SBD,F,,Raw
Emily Bullock,36,F_OR_AWPC,51.5,52,102.5,110,115,,115,52.5,57.5,-60,,57.5,125,135,-142.5,,135,307.5,1,UK,SBD,F,,Raw
Jenessa Curtis,26,F_OR_AWPC,55.75,56,127.5,140,145,150,145,90,95,-97.5,,95,130,137.5,-140,,137.5,377.5,1,USA,SBD,F,,Raw
Louise Breen,38,F_OR_AWPC,58.8,60,130,140,-142.5,,140,75,-77.5,-77.5,,75,140,-147.5,-152.5,,140,355,2,UK,SBD,F,,Raw
Hannah Langton,28,F_OR_AWPC,55.2,56,112.5,117.5,-122.5,,117.5,47.5,50,52.5,,52.5,142.5,147.5,-152.5,,147.5,317.5,2,UK,SBD,F,,Raw
Rachel Evans,28,F_OR_AWPC,58.8,60,112.5,120,-125,,120,75,80,-82.5,,80,142.5,155,157.5,,157.5,357.5,1,UK,SBD,F,,Raw
Anna Belot,25,F_OR_AWPC,78.45,82.5,95,102.5,107.5,,107.5,55,60,62.5,,62.5,115,125,135,,135,305,3,Canada,SBD,F,,Raw
Martine Barons,63,F_MR_5_AWPC,86.5,90,80,-100,-100,,80,50,55,-57.5,,55,120,140,-150,,140,275,1,UK,SBD,F,,Raw
Flossie Doak,23,F_JR_AWPC,65.05,67.5,97.5,102.5,-107.5,,102.5,52.5,55,-57.5,,55,120,130,-140,,130,287.5,2,UK,SBD,F,,Raw
Hazel Roberts,30,F_OR_AWPC,66.4,67.5,100,110,115,,115,55,60,62.5,,62.5,127.5,137.5,147.5,,147.5,325,4,Ireland,SBD,F,,Raw
Alexia Renault Lo-Pinto,21,F_OR_AWPC,66.4,67.5,100,110,117.5,,117.5,90,95,100,-102.5,100,127.5,137.5,-142.5,,137.5,355,2,Ireland,SBD,F,,Raw
Alexia Renault Lo-Pinto,21,F_JR_AWPC,66.4,67.5,100,110,117.5,,117.5,90,95,100,-102.5,100,127.5,137.5,-142.5,,137.5,355,1,Ireland,SBD,F,,Raw
Hannah Phipps,26,F_OR_AWPC,73.8,75,115,125,132.5,,132.5,60,-65,-65,,60,130,140,-147.5,,140,332.5,2,UK,SBD,F,,Raw
Colette Brodrick,41,F_MR_1_AWPC,72.65,75,110,120,127.5,,127.5,67.5,-70,70,,70,130,140,145,,145,342.5,1,UK,SBD,F,,Raw
India Teague,15,F_TR_1_AWPC,77.5,82.5,140,145,150,,150,82.5,87.5,-92.5,,87.5,135,140,-150,,140,377.5,1,UK,SBD,F,,Raw
Sophie Mac Cobb,15,F_TR_1_AWPC,87.2,90,135,-145,155,,155,60,70,80,-85,80,-140,-140,140,,140,375,1,Ireland,SBD,F,,Raw
Lisa Grant #1,35,F_OR_AWPC,66.85,67.5,120,125,127.5,,127.5,80,85,90,,90,140,145,147.5,,147.5,365,1,UK,SBD,F,,Raw
Amelia Bakewell,23,F_JR_AWPC,82.3,82.5,115,120,-125,,120,55,-60,-60,,55,145,-155,-155,,145,320,2,UK,SBD,F,,Raw
Babongile Ndiweni,32,F_OR_AWPC,80.05,82.5,-127.5,127.5,132.5,,132.5,-72.5,72.5,-75,,72.5,145,150,155,,155,360,2,UK,SBD,F,,Raw
Rachel Snell,40,F_MR_1_AWPC,80.9,82.5,130,135,140,,140,72.5,77.5,-82.5,,77.5,150,155,-157.5,,155,372.5,2,UK,SBD,F,,Raw
Emma Wilding,28,F_OR_AWPC,72.6,75,107.5,115,122.5,,122.5,60,62.5,-65,,62.5,155,160,167.5,,167.5,352.5,1,UK,SBD,F,,Raw
Scarlett Padgett,33,F_OR_AWPC,66.4,67.5,122.5,-127.5,127.5,,127.5,60,62.5,65,,65,155,162.5,-172.5,,162.5,355,2,UK,SBD,F,,Raw
Adella Bryan,42,F_MR_1_AWPC,80.1,82.5,130,137.5,142.5,,142.5,80,85,85.5,,85.5,160,170,177.5,,177.5,405.5,1,UK,SBD,F,,Raw
Dannan Jackson,20,F_JR_AWPC,81.3,82.5,115,130,140.5,,140.5,60,67.5,70,,70,175,190,200,,200,410.5,1,Ireland,SBD,F,,Raw
Bringsty Edwards,34,F_OR_AWPC,81.3,82.5,-145,145,162.5,,162.5,90,97.5,-103,,97.5,180,192.5,200,,200,460,1,UK,SBD,F,,Raw
Amiri Abraham,18,M_TR_3_AWPC,71.35,75,70,77.5,80,,80,60,65,-67.5,,65,92.5,105,110,,110,255,1,USA,SBD,M,,Raw
Gemma Waters,39,F_OR_AWPC,115.95,110+,-80,80,85,,85,42.5,45,-50,,45,110,120,130,,130,260,1,Ireland,SBD,F,,Raw
Jennifer Geary,47,F_MR_2_AWPC,94.7,100,110,120,130,-140,130,60,65,70,72.5,70,112.5,122.5,-132.5,,122.5,322.5,1,Ireland,SBD,F,,Raw
Dave Githutu,20,M_JR_AWPC,55,56,100,-112.5,,,100,80,85,85.5,-87.5,85.5,115,130,133,135,133,318.5,1,USA,SBD,M,,Raw
Taylor Cheek,17,M_TR_2_AWPC,72.9,75,102.5,117.5,123,125,123,65,70,75,-77.5,75,117.5,130,132.5,137.5,132.5,330.5,1,USA,SBD,M,,Raw
Julie Green #1,56,F_OR_AWPC,105.8,110,100,115,125.5,,125.5,65,70,73.5,,73.5,120,135,147.5,,147.5,346.5,2,UK,SBD,F,,Raw
Julie Green #1,56,F_MR_4_AWPC,105.8,110,100,115,125.5,,125.5,65,70,73.5,,73.5,120,135,147.5,,147.5,346.5,1,UK,SBD,F,,Raw
Aaron Kaminer,23,M_JR_AWPC,93.6,100,115,-130,-130,,115,70,-75,-75,,70,125,140,147.5,-150,147.5,332.5,1,USA,SBD,M,,Raw
Mitchell Schnarr,24,M_OR_AWPC,107.4,110,67.5,75,80,,80,70,75,-82.5,,75,125,140,150,,150,305,3,USA,SBD,M,,Raw
Charlie Hooson-Sykes,45,F_MR_2_AWPC,130.5,110+,130,137.5,142.5,,142.5,70,75,77.5,,77.5,135,140,145,,145,365,1,UK,SBD,F,,Raw
Aideen Clarke,46,F_MR_2_AWPC,130.75,110+,110,117.5,127.5,,127.5,62.5,70,-72.5,,70,137.5,145,-152.5,,145,342.5,2,Ireland,SBD,F,,Raw
Isabelle McCabe,30,F_OR_AWPC,108.6,110,130,145,150,,150,67.5,75,80,,80,150,165,175,,175,405,1,Ireland,SBD,F,,Raw
Bethany Hosick,29,F_OR_AWPC,98.4,100,120,130,137.5,,137.5,70,72.5,75,,75,-165,165,-170,,165,377.5,1,Canada,SBD,F,,Raw
Poppy Douglas,48,F_MCR_2_AWPC,65.9,67.5,90,95,100,,100,55,-57.5,,,55,90,-95,,,90,245,1,Ireland,SBD,F,,Wraps
Amy Larkin,41,F_MCR_1_AWPC,107,110,110,122.5,130,,130,60,62.5,-65,,62.5,100,105,110,,110,302.5,1,Ireland,SBD,F,,Wraps
Bev Johnson,59,F_MCR_4_AWPC,73,75,80,-85,-85,,80,47.5,52.5,-55,,52.5,100,110,115,,115,247.5,2,UK,SBD,F,,Wraps
Mariana Dankova,52,F_MCR_3_AWPC,66.5,67.5,85,-95,95,,95,42.5,-45,45,,45,107.5,117.5,-122.5,,117.5,257.5,1,Ireland,SBD,F,,Wraps
Helen Stokes,49,F_MCR_2_AWPC,77.6,82.5,112.5,-117.5,117.5,,117.5,45,-50,50,,50,112.5,-120,120,,120,287.5,1,Ireland,SBD,F,,Wraps
Tara Castaneda,56,F_MCR_4_AWPC,99.95,100,100,107.5,115,118,115,60,62.5,65,65.5,65,117.5,130,140,-155,140,320,1,USA,SBD,F,,Wraps
Louise Clark #3,58,F_MCR_4_AWPC,62.1,67.5,115,122.5,-127.5,,122.5,60,-65,-65,,60,117.5,125,132.5,,132.5,315,1,UK,SBD,F,,Wraps
Nancy Brook,59,F_MCR_4_AWPC,73.8,75,97.5,105,-110,,105,55,57.5,-60,,57.5,120,127.5,-132.5,,127.5,290,1,USA,SBD,F,,Wraps
Kirsty Roebuck,42,F_MCR_1_AWPC,79.4,82.5,-115,115,-120,,115,60,-65,-65,,60,120,130,-140,,130,305,1,South Africa,SBD,F,,Wraps
Leah Morgan,46,F_MCR_2_AWPC,73.45,75,115,-125,-127.5,,115,60,65,-67.5,,65,130,137.5,145,,145,325,2,UK,SBD,F,,Wraps
Robin Miller,54,F_MCR_3_AWPC,59.65,60,90,107.5,-112.5,,107.5,72.5,80,-82.5,,80,135,155,163,165,163,350.5,1,USA,SBD,F,,Wraps
Tara McManus,46,F_MCR_2_AWPC,73.8,75,110,-120,120,,120,57.5,-62.5,-62.5,,57.5,137.5,147.5,-150,,147.5,325,3,Ireland,SBD,F,,Wraps
Nicola Burroughs,41,F_MCR_1_AWPC,73,75,135,145,-155,,145,75.5,80,,,80,145,155.5,160,163,160,385,1,UK,SBD,F,,Wraps
Jacinta Smith,51,F_MCR_3_AWPC,121.4,110+,160,-170,-170,,160,65,70,-75,,70,145,155,-162.5,,155,385,1,Ireland,SBD,F,,Wraps
Claire Knight,48,F_MCR_2_AWPC,73.1,75,117.5,120,122.5,,122.5,62.5,-67.5,-67.5,,62.5,147.5,155,-160.5,,155,340,1,UK,SBD,F,,Wraps
Victoria Woof,42,F_MCR_1_AWPC,72.05,75,120,127.5,-130,,127.5,70,75,-77.5,,75,150,155,157.5,160.5,157.5,360,2,UK,SBD,F,,Wraps
Sarah Hulin,53,F_MCR_3_AWPC,101.1,110,140,-150,150,,150,72.5,77.5,80,,80,150,160,167.5,,167.5,397.5,1,UK,SBD,F,,Wraps
Lynnette Kehaulani,44,F_MCR_1_AWPC,89.45,90,120,132.5,140.5,145,140.5,85,90,95,95.5,95,157.5,167.5,-175.5,,167.5,403,1,USA,SBD,F,,Wraps
Megan Haverty,30,F_OES_AWPC,47.8,48,95,105,-115,,105,-55,60,65,,65,100,110,-115,,110,280,1,Ireland,SBD,F,,Single-ply
Allison Gremmel,17,F_TES_2_AWPC,47,48,102.5,115,122.5,-127.5,122.5,55,-65,65,,65,105,-115,-115,,105,292.5,1,USA,SBD,F,,Single-ply
Kenli Sonnier,16,F_TES_2_AWPC,88.85,90,152.5,-172.5,172.5,,172.5,-110,-110,110,112.5,110,115,130,-145.5,,130,412.5,1,USA,SBD,F,,Single-ply
Auryana Gilder,16,F_TES_2_AWPC,59.85,60,132.5,147.5,158,-162.5,158,65,-75,-75,,65,125,140,-165.5,,140,363,1,USA,SBD,F,,Single-ply
Olivia McWherter,20,F_JES_AWPC,83.6,90,-137.5,142.5,-155,,142.5,-92.5,-95,95,,95,137.5,147.5,155.5,-162.5,155.5,393,1,USA,SBD,F,,Single-ply
Giulia Polimeno,19,F_TES_3_AWPC,54.4,56,140,150,160,,160,60,62.5,65,,65,140,150,-155,,150,375,1,Italy,SBD,F,,Single-ply
Veronica Osorio,38,F_OEM_AWPC,54.35,56,-175,-175,175,,175,87.5,90,-97.5,,90,142.5,-155,-155,,142.5,407.5,1,USA,SBD,F,,Multi-ply
Sarah Skehan,36,F_OES_AWPC,109.1,110,-235,-235,245,,245,95,100,102.5,105,102.5,145,160,-172.5,,160,507.5,1,Ireland,SBD,F,,Single-ply
Jodie Dyble,27,F_OEM_AWPC,63.6,67.5,180,-200,200,,200,87.5,92.5,95,,95,160,180,-185,,180,475,1,UK,SBD,F,,Multi-ply
Gemma Wright,31,F_OES_AWPC,95.5,100,-255,255,272.5,,272.5,-125,-125,-125,,,,,,,,,DQ,UK,SBD,F,,Single-ply
Mehar Singh,13,M_TES_1_AWPC,44.8,52,,,,,,,,,,,80,90,-100,,90,90,1,India,D,M,,Single-ply
John Dolan #2,68,M_MCR_6_AWPC,94.95,100,140,147.5,-152.5,,147.5,90,95,-100,,95,155,165,-175,,165,407.5,1,UK,SBD,M,,Wraps
Oliver Coffey,46,M_MCR_2_AWPC,95.9,100,180,200,-210,,200,110,120,-122.5,,120,180,200,-220,,200,520,1,Ireland,SBD,M,,Wraps
Michael Burton #2,46,M_MCR_2_AWPC,115.8,125,180,205,,,205,115,130,132.5,,132.5,180,220,-225,,220,557.5,1,UK,SBD,M,,Wraps
Richard Green #2,58,M_MEM_4_AWPC,116.85,125,,,,,,,,,,,200,220,240,,240,240,1,UK,D,M,,Multi-ply
Devon Parcell,45,M_MCR_2_AWPC,101.5,110,205,217.5,227.5,,227.5,152.5,165,-167.5,,165,227.5,242.5,247.5,,247.5,640,1,USA,SBD,M,,Wraps
Jason Berrington,40,M_MCR_1_AWPC,98.2,100,210,220,-230,,220,150,-155,-155,,150,245,-255,-255,,245,615,1,UK,SBD,M,,Wraps
Martyn O'Connor,41,M_MCR_1_AWPC,134.55,140,240,255,270,,270,120,130,,,130,255,270,280,,280,680,1,UK,SBD,M,,Wraps
Anthony Rees,43,M_MCR_1_AWPC,122.2,125,250,267.5,,,267.5,140,150,-155,,150,275,-290,-290,,275,692.5,1,UK,SBD,M,,Wraps
Chris Brown #2,41,M_MCR_1_AWPC,109.05,110,235,255,265,,265,162.5,170,-175,,170,270,285,300,,300,735,1,UK,SBD,M,,Wraps
Mark Jones #2,59,M_MCR_4_AWPC,107.85,110,185,200,207.5,,207.5,127.5,-135,-135,,127.5,185,200,,,200,535,1,UK,SBD,M,,Wraps
Richard Baker #2,54,M_MCR_3_AWPC,120.45,125,260,275,-285,,275,162.5,175,-177.5,,175,255,-272.5,,,255,705,1,UK,SBD,M,,Wraps
Michael Coleman #2,48,M_OES_AWPC,98.8,100,,,,,,160,170,-182.5,,170,,,,,,170,1,Ireland,B,M,,Single-ply
Michael Coleman #2,48,M_MES_2_AWPC,98.8,100,,,,,,160,170,-182.5,,170,,,,,,170,1,Ireland,B,M,,Single-ply
Shaun Millward,43,M_MES_1_AWPC,122.5,125,,,,,,160,-182.5,-182.5,,160,,,,,,160,1,UK,B,M,,Single-ply
Jamie Hogan,37,M_OEM_AWPC,146.03,140+,,,,,,175,182.5,187.5,,187.5,,,,,,187.5,1,Ireland,B,M,,Multi-ply
Petter Elvekrok,55,M_MEM_4_AWPC,115.7,125,,,,,,270,290,-300,,290,,,,,,290,1,Sweden,B,M,,Multi-ply
Riley Hogan,16,M_TR_2_AWPC,62.55,67.5,70,77.5,85,,85,47.5,52.5,-55,,52.5,120,130,137.5,,137.5,275,2,Ireland,SBD,M,,Raw
Tommy Colfer,15,M_TR_1_AWPC,58.1,60,90,100,110,,110,60,65,70,,70,135,145,160,,160,340,1,Ireland,SBD,M,,Raw
Faolan Fitzgerald,18,M_TR_3_AWPC,67.25,67.5,140,-145,-145,,140,80,90,-92.5,,90,155,165,-172.5,,165,395,1,Ireland,SBD,M,,Raw
Jack Banks,16,M_TR_2_AWPC,67.35,67.5,160,170,-180,,170,-97.5,102.5,107.5,,107.5,175,190,-200,,190,467.5,1,UK,SBD,M,,Raw
Alberto Van Burgh,56,M_MR_4_AWPC,88.5,90,132.5,140,145,,145,82.5,-87.5,87.5,,87.5,180,187.5,192.5,,192.5,425,1,Ireland,SBD,M,,Raw
Paul Coats,57,M_OR_AWPC,74,75,145,-165,-165,,145,50,,,,50,190,205,-207.5,,205,400,2,USA,SBD,M,,Raw
Paul Coats,57,M_MR_4_AWPC,74,75,145,-165,-165,,145,50,,,,50,190,205,-207.5,,205,400,1,USA,SBD,M,,Raw
Timo Tissari,24,M_OR_AWPC,81.25,82.5,140,155,162.5,,162.5,97.5,-105,-105,,97.5,200,215,-225,,215,475,3,Finland,SBD,M,,Raw
Eddie Mignon,32,M_OR_AWPC,81.45,82.5,195,205,212.5,,212.5,115,120,-125,,120,200,215,-230,,215,547.5,2,UK,SBD,M,,Raw
Daniel Deakin,22,M_JR_AWPC,82.45,82.5,172.5,180,187.5,,187.5,102.5,107.5,-110,,107.5,220,-235,-235,,220,515,1,UK,SBD,M,,Raw
Daniel O'Neill #1,43,M_MR_1_AWPC,89.05,90,132.5,-142.5,142.5,,142.5,127.5,132.5,-137.5,,132.5,225,-240,-240,,225,500,1,Ireland,SBD,M,,Raw
Joseph Gill,17,M_OR_AWPC,86,90,175,-182.5,-187.5,,175,147.5,152.5,155,-160.5,155,225,232.5,-237.5,,232.5,562.5,2,UK,SBD,M,,Raw
Joseph Gill,17,M_TR_2_AWPC,86,90,175,-182.5,-187.5,,175,147.5,152.5,155,-160.5,155,225,232.5,-237.5,,232.5,562.5,1,UK,SBD,M,,Raw
Chun-Kit Kan,46,M_MR_2_AWPC,88.85,90,187.5,195,200,,200,112.5,117.5,-120,,117.5,-230,230,237.5,,237.5,555,1,UK,SBD,M,,Raw
Stephen Coleman #2,50,M_OR_AWPC,73.5,75,165,175,-180,,175,90,-95,95,,95,235,250,-265,,250,520,1,UK,SBD,M,,Raw
Stephen Coleman #2,50,M_MR_3_AWPC,73.5,75,165,175,-180,,175,90,-95,95,,95,235,250,-265,,250,520,1,UK,SBD,M,,Raw
Joe Heasman,22,M_JR_AWPC,85.85,90,190,197.5,-202.5,,197.5,145,-150,152.5,,152.5,235,245,-252.5,,245,595,1,UK,SBD,M,,Raw
Jake Lonsdale,30,M_OR_AWPC,87.75,90,240,260,265,,265,150,160,-165,,160,250,-267.5,267.5,,267.5,692.5,1,UK,SBD,M,,Raw
Carn Wharmby,33,M_OR_AWPC,82.05,82.5,240,247.5,255,,255,115,125,132.5,,132.5,280,300,312.5,,312.5,700,1,UK,SBD,M,,Raw
Ben Hogan #1,17,M_TR_2_AWPC,123.15,125,125,132.5,-140,,132.5,90,95,-100,,95,110,130,150,,150,377.5,1,Ireland,SBD,M,,Raw
Patrick Daly,17,M_TR_2_AWPC,91.9,100,110,115,120,,120,85,92.5,-100,,92.5,135,145,160,,160,372.5,1,Ireland,SBD,M,,Raw
Jude Spencer,19,M_TR_3_AWPC,109.5,110,160,170,180,,180,85,92.5,-100,,92.5,190,205,222.5,,222.5,495,1,Ireland,SBD,M,,Raw
Darren Fleming,52,M_MR_3_AWPC,132.9,140,167.5,175,182.5,,182.5,115,-120,-120,,115,200,225,-237.5,,225,522.5,1,Ireland,SBD,M,,Raw
Shane Clavin,39,M_OR_AWPC,98.7,100,190,200,205,,205,100,105,-107.5,,105,215,225,-230,,225,535,2,Ireland,SBD,M,,Raw
Craig Zenner,61,M_MR_5_AWPC,108.65,110,165,185,190,,190,137.5,147.5,-152.5,,147.5,225,232.5,242.5,-247.5,242.5,580,1,USA,SBD,M,,Raw
Keir Harding,47,M_MR_2_AWPC,98.55,100,235,250,-260.5,,250,-125,-125,125,,125,230,245,255,,255,630,1,UK,SBD,M,,Raw
George Westman,26,M_OR_AWPC,99.25,100,195,210,220,,220,115,120,122.5,,122.5,260,280,-300,,280,622.5,1,UK,SBD,M,,Raw
Robert Hunt #1,32,M_OR_AWPC,108.95,110,265,280,292.5,,292.5,160,167.5,-175,,167.5,260,-270,270,,270,730,1,UK,SBD,M,,Raw
Steve Middleton-Lowes,53,M_OR_AWPC,107.6,110,235,252.5,260,,260,150,157.5,162.5,,162.5,265,275,,,275,697.5,2,UK,SBD,M,,Raw
Steve Middleton-Lowes,53,M_MR_3_AWPC,108,110,235,252.5,260,,260,150,157.5,162.5,,162.5,265,275,,,275,697.5,1,UK,SBD,M,,Raw
Ashleigh Dutton,34,M_OR_AWPC,118.9,125,260,282.5,-285,,282.5,180,-190,190,,190,300,320,-332.5,,320,792.5,1,UK,SBD,M,,Raw
Michael Burden,59,M_MCR_4_AWPC,98.55,100,155,165,-172.5,,165,75,90,-100,,90,100,,,,100,355,1,UK,SBD,M,,Wraps
Gary Mellor,66,M_MCR_6_AWPC,64.75,67.5,117.5,125,130,,130,52.5,57.5,-62.5,,57.5,130,137.5,142.5,,142.5,330,1,UK,SBD,M,,Wraps
Jodie Dyble,27,F_OEM_AWPC,64.9,67.5,,,,,,,,,,,170,-182.5,,,170,170,1,UK,D,F,,Multi-ply
Kevin Holland,47,M_MCR_2_AWPC,88.5,90,170,185,200,,200,112.5,120,-127.5,,120,175,185,-200,,185,505,2,Ireland,SBD,M,,Wraps
Seán Cregan,59,M_MCR_4_AWPC,74,75,167.5,177.5,182.5,,182.5,87.5,95,,,95,175,195,-205,,195,472.5,1,Ireland,SBD,M,,Wraps
Paul Smyth,46,M_MCR_2_AWPC,81.6,82.5,180,190,200,,200,100,110,,,110,-190,200,207.5,,207.5,517.5,1,Ireland,SBD,M,,Wraps
Mark O'Donoghue,48,M_MCR_2_AWPC,77.6,82.5,155,160,165,,165,95,100,-102.5,,100,200,-210,-210,,200,465,2,Ireland,SBD,M,,Wraps
Richard Green #2,58,M_MES_4_AWPC,116.85,125,,,,,,,,,,,200,210,220,,220,220,1,UK,D,M,,Single-ply
Richard Curtis,41,M_MES_1_AWPC,91.1,100,,,,,,,,,,,200,220,-242.5,,220,220,1,UK,D,M,,Single-ply
Kevin McGrath,41,M_MCR_1_AWPC,87.4,90,205,215,217.5,,217.5,105,-110,110,,110,205,215,-217.5,,215,542.5,2,Ireland,SBD,M,,Wraps
Brendan O'Rourke,48,M_MCR_2_AWPC,89,90,180,190,200,,200,132.5,140.5,,,140.5,210,-225,225,,225,565.5,1,Ireland,SBD,M,,Wraps
Darren Robertson,40,M_MCR_1_AWPC,74.25,75,-175,175,-182.5,,175,120,125,127.5,-130,127.5,210,225,-233,,225,527.5,1,UK,SBD,M,,Wraps
Raivis Hofs,41,M_MCR_1_AWPC,88.9,90,210,230,242.5,,242.5,142.5,150,157.5,,157.5,220,-240,240,,240,640,1,UK,SBD,M,,Wraps
Julie Green #1,56,F_MES_4_AWPC,105.8,110,,,,,,87.5,95,-97.5,,95,,,,,,95,1,UK,B,F,,Single-ply
Therese Thorin,43,F_OEM_AWPC,64.5,67.5,,,,,,-100,-110,-110,,,,,,,,,DQ,Sweden,B,F,,Unlimited
Therese Thorin,43,F_MEM_1_AWPC,64.5,67.5,,,,,,-100,-110,-110,,,,,,,,,DQ,Sweden,B,F,,Unlimited
Petter Elvekrok,55,M_MEM_4_AWPC,115.7,125,,,,,,-192.5,192.5,200,,200,,,,,,200,1,Sweden,B,M,,Unlimited
Daljit Singh,45,M_MEM_2_AWPC,82.5,82.5,,,,,,,,,,,,,,,,,DQ,India,D,M,,Multi-ply
Abbie Bolger,16,F_TCR_2_AWPC,55.8,56,55,62.5,67.5,,67.5,35,37.5,-40,,37.5,70,82.5,85,,85,190,1,Ireland,SBD,F,,Wraps
Surya Kini Radhakrishnan,14,F_TCR_1_AWPC,56.3,60,87.5,95,100,,100,35,40,-42.5,,40,100,107.5,110,,110,250,1,India,SBD,F,,Wraps
Amy Muench,39,F_OCR_AWPC,59.5,60,127.5,132.5,-135,,132.5,72.5,75,-77.5,,75,132.5,137.5,142.5,,142.5,350,3,Canada,SBD,F,,Wraps
Juliette Appleby,23,F_JCR_AWPC,65.75,67.5,100,107.5,112.5,,112.5,52.5,-57.5,-57.5,,52.5,130,142.5,145,,145,310,2,UK,SBD,F,,Wraps
Nicola Brown,27,F_OCR_AWPC,55.9,56,105,125,-140,,125,60,-65,65,,65,130,145,-152.5,,145,335,1,UK,SBD,F,,Wraps
Lauryn Hussey Smith,23,F_JCR_AWPC,66.4,67.5,100,120,130,,130,-60,-60,60,,60,140,150,160,,160,350,1,Ireland,SBD,F,,Wraps
Pru Mowbray,30,F_OCR_AWPC,57.6,60,112.5,120,125,,125,70,75,-77.5,,75,-142.5,150,160,,160,360,2,UK,SBD,F,,Wraps
Shane Blignaut,23,F_JCR_AWPC,57.1,60,150,162.5,-172.5,,162.5,60,65,70,,70,147.5,152.5,-160,,152.5,385,1,South Africa,SBD,F,,Wraps
Shane Blignaut,23,F_OCR_AWPC,57.1,60,150,162.5,-172.5,,162.5,60,65,70,,70,147.5,152.5,-160,,152.5,385,1,South Africa,SBD,F,,Wraps
Sarah Gilpin,34,F_OCR_AWPC,67.01,67.5,117.5,130,-137.5,,130,72.5,77.5,-82.5,,77.5,147.5,-165,165,,165,372.5,2,USA,SBD,F,,Wraps
Lauren Beet,34,F_OCR_AWPC,65.4,67.5,150,160,165,,165,90,95,-100,,95,165,172.5,175,,175,435,1,UK,SBD,F,,Wraps
Isabella Cesareo,27,F_OCR_AWPC,67.05,67.5,145,-155,155,,155,70,75,-77.5,,75,-175,-185,-185,,,,DQ,UK,SBD,F,,Wraps
Linne Laukka,23,F_JCR_AWPC,59.8,60,105,-115,117.5,,117.5,52.5,-57.5,-57.5,,52.5,125,-132.5,,,125,295,2,Finland,SBD,F,,Wraps
Lucy Holland,16,F_TCR_2_AWPC,85,90,85,95,105,110,105,37.5,45,-47.5,,45,90,103,107.5,,107.5,257.5,1,Ireland,SBD,F,,Wraps
Emily Albano,27,F_OCR_AWPC,119.6,110+,102.5,125,142.5,,142.5,57.5,60,-65,,60,102.5,132.5,142.5,,142.5,345,2,Canada,SBD,F,,Wraps
Róisín Maher,35,F_OCR_AWPC,74.6,75,90,100,110,,110,55,-60,-60,,55,135,145,-150,,145,310,2,Ireland,SBD,F,,Wraps
Teya Jackson,33,F_OCR_AWPC,86.45,90,135,137.5,140,,140,65,70,72.5,,72.5,147.5,157.5,-167.5,,157.5,370,3,USA,SBD,F,,Wraps
Katie Bickle,26,F_OCR_AWPC,74.3,75,162.5,172.5,180,,180,75,80,-85,,80,-150,157.5,170,,170,430,1,UK,SBD,F,,Wraps
Hannah Norton,37,F_OCR_AWPC,132.2,110+,190,205,220,,220,75,82.5,-87.5,,82.5,150,170,-185,,170,472.5,1,UK,SBD,F,,Wraps
Kelly Adlam,31,F_OCR_AWPC,80.3,82.5,150,162.5,170,,170,55,60,62.5,,62.5,152.5,162.5,-167.5,,162.5,395,2,UK,SBD,F,,Wraps
Chloe Brown #4,25,F_OCR_AWPC,88.25,90,180,190,-200,,190,85,-90,-90,,85,160,170,-177.5,,170,445,2,UK,SBD,F,,Wraps
Bridget-Jean Lynn,24,F_OCR_AWPC,98.6,100,140,-147.5,-147.5,,140,62.5,-67.5,-67.5,,62.5,170,177.5,,,177.5,380,1,UK,SBD,F,,Wraps
Katie Edwards #3,36,F_OCR_AWPC,89,90,165,175,-180,,175,-95,95,-100,,95,170,182.5,190,-193,190,460,1,UK,SBD,F,,Wraps
Kerry Gallagher,34,F_OCR_AWPC,81.5,82.5,175,-187.5,-187.5,,175,75,80,-85,,80,172.5,185,-190.5,,185,440,1,UK,SBD,F,,Wraps
Jessica Van Der Knaap,23,F_JCR_AWPC,89.95,90,130,140,145,,145,70,75,-80,,75,185,195,205,,205,425,1,UK,SBD,F,,Wraps
Elijah Crimmen,16,M_TCR_2_AWPC,102.1,110,185,192.5,200,,200,120,125,-130,,125,195,205,210,,210,535,2,UK,SBD,M,,Wraps
Ciaran Mc Cormack,25,M_OCR_AWPC,98.5,100,180,200,-215,,200,130,-140,-140,,130,210,225,230,,230,560,3,Ireland,SBD,M,,Wraps
Christy Reddan,35,M_OCR_AWPC,101.01,110,190,200,,,200,135,140,147.5,,147.5,215,225,232.5,,232.5,580,2,Ireland,SBD,M,,Wraps
Joe Orriss-Warne,17,M_TCR_2_AWPC,106.8,110,200,212.5,-217.5,,212.5,117.5,127.5,-135,,127.5,210,222.5,235,,235,575,1,UK,SBD,M,,Wraps
Jake Comery,22,M_JCR_AWPC,99.3,100,200,212.5,-225,,212.5,122.5,130,135,,135,210,225,240,,240,587.5,2,UK,SBD,M,,Wraps
Barnaby Spear,20,M_JCR_AWPC,108.45,110,240,250,260,,260,165,175,180,,180,220,230,240,,240,680,1,UK,SBD,M,,Wraps
Sina Tavakoli,22,M_JCR_AWPC,99.5,100,240,250,-255,,250,127.5,135,-137.5,,135,225,235,-240,,235,620,1,Ireland,SBD,M,,Wraps
Oliver Rowe,22,M_JCR_AWPC,107.5,110,230,245,255,,255,150,-160,-160,,150,225,240,250,,250,655,2,UK,SBD,M,,Wraps
Wayne Mullaney,39,M_OCR_AWPC,121.85,125,215,227.5,240,,240,120,132.5,-135,,132.5,230,245,-255,,245,617.5,2,Ireland,SBD,M,,Wraps
Attila Gonda,29,M_OCR_AWPC,98.15,100,225,235,-242.5,,235,130,140,-145,,140,240,255,-265,,255,630,2,Hungary,SBD,M,,Wraps
Gavin Browne,34,M_OCR_AWPC,125.1,140,215,230,-240,,230,150,157.5,-162.5,,157.5,235,255,-267.5,,255,642.5,2,Ireland,SBD,M,,Wraps
Dominic Coman,28,M_OCR_AWPC,131.8,140,302.5,317.5,330,,330,172.5,182.5,-190,,182.5,250,270,280,,280,792.5,1,UK,SBD,M,,Wraps
Ethan Edghill,21,M_JCR_AWPC,122.45,125,225,245,252.5,,252.5,160,170,180,,180,250,272.5,-290,,272.5,705,1,UK,SBD,M,,Wraps
Pete Tryner,52,M_OCR_AWPC,99.85,100,250,265,275,,275,90,,,,90,300,315,325,,325,690,1,UK,SBD,M,,Wraps
Tom Wride,37,M_OCR_AWPC,107.1,110,240,260,-265,,260,150,165,-175,,165,235,-245,,,235,660,1,UK,SBD,M,,Wraps
Julian Myles,34,M_OCR_AWPC,123.2,125,275,300,-310,,300,140,-150,-150,,140,270,285,,,285,725,1,UK,SBD,M,,Wraps
Scott Holland,14,M_TCR_1_AWPC,66.8,67.5,132.5,142.5,155,,155,77.5,82.5,-87.5,,82.5,140,150,160,,160,397.5,1,Ireland,SBD,M,,Wraps
Conor O'Donoghue,17,M_TCR_2_AWPC,72.4,75,150,160,-167.5,,160,80,85,90,,90,140,150,160,,160,410,2,Ireland,SBD,M,,Wraps
Gregory Gibaszek,15,M_TCR_1_AWPC,74.25,75,125,135,-140,,135,77.5,85,-92.5,,85,150,160,165,,165,385,1,UK,SBD,M,,Wraps
Steffan Edwards #2,17,M_TCR_2_AWPC,59.2,60,130,137.5,147.5,,147.5,65,70,-75,,70,155,165,170,175,170,387.5,1,UK,SBD,M,,Wraps
Sebastian Tomczyk,17,M_TCR_2_AWPC,79.4,82.5,140,-152.5,-160,,140,100,110,-117.5,,110,175,190,-205,,190,440,2,UK,SBD,M,,Wraps
Josh Mugridge,17,M_TCR_2_AWPC,66.15,67.5,150,165,172.5,178,172.5,77.5,82.5,-87.5,,82.5,180,195,-202.5,,195,450,1,UK,SBD,M,,Wraps
Jake Wallin,16,M_TCR_2_AWPC,79,82.5,150,160,170,,170,87.5,-95,-95,,87.5,185,195,200,,200,457.5,1,UK,SBD,M,,Wraps
Patrick McSweeney,15,M_TCR_1_AWPC,84.25,90,190,-210,-210,,190,122.5,135,140,-142.5,140,195,206,-215,,206,536,1,Ireland,SBD,M,,Wraps
Alex Lewis,16,M_TCR_2_AWPC,71.15,75,190,210,221,,221,92.5,100,-105,,100,195,215,-221,,215,536,1,Ireland,SBD,M,,Wraps
Conor O'Sullivan,32,M_OCR_AWPC,66.9,67.5,140,150,155,,155,110,115,120,,120,205,215,222.5,,222.5,497.5,1,Ireland,SBD,M,,Wraps
Belchior Antonio,33,M_OCR_AWPC,58.55,60,167.5,177.5,182.5,,182.5,97.5,102.5,107.5,,107.5,205,215,223,,223,513,1,UK,SBD,M,,Wraps
Jacob Richards #3,19,M_TCR_3_AWPC,68.55,75,210,-230,230,,230,105,-112.5,-112.5,,105,210,225,-235,,225,560,1,UK,SBD,M,,Wraps
Jay Holland,23,M_JCR_AWPC,81.45,82.5,227.5,240,250,,250,127.5,132.5,137.5,,137.5,215,225,232.5,,232.5,620,2,Ireland,SBD,M,,Wraps
Frazer Peppitt,23,M_JCR_AWPC,80.25,82.5,175,190,-200,,190,110,-120,120,,120,220,230,-240,,230,540,3,UK,SBD,M,,Wraps
Harry Payne,22,M_JCR_AWPC,74.4,75,212.5,220,227.5,,227.5,132.5,137.5,142.5,,142.5,225,232.5,-242.5,,232.5,602.5,1,UK,SBD,M,,Wraps
Trention Croke,23,M_JCR_AWPC,89.5,90,180,200,220,,220,135,145,-155,,145,230,260,270,-275,270,635,1,USA,SBD,M,,Wraps
Niall Gaute,22,M_JCR_AWPC,73.25,75,205,212.5,215,,215,125,132.5,-135,,132.5,240,252.5,-265,,252.5,600,2,UK,SBD,M,,Wraps
Cornelius Bacean,23,M_JCR_AWPC,79.9,82.5,-235,-235,235,,235,135,142.5,147.5,,147.5,240,250,-267.5,,250,632.5,1,Ireland,SBD,M,,Wraps
Ben Phillips #1,23,M_JCR_AWPC,74.95,75,180,195,205,,205,110,117.5,122.5,,122.5,242.5,263,-272.5,,263,590.5,3,UK,SBD,M,,Wraps
Ashley Youle,28,M_OCR_AWPC,88.6,90,240,250,260,,260,120,-130,-130,,120,270,280,-290,,280,660,2,UK,SBD,M,,Wraps
Paul Beattie,36,M_OCR_AWPC,85.7,90,255,275,292.5,,292.5,155,165,-172.5,,165,270,-290,290,,290,747.5,1,UK,SBD,M,,Wraps
David Sach,67,M_MR_6_AWPC,137.95,140,,,,,,105,110,-115,,110,,,,,,110,1,UK,B,M,,Raw
Peter Kelly #3,47,M_MR_2_AWPC,104.75,110,,,,,,125,130,-135,,130,,,,,,130,1,Ireland,B,M,,Raw
Christy Reddan,35,M_OR_AWPC,99.65,100,,,,,,135,140,142.5,,142.5,,,,,,142.5,1,Ireland,B,M,,Raw
Joseph Middleton,14,M_TR_1_AWPC,98.85,100,,,,,,145.5,147.5,152.5,-155,152.5,,,,,,152.5,1,USA,B,M,,Raw
Michael Fedarb,54,M_MR_3_AWPC,108.55,110,,,,,,130,145,-155,,145,,,,,,145,1,UK,B,M,,Raw
Petter Elvekrok,55,M_MR_4_AWPC,115.5,125,,,,,,142.5,152.5,-157.5,,152.5,,,,,,152.5,1,Sweden,B,M,,Raw
Ray Fowler,66,M_MR_6_AWPC,105.95,110,,,,,,150,155,160,-162.5,160,,,,,,160,1,Canada,B,M,,Raw
Krzysztof Frozynski,50,M_MR_3_AWPC,131.4,140,,,,,,160,170,180,,180,,,,,,180,1,UK,B,M,,Raw
Edward Davey,27,M_OR_AWPC,109.75,110,,,,,,172.5,177.5,-180,,177.5,,,,,,177.5,2,UK,B,M,,Raw
Alex Russell #2,29,M_OR_AWPC,164.1,140+,,,,,,172.5,182.5,190,,190,,,,,,190,2,UK,B,M,,Raw
Warren Whitaker,37,M_OR_AWPC,121.5,125,,,,,,175,185,190,,190,,,,,,190,2,UK,B,M,,Raw
Maciej Orlowski,35,M_OR_AWPC,124,125,,,,,,190,202.5,210,,210,,,,,,210,1,UK,B,M,,Raw
Andrew Whitaker,41,M_OR_AWPC,106.35,110,,,,,,195,205,-215,,205,,,,,,205,1,UK,B,M,,Raw
Andrew Whitaker,41,M_MR_1_AWPC,106.35,110,,,,,,195,205,-215,,205,,,,,,205,1,UK,B,M,,Raw
Remigiusz Data,26,M_OR_AWPC,170.25,140+,,,,,,200,210,220,,220,,,,,,220,1,UK,B,M,,Raw
Billy Mareya,45,M_MR_2_AWPC,120.6,125,,,,,,205,215.5,-220,,215.5,,,,,,215.5,1,UK,B,M,,Raw
Alex Brodie,10,M_YR_AWPC,43.6,52,,,,,,,,,,,30,35,40,42.5,40,40,1,Ireland,D,M,,Raw
Mary Palmer,71,F_MR_7_AWPC,62.95,67.5,,,,,,,,,,,65,67.5,70,,70,70,1,UK,D,F,,Raw
Surya Kini Radhakrishnan,14,F_TR_1_AWPC,56.3,60,,,,,,,,,,,100,107.5,112.5,,112.5,112.5,1,India,D,F,,Raw
Elana Kudryashova,50,F_MR_3_AWPC,55.2,56,,,,,,,,,,,100,110,122.5,,122.5,122.5,1,Russia,D,F,,Raw
Carmel Ramsay,55,F_MR_4_AWPC,71.25,75,,,,,,,,,,,110,120,-127.5,,120,120,1,Ireland,D,F,,Raw
Michelle Geraghty-Corns,45,F_MR_2_AWPC,50.5,52,,,,,,,,,,,115,-125,127.5,130,127.5,127.5,1,UK,D,F,,Raw
Claire Cartlidge,40,F_MR_1_AWPC,66.9,67.5,,,,,,,,,,,130,137.5,-152.5,,137.5,137.5,2,UK,D,F,,Raw
Sarah White #3,39,F_OR_AWPC,57.85,60,,,,,,,,,,,135,140,145,,145,145,2,UK,D,F,,Raw
Laura Smith #1,43,F_OR_AWPC,65.5,67.5,,,,,,,,,,,137.5,150,-155,,150,150,1,UK,D,F,,Raw
Laura Smith #1,43,F_MR_1_AWPC,65.5,67.5,,,,,,,,,,,137.5,150,-155,,150,150,1,UK,D,F,,Raw
Maria McShane,36,F_OR_AWPC,58.2,60,,,,,,,,,,,150,160,-165,,160,160,1,Ireland,D,F,,Raw
Ava Cunningham,20,F_JR_AWPC,81.5,82.5,,,,,,,,,,,100,107.5,112.5,,112.5,112.5,1,Canada,D,F,,Raw
Karen Cunningham,51,F_MR_3_AWPC,91.6,100,,,,,,,,,,,102.5,110,-115,,110,110,1,Canada,D,F,,Raw
Sal Lack,47,F_MR_2_AWPC,91.3,100,,,,,,,,,,,110,-117.5,-117.5,,110,110,1,UK,D,F,,Raw
Martine Barons,63,F_MR_5_AWPC,86.6,90,,,,,,,,,,,120,140,145,147.5,145,145,1,UK,D,F,,Raw
Julie Green #1,56,F_MR_4_AWPC,106.3,110,,,,,,,,,,,120,135,145,150,145,145,1,UK,D,F,,Raw
Nancy Brook,59,F_MR_4_AWPC,73.8,75,,,,,,,,,,,120,-125,-133,,120,120,2,USA,D,F,,Raw
Sarah Copse,34,F_OR_AWPC,76.7,82.5,,,,,,,,,,,122.5,127.5,-132.5,,127.5,127.5,3,Ireland,D,F,,Raw
Aiden Moreland,15,F_TR_1_AWPC,116.6,110+,,,,,,,,,,,127.5,140,145,147.5,145,145,1,Canada,D,F,,Raw
Rashidah Virgo,35,F_OR_AWPC,80,82.5,,,,,,,,,,,130,150,160,,160,160,2,UK,D,F,,Raw
Rachel Curley,31,F_OR_AWPC,109.6,110,,,,,,,,,,,132.5,142.5,-156,,142.5,142.5,1,Ireland,D,F,,Raw
Róisín Maher,35,F_OR_AWPC,74.85,75,,,,,,,,,,,140,150,-152.5,,150,150,2,Ireland,D,F,,Raw
Victoria Howson,46,F_MR_2_AWPC,88.25,90,,,,,,,,,,,145,157.5,165,,165,165,1,UK,D,F,,Raw
Kali Borutski,28,F_OR_AWPC,76.6,82.5,,,,,,,,,,,155,-160,162.5,,162.5,162.5,1,Canada,D,F,,Raw
Deborah Mangan,49,F_MR_2_AWPC,71.5,75,,,,,,,,,,,165,175,180,,180,180,1,Ireland,D,F,,Raw
Samantha Vickers,38,F_OR_AWPC,73.8,75,,,,,,,,,,,165,175.5,-180,,175.5,175.5,1,UK,D,F,,Raw
Gábor Kovács,61,M_MR_5_AWPC,87.4,90,,,,,,,,,,,-120,-120,120,,120,120,2,Hungary,D,M,,Raw
Bosco Reid,64,M_MR_5_AWPC,87.95,90,,,,,,,,,,,140,150,160,,160,160,1,Ireland,D,M,,Raw
Jake Coleman,18,M_TR_3_AWPC,64.8,67.5,,,,,,,,,,,160,170,185,,185,185,1,Ireland,D,M,,Raw
Adrian Smith #1,40,M_MR_1_AWPC,73,75,,,,,,,,,,,160,180,-190,,180,180,1,UK,D,M,,Raw
Andrew Rae #1,57,M_MR_4_AWPC,72.65,75,,,,,,,,,,,165,175,-180,,175,175,1,UK,D,M,,Raw
Andrie Dobrenko,61,M_MR_5_AWPC,81.15,82.5,,,,,,,,,,,180,200,-215,,200,200,1,Russia,D,M,,Raw
Peter Oram,70,M_MR_7_AWPC,89.3,90,,,,,,,,,,,190,205,215,222.5,215,215,1,UK,D,M,,Raw
Matthew Jones #26,33,M_OR_AWPC,73,75,,,,,,,,,,,197.5,205,-212.5,,205,205,1,UK,D,M,,Raw
Amar Ahmed,36,M_OR_AWPC,66.45,67.5,,,,,,,,,,,205,215,220.5,-225,220.5,220.5,1,UK,D,M,,Raw
Joe O'Brien,37,M_OR_AWPC,89.3,90,,,,,,,,,,,205,220,230,,230,230,1,Ireland,D,M,,Raw
Charlie Stewart,24,M_OR_AWPC,76.95,82.5,,,,,,,,,,,210,225,235,,235,235,1,UK,D,M,,Raw
Tyler Peoples,17,M_TR_2_AWPC,88.45,90,,,,,,,,,,,215,235,-255,,235,235,1,UK,D,M,,Raw
Billy Mareya,45,M_MR_2_AWPC,120.6,125,,,,,,,,,,,300,315,330,-340,330,330,1,UK,D,M,,Raw
Aidan Murphy,42,M_MR_1_AWPC,105.6,110,,,,,,,,,,,180,200,-210,,200,200,1,Ireland,D,M,,Raw
John McHugh,18,M_TR_3_AWPC,107.6,110,,,,,,,,,,,190,205,-220,,205,205,1,Ireland,D,M,,Raw
Christy Reddan,35,M_OR_AWPC,99.65,100,,,,,,,,,,,210,225,-235,,225,225,1,Ireland,D,M,,Raw
Jack Robbins,,M_JR_AWPC,99.75,100,,,,,,,,,,,215,230,-240,,230,230,1,UK,D,M,,Raw
Luke Humphreys,22,M_JR_AWPC,119,125,,,,,,,,,,,205,225,245,,245,245,1,UK,D,M,,Raw
Adam Feavearyear,38,M_OR_AWPC,104.2,110,,,,,,,,,,,240,255,265,,265,265,1,UK,D,M,,Raw
Samuel Mason,25,M_OR_AWPC,124.5,125,,,,,,,,,,,250,-275,-275,,250,250,2,UK,D,M,,Raw
Daniel Athorne,25,M_OR_AWPC,107.75,110,,,,,,,,,,,-277.5,-277.5,-277.5,,,,DQ,UK,D,M,,Raw
Michael Ray Brown,39,M_OR_AWPC,125,125,,,,,,,,,,,282.5,292.5,-300,,292.5,292.5,1,USA,D,M,,Raw
Remigiusz Data,26,M_OR_AWPC,170.25,140+,,,,,,,,,,,280,305,-317.5,,305,305,1,UK,D,M,,Raw
Simon Lee #1,58,M_MR_4_AWPC,117.05,125,,,,,,,,,,,220,225,,,225,225,1,UK,D,M,,Raw
Richard Green #2,58,M_MR_4_AWPC,116.7,125,,,,,,,,,,,170,,,,170,170,2,UK,D,M,,Raw
Mary Palmer,71,F_MR_7_AWPC,62.95,67.5,,,,,,35,-37.5,-37.5,,35,,,,,,35,1,UK,B,F,,Raw
Ava Cunningham,20,F_JR_AWPC,81.5,82.5,,,,,,40,42.5,-45,,42.5,,,,,,42.5,1,Canada,B,F,,Raw
Michelle Geraghty-Corns,45,F_MR_2_AWPC,50.5,52,,,,,,45,50,-52.5,,50,,,,,,50,1,UK,B,F,,Raw
Martine Barons,63,F_MR_5_AWPC,86.6,90,,,,,,50,55,57.5,-58,57.5,,,,,,57.5,1,UK,B,F,,Raw
Karen Cunningham,51,F_MR_3_AWPC,91.6,100,,,,,,52.5,55,-60,,55,,,,,,55,1,Canada,B,F,,Raw
Rashidah Virgo,35,F_OR_AWPC,80,82.5,,,,,,50,55,-62.5,,55,,,,,,55,2,UK,B,F,,Raw
Nancy Brook,59,F_MR_4_AWPC,73.8,75,,,,,,55,60,-62.5,,60,,,,,,60,1,USA,B,F,,Raw
Emma Griffith,41,F_MR_1_AWPC,84.9,90,,,,,,55,60,62.5,,62.5,,,,,,62.5,1,Ireland,B,F,,Raw
Keeley Holloran Brown,23,F_JR_AWPC,58.1,60,,,,,,62.5,65,67.5,,67.5,,,,,,67.5,1,UK,B,F,,Raw
Cecilia Bengtsson,51,F_OR_AWPC,74.1,75,,,,,,62.5,67.5,-70,,67.5,,,,,,67.5,2,Sweden,B,F,,Raw
Cecilia Bengtsson,51,F_MR_3_AWPC,74.1,75,,,,,,62.5,67.5,-70,,67.5,,,,,,67.5,1,Sweden,B,F,,Raw
Julie Green #1,56,F_MR_4_AWPC,106.3,110,,,,,,65,70,72.5,75,72.5,,,,,,72.5,1,UK,B,F,,Raw
Dorothy Sosnicki,60,F_OR_AWPC,99.3,100,,,,,,62.5,67.5,75,,75,,,,,,75,1,USA,B,F,,Raw
Dorothy Sosnicki,60,F_MR_5_AWPC,99.3,100,,,,,,62.5,67.5,75,,75,,,,,,75,1,USA,B,F,,Raw
Geraldine Bøgetoft Power,47,F_MR_2_AWPC,88.05,90,,,,,,65,75,77.5,,77.5,,,,,,77.5,1,Ireland,B,F,,Raw
Hetty Salmon,58,F_MR_4_AWPC,80.9,82.5,,,,,,70,75,77.5,78,77.5,,,,,,77.5,1,UK,B,F,,Raw
Therese Thorin,43,F_OR_AWPC,64.4,67.5,,,,,,70,75,-80,,75,,,,,,75,1,Sweden,B,F,,Raw
Therese Thorin,43,F_MR_1_AWPC,64.4,67.5,,,,,,70,75,-80,,75,,,,,,75,1,Sweden,B,F,,Raw
Charlotte Stapleton,34,F_OR_AWPC,82.1,82.5,,,,,,70,77.5,-80,,77.5,,,,,,77.5,1,UK,B,F,,Raw
Sal Lack,47,F_MR_2_AWPC,91.3,100,,,,,,77.5,-82.5,-82.5,,77.5,,,,,,77.5,1,UK,B,F,,Raw
Natalie Johnson,42,F_OR_AWPC,73.1,75,,,,,,90,-95,-95,,90,,,,,,90,1,UK,B,F,,Raw
Natalie Johnson,42,F_MR_1_AWPC,73.1,75,,,,,,90,-95,-95,,90,,,,,,90,1,UK,B,F,,Raw
Ben O Rourke,15,M_TR_1_AWPC,74.65,75,,,,,,55,-60,60,,60,,,,,,60,1,Ireland,B,M,,Raw
Thomas Dillon,81,M_MR_9_AWPC,78.05,82.5,,,,,,60,65,70,75,70,,,,,,70,1,Ireland,B,M,,Raw
Stephen Johnson #1,77,M_MR_8_AWPC,86.75,90,,,,,,60,65,-70,,65,,,,,,65,1,UK,B,M,,Raw
Bosco Reid,64,M_MR_5_AWPC,87.95,90,,,,,,80,85,90,,90,,,,,,90,2,Ireland,B,M,,Raw
Matthew Jones #26,33,M_OR_AWPC,73,75,,,,,,92.5,97.5,100,,100,,,,,,100,1,UK,B,M,,Raw
Stephen Hart,68,M_MR_6_AWPC,82.05,82.5,,,,,,95,-100,100,,100,,,,,,100,1,UK,B,M,,Raw
Fraser Montgomery,54,M_MR_3_AWPC,89.8,90,,,,,,95,105,-110,,105,,,,,,105,1,UK,B,M,,Raw
Amar Ahmed,36,M_OR_AWPC,66.45,67.5,,,,,,100,105,-110,,105,,,,,,105,1,UK,B,M,,Raw
Andrew Rae #1,57,M_MR_4_AWPC,72.65,75,,,,,,102.5,-110,110,,110,,,,,,110,1,UK,B,M,,Raw
Gábor Kovács,61,M_MR_5_AWPC,87.4,90,,,,,,100,110,120,,120,,,,,,120,1,Hungary,B,M,,Raw
Adrian Smith #1,40,M_MR_1_AWPC,73,75,,,,,,110,117.5,-122.5,,117.5,,,,,,117.5,1,UK,B,M,,Raw
Stephen Rigley,48,M_MR_2_AWPC,80.6,82.5,,,,,,125,135,-140,,135,,,,,,135,1,Ireland,B,M,,Raw
Joe O'Brien,37,M_OR_AWPC,89.3,90,,,,,,127.5,135,140,,140,,,,,,140,3,Ireland,B,M,,Raw
John MacDonald #3,57,M_OR_AWPC,88.65,90,,,,,,135,140,-142.5,,140,,,,,,140,2,UK,B,M,,Raw
John MacDonald #3,57,M_MR_4_AWPC,88.65,90,,,,,,135,140,-142.5,,140,,,,,,140,1,UK,B,M,,Raw
Ronan Martin,36,M_OR_AWPC,79.85,82.5,,,,,,135,142.5,-150,,142.5,,,,,,142.5,1,Ireland,B,M,,Raw
Joseph Gill,17,M_OR_AWPC,86.8,90,,,,,,145,152.5,-155.5,,152.5,,,,,,152.5,1,UK,B,M,,Raw
Joseph Gill,17,M_TR_2_AWPC,86.8,90,,,,,,145,152.5,-155.5,,152.5,,,,,,152.5,1,UK,B,M,,Raw
