Place,Name,Sex,Event,Division,WeightClassKg,Equipment,BirthYear,Team,Country,State,BodyweightKg,Squat1Kg,Squat2Kg,Squat3Kg,Best3SquatKg,Bench1Kg,Bench2Kg,Bench3Kg,Best3BenchKg,Deadlift1Kg,Deadlift2Kg,Deadlift3Kg,Best3DeadliftKg,TotalKg,Age,BirthDate
1,Erika Meredith,F,SBD,FR-Jr,48,Raw,2002,,USA,NY,46.5,82.5,-87.5,87.5,87.5,50,52.5,-55,52.5,110,115,-120,115,255,,
1,Jenny Wang,F,SBD,FR-Jr,52,Raw,2002,,USA,MA,51.8,97.5,105,107.5,107.5,85,90,93.5,93.5,127.5,135,142.5,142.5,343.5,,
1,Emmalee Smith,F,SBD,FR-Jr,56,Raw,2000,,USA,ME,55.75,107.5,115,122.5,122.5,52.5,55,57.5,57.5,112.5,120,127.5,127.5,307.5,,
1,Michaela Liewa,F,SBD,FR-Jr,60,Raw,2003,,USA,NY,58.95,135,140,145,145,65,70,75,75,165,175,182.5,182.5,402.5,,
2,Thanh Tran #1,F,SBD,FR-Jr,60,Raw,2001,,USA,MA,58.8,117.5,125,-130,125,50,55,60,60,125,135,142.5,142.5,327.5,,
3,Isabella Scandura,F,SBD,FR-Jr,60,Raw,2001,,USA,CT,57.55,100,110,-120,110,57.5,62.5,-65,62.5,110,120,-125,120,292.5,,
1,Stephanie Davino,F,SBD,FR-Jr,75,Raw,2002,,USA,CT,70.85,130,137.5,-142.5,137.5,85,87.5,90,90,170,182.5,200,200,427.5,,
2,Deborah Adekunle,F,SBD,FR-Jr,75,Raw,2004,Level Up Training Systems,USA,RI,74.95,152.5,157.5,162.5,162.5,72.5,80,85,85,147.5,160,167.5,167.5,415,,
3,Kati Vaca Diez,F,SBD,FR-Jr,75,Raw,2000,,USA,MA,74.6,152.5,157.5,165,165,70,75,77.5,77.5,152.5,162.5,170,170,412.5,,
4,Beverly Nguyen,F,SBD,FR-Jr,75,Raw,2001,The Iron Mecca,USA,MA,73.35,130,137.5,142.5,142.5,80,85,-90,85,160,170,-180,170,397.5,,
5,Julianna Larue,F,SBD,FR-Jr,75,Raw,2000,,USA,CT,73.85,147.5,152.5,,152.5,70,77.5,-82.5,77.5,147.5,160,-167.5,160,390,,
1,Elizabeth Souza,F,SBD,FR-Jr,90,Raw,2002,Stand Strong,USA,ME,87,130,137.5,145,145,60,65,67.5,67.5,132.5,137.5,-142.5,137.5,350,,
1,Rebekah Hunnewell Dunphe,F,SBD,FR-Jr,100+,Raw,2001,,USA,ME,146.7,-145,145,165,165,70,75,-82.5,75,-157.5,160,165,165,405,,
1,Corinne Sadinsky,F,SBD,FR-Jr,67.5,Raw,2001,,USA,CT,66.35,130,140,145,145,80,85,-87.5,85,155,165,-172.5,165,395,,
2,Brittany Futia,F,SBD,FR-Jr,67.5,Raw,2000,,USA,NY,61.55,127.5,132.5,-137.5,132.5,67.5,72.5,75,75,165,172.5,175,175,382.5,,
3,Sarah Currier,F,SBD,FR-Jr,67.5,Raw,2001,Triumph Strength and Performance,USA,MA,64.1,110,120,125,125,72.5,77.5,82.5,82.5,127.5,135,140,140,347.5,,
4,Emely Zeng,F,SBD,FR-Jr,67.5,Raw,2003,The Iron Mecca,USA,MA,65.05,127.5,-135,137.5,137.5,62.5,67.5,-75,67.5,135,-140,-140,135,340,,
5,Hattie Dunton,F,SBD,FR-Jr,67.5,Raw,2003,Stand Strong,USA,ME,64.9,110,120,-127.5,120,52.5,-57.5,57.5,57.5,140,152.5,157.5,157.5,335,,
6,Lexa Van Duine,F,SBD,FR-Jr,67.5,Raw,2001,,USA,CT,67.5,110,117.5,-122.5,117.5,60,62.5,-65,62.5,132.5,142.5,152.5,152.5,332.5,,
7,Grace Poirier,F,SBD,FR-Jr,67.5,Raw,2004,Team Hogan,USA,ME,66.1,110,120,-125,120,47.5,52.5,55,55,122.5,132.5,137.5,137.5,312.5,,
1,Elizabeth Yarde,F,SBD,FR-Jr,82.5,Raw,2003,,USA,MA,82.45,167.5,177.5,180,180,85,87.5,90,90,195,205,215,215,485,,
1,Kelly Torres,F,SBD,FR-M1,56,Raw,1982,,USA,NY,56,107.5,110,115,115,65,70,-72.5,70,132.5,137.5,140,140,325,,
1,Melissa Smith #8,F,SBD,FR-M1,75,Raw,1981,,USA,NY,72.5,130,140,147.5,147.5,80,85,87.5,87.5,140,150,157.5,157.5,392.5,,
1,April Grey,F,SBD,FR-M1,90,Raw,1977,Team GPT,USA,CT,89.7,152.5,160,165,165,87.5,90,-92.5,90,170,-180,180,180,435,,
1,LeeAnn Delcourt,F,SBD,FR-M1,100,Raw,1975,Stand Strong,USA,ME,91.2,142.5,150,155,155,65,70,75,75,180,190,-197.5,190,420,,
2,Taryn Turcotte,F,SBD,FR-M1,100,Raw,1980,,USA,ME,96.45,107.5,117.5,127.5,127.5,65,70,-72.5,70,127.5,-140,142.5,142.5,340,,
1,Jennifer Marsh,F,SBD,FR-M1,67.5,Raw,1984,Fitmore,USA,CT,66.9,105,115,-122.5,115,70,75,77.5,77.5,132.5,145,152.5,152.5,345,,
2,Lauren White #1,F,SBD,FR-M1,67.5,Raw,1982,,USA,NY,62.3,122.5,130,-135,130,67.5,75,-80,75,127.5,135,-137.5,135,340,,
1,Tricia Hunt,F,SBD,FR-M1,82.5,Raw,1976,,USA,ME,80.45,132.5,142.5,-147.5,142.5,-80,-80,80,80,147.5,155,162.5,162.5,385,,
1,Shelly Cole,F,SBD,FR-M2,90,Raw,1970,,USA,VT,88.7,125,132.5,-140,132.5,57.5,62.5,-65,62.5,130,140,145,145,340,,
2,Shelby Downing,F,SBD,FR-M2,90,Raw,1967,Stand Strong,USA,ME,83.8,112.5,122.5,130,130,60,67.5,-72.5,67.5,127.5,137.5,-142.5,137.5,335,,
3,Tina Elliott,F,SBD,FR-M2,90,Raw,1965,,USA,ME,84.25,-87.5,87.5,95,95,45,-47.5,-47.5,45,115,-120,-120,115,255,,
4,Heidi Nielsen,F,SBD,FR-M2,90,Raw,1968,Level Up Training Systems,USA,RI,89.55,-82.5,82.5,90,90,45,47.5,52.5,52.5,92.5,97.5,105,105,247.5,,
1,Kristen Bilotta,F,SBD,FR-M2,100+,Raw,1973,,USA,CT,118,80,90,97.5,97.5,55,60,62.5,62.5,110,120,-125,120,280,,
1,Brenna Herridge,F,SBD,FR-M2,67.5,Raw,1970,Stand Strong,USA,ME,65.25,120,127.5,130,130,60,65,-67.5,65,125,-132.5,-132.5,125,320,,
DQ,Jodi Porcu,F,SBD,FR-M2,82.5,Raw,1971,,USA,CT,80.3,115,-125,-127.5,115,-60,-60,-60,,130,140,-145,140,,,
1,Maureen Aldrich,F,SBD,FR-M3,75,Raw,1959,,USA,VT,74.45,120,,,120,57.5,62.5,-65,62.5,100,110,120,120,302.5,,
1,Erika Meredith,F,SBD,FR-O,48,Raw,2002,,USA,NY,46.5,82.5,-87.5,87.5,87.5,50,52.5,-55,52.5,110,115,-120,115,255,,
1,Mia Santucci,F,SBD,FR-O,52,Raw,2000,Triumph Strength and Performance,USA,MA,50.65,92.5,100,-105,100,50,52.5,55,55,105,112.5,120,120,275,,
2,Emily Perry #1,F,SBD,FR-O,52,Raw,2002,Stand Strong,USA,ME,48.9,70,-75,77.5,77.5,37.5,42.5,-47.5,42.5,80,92.5,-102.5,92.5,212.5,,
1,Morgan Wilderman,F,SBD,FR-O,56,Raw,1996,Team GPT,USA,CT,55.3,105,112.5,117.5,117.5,57.5,-62.5,-62.5,57.5,140,147.5,152.5,152.5,327.5,,
2,Kelly Torres,F,SBD,FR-O,56,Raw,1982,,USA,NY,56,107.5,110,115,115,65,70,-72.5,70,132.5,137.5,140,140,325,,
3,Jamie Kingsley,F,SBD,FR-O,56,Raw,1985,,USA,CT,54.1,95,-97.5,100,100,50,52.5,-55,52.5,125,132.5,135,135,287.5,,
4,Brittney Schuessler,F,SBD,FR-O,56,Raw,1989,,USA,RI,54,100,105,-107.5,105,45,47.5,-50,47.5,107.5,115,117.5,117.5,270,,
5,Karlie Hutchinson,F,SBD,FR-O,56,Raw,2009,Stand Strong,USA,ME,54.95,70,75,87.5,87.5,30,37.5,42.5,42.5,80,87.5,-95,87.5,217.5,,
1,Samantha Loffredo,F,SBD,FR-O,60,Raw,2001,,USA,CT,59.55,145,152.5,160,160,70,72.5,75,75,182.5,192.5,200,200,435,,
2,Michaela Liewa,F,SBD,FR-O,60,Raw,2003,,USA,NY,58.95,135,140,145,145,65,70,75,75,165,175,182.5,182.5,402.5,,
3,Sarah Ma,F,SBD,FR-O,60,Raw,2001,Triumph Strength and Performance,USA,MA,58.45,122.5,130,137.5,137.5,70,75,77.5,77.5,145,155,162.5,162.5,377.5,,
1,Danielle LaMarca,F,SBD,FR-O,75,Raw,1991,,USA,ME,73.75,170,177.5,185,185,85,92.5,97.5,97.5,155,165,170,170,452.5,,
2,Lindsay Thompson,F,SBD,FR-O,75,Raw,1990,,USA,NH,71,140,152.5,160,160,80,85,87.5,87.5,180,192.5,-207.5,192.5,440,,
3,Carrie Zhao,F,SBD,FR-O,75,Raw,1999,,USA,NY,73.35,155,165,170,170,85,92.5,-97.5,92.5,150,165,,165,427.5,,
4,Deborah Adekunle,F,SBD,FR-O,75,Raw,2004,Level Up Training Systems,USA,RI,74.95,152.5,157.5,162.5,162.5,72.5,80,85,85,147.5,160,167.5,167.5,415,,
5,Julia Wells,F,SBD,FR-O,75,Raw,2005,Stand Strong,USA,ME,75,-155,162.5,170,170,75,82.5,-90,82.5,145,152.5,162.5,162.5,415,,
6,Kati Vaca Diez,F,SBD,FR-O,75,Raw,2000,,USA,MA,74.6,152.5,157.5,165,165,70,75,77.5,77.5,152.5,162.5,170,170,412.5,,
7,Brittany Armstrong #1,F,SBD,FR-O,75,Raw,1992,,USA,CT,74.8,-165,-167.5,167.5,167.5,80,85,87.5,87.5,-155,155,-170,155,410,,
8,Beverly Nguyen,F,SBD,FR-O,75,Raw,2001,The Iron Mecca,USA,MA,73.35,130,137.5,142.5,142.5,80,85,-90,85,160,170,-180,170,397.5,,
9,Julianna Larue,F,SBD,FR-O,75,Raw,2000,,USA,CT,73.85,147.5,152.5,,152.5,70,77.5,-82.5,77.5,147.5,160,-167.5,160,390,,
10,Tori Stengel,F,SBD,FR-O,75,Raw,1994,,USA,ME,70.85,105,115,-120,115,57.5,65,-67.5,65,127.5,137.5,142.5,142.5,322.5,,
11,Madeline Sullivan,F,SBD,FR-O,75,Raw,2000,,USA,MA,73.6,110,115,120,120,50,55,-60,55,130,137.5,-145,137.5,312.5,,
1,Hannah Mager,F,SBD,FR-O,90,Raw,1993,,USA,NY,87.25,147.5,-157.5,170,170,77.5,85,-92.5,85,167.5,-182.5,190,190,445,,
2,April Grey,F,SBD,FR-O,90,Raw,1977,Team GPT,USA,CT,89.7,152.5,160,165,165,87.5,90,-92.5,90,170,-180,180,180,435,,
3,Brianna Townsend,F,SBD,FR-O,90,Raw,1992,Team GPT,USA,CT,88.45,145,155,162.5,162.5,72.5,77.5,82.5,82.5,172.5,182.5,-190,182.5,427.5,,
4,Tayla Knapp,F,SBD,FR-O,90,Raw,1995,Team Hogan,USA,ME,87.1,137.5,147.5,-155,147.5,57.5,62.5,65,65,172.5,185,-190,185,397.5,,
5,Elizabeth Souza,F,SBD,FR-O,90,Raw,2002,Stand Strong,USA,ME,87,130,137.5,145,145,60,65,67.5,67.5,132.5,137.5,-142.5,137.5,350,,
6,Shelby Downing,F,SBD,FR-O,90,Raw,1967,Stand Strong,USA,ME,83.8,112.5,122.5,130,130,60,67.5,-72.5,67.5,127.5,137.5,-142.5,137.5,335,,
7,Heidi Nielsen,F,SBD,FR-O,90,Raw,1968,Level Up Training Systems,USA,RI,89.55,-82.5,82.5,90,90,45,47.5,52.5,52.5,92.5,97.5,105,105,247.5,,
1,LeeAnn Delcourt,F,SBD,FR-O,100,Raw,1975,Stand Strong,USA,ME,91.2,142.5,150,155,155,65,70,75,75,180,190,-197.5,190,420,,
2,Elizabeth Bernier,F,SBD,FR-O,100,Raw,1995,,USA,NH,93.05,120,127.5,132.5,132.5,75,80,82.5,82.5,132.5,145,-150,145,360,,
3,Alyssa Wiener,F,SBD,FR-O,100,Raw,1992,,USA,CT,95.85,120,130,-135,130,60,-67.5,-67.5,60,130,-137.5,-140,130,320,,
1,Maria Canela Basilio,F,SBD,FR-O,100+,Raw,1993,,USA,NY,109.15,195,205,210,210,97.5,105,110,110,190,200,205,205,525,,
2,Jessica Zannini,F,SBD,FR-O,100+,Raw,1987,Level Up Training Systems,USA,RI,133.3,165,175,182.5,182.5,117.5,125,-127.5,125,180,195,-205,195,502.5,,
3,Nikke Soremekun,F,SBD,FR-O,100+,Raw,1987,,USA,NY,101.95,160,170,175,175,95,100,-105,100,165,175,180,180,455,,
4,Brittany Smith #3,F,SBD,FR-O,100+,Raw,1988,,USA,ME,112.55,140,147.5,-162.5,147.5,72.5,75,80,80,170,175,182.5,182.5,410,,
5,Emily Gallant,F,SBD,FR-O,100+,Raw,1992,Team Hogan,USA,NH,108.35,110,120,125,125,62.5,67.5,70,70,117.5,127.5,132.5,132.5,327.5,,
6,Shayla Skinner,F,SBD,FR-O,100+,Raw,2000,,USA,ME,122.4,85,95,102.5,102.5,-52.5,52.5,-57.5,52.5,137.5,-147.5,-147.5,137.5,292.5,,
1,Brooke Reynolds,F,SBD,FR-O,67.5,Raw,1991,,USA,MA,66.4,147.5,160,167.5,167.5,70,77.5,-82.5,77.5,160,172.5,177.5,177.5,422.5,,
2,Christina Consigli,F,SBD,FR-O,67.5,Raw,1991,,USA,ME,66.35,137.5,145,155,155,72.5,77.5,80,80,150,155,162.5,162.5,397.5,,
3,Rachel Meier,F,SBD,FR-O,67.5,Raw,1997,Team GPT,USA,CT,65.3,130,137.5,-145,137.5,72.5,77.5,-80,77.5,140,147.5,155,155,370,,
4,Abigail O'Brien,F,SBD,FR-O,67.5,Raw,2002,Triumph Strength and Performance,USA,NH,66.6,122.5,130,-135,130,85,87.5,90,90,135,142.5,150,150,370,,
5,Kate Gonzalez,F,SBD,FR-O,67.5,Raw,1999,,USA,NY,66.9,132.5,137.5,140,140,70,75,-77.5,75,145,152.5,-160,152.5,367.5,,
6,Jaida Li,F,SBD,FR-O,67.5,Raw,1986,,USA,CT,60.1,110,115,122.5,122.5,60,65,-70,65,147.5,157.5,170,170,357.5,,
7,Brittany Boxer,F,SBD,FR-O,67.5,Raw,1990,Team Hogan,USA,ME,65.45,122.5,132.5,137.5,137.5,62.5,67.5,70,70,140,150,-160,150,357.5,,
8,Reghan Lanning,F,SBD,FR-O,67.5,Raw,2001,Triumph Strength and Performance,USA,MA,64.6,110,117.5,122.5,122.5,65,70,72.5,72.5,135,145,152.5,152.5,347.5,,
9,Emely Zeng,F,SBD,FR-O,67.5,Raw,2003,The Iron Mecca,USA,MA,65.05,127.5,-135,137.5,137.5,62.5,67.5,-75,67.5,135,-140,-140,135,340,,
10,Hattie Dunton,F,SBD,FR-O,67.5,Raw,2003,Stand Strong,USA,ME,64.9,110,120,-127.5,120,52.5,-57.5,57.5,57.5,140,152.5,157.5,157.5,335,,
11,Brianna Cowing,F,SBD,FR-O,67.5,Raw,1999,Team Hogan,USA,NH,65.15,115,125,130,130,57.5,62.5,-65,62.5,132.5,142.5,-147.5,142.5,335,,
12,Dawn Assumma,F,SBD,FR-O,67.5,Raw,1985,Team GPT,USA,NY,67,107.5,115,120,120,60,65,-70,65,140,145,-150,145,330,,
13,Brenna Herridge,F,SBD,FR-O,67.5,Raw,1970,Stand Strong,USA,ME,65.25,120,127.5,130,130,60,65,-67.5,65,125,-132.5,-132.5,125,320,,
14,Haley-Jane Tuplin,F,SBD,FR-O,67.5,Raw,2005,Team Hogan,USA,ME,65.1,87.5,97.5,105,105,60,65,67.5,67.5,120,130,140,140,312.5,,
15,Grace Poirier,F,SBD,FR-O,67.5,Raw,2004,Team Hogan,USA,ME,66.1,110,120,-125,120,47.5,52.5,55,55,122.5,132.5,137.5,137.5,312.5,,
1,Elizabeth Yarde,F,SBD,FR-O,82.5,Raw,2003,,USA,MA,82.45,167.5,177.5,180,180,85,87.5,90,90,195,205,215,215,485,,
2,Abby Salamon,F,SBD,FR-O,82.5,Raw,1998,Fitmore,USA,MA,78.8,152.5,165,170,170,75,80,82.5,82.5,160,172.5,180,180,432.5,,
3,Emily Grinnell,F,SBD,FR-O,82.5,Raw,1997,Team Hogan,USA,ME,81.65,-155,155,160,160,90,95,97.5,97.5,152.5,165,-175,165,422.5,,
4,Tricia Hunt,F,SBD,FR-O,82.5,Raw,1976,,USA,ME,80.45,132.5,142.5,-147.5,142.5,-80,-80,80,80,147.5,155,162.5,162.5,385,,
5,Michelle Orlando,F,SBD,FR-O,82.5,Raw,1998,,USA,CT,80.25,120,-130,137.5,137.5,62.5,70,-77.5,70,152.5,162.5,170,170,377.5,,
6,Meghan Frangione,F,SBD,FR-O,82.5,Raw,1995,Team Hogan,USA,CT,76.9,100,110,115,115,42.5,47.5,50,50,105,115,120,120,285,,
DQ,Jeannie Maestre,F,SBD,FR-O,82.5,Raw,1989,,USA,CT,75.05,147.5,155,-157.5,155,-80,-80,-80,,152.5,160,165,165,,,
1,Karlie Hutchinson,F,SBD,FR-T1,56,Raw,2009,Stand Strong,USA,ME,54.95,70,75,87.5,87.5,30,37.5,42.5,42.5,80,87.5,-95,87.5,217.5,,
1,Isabelle Jobin,F,SBD,FR-T2,75,Raw,2006,,USA,NH,71.75,105,115,-122.5,115,60,62.5,-65,62.5,120,130,137.5,137.5,315,,
1,Olivia Antonelli,F,SBD,FR-T3,52,Raw,2004,,USA,RI,51.3,112.5,-117.5,117.5,117.5,72.5,-77.5,-77.5,72.5,120,130,137.5,137.5,327.5,,
DQ,Marilyn Giese,F,SBD,FR-T3,56,Raw,2005,,USA,MA,54.3,-115,,,,,,,,,,,,,,
1,Julia Wells,F,SBD,FR-T3,75,Raw,2005,Stand Strong,USA,ME,75,-155,162.5,170,170,75,82.5,-90,82.5,145,152.5,162.5,162.5,415,,
2,Kathryn Barter,F,SBD,FR-T3,75,Raw,2005,,USA,ME,73.85,-80,90,-100,90,52.5,60,65,65,107.5,120,-135,120,275,,
1,Haley-Jane Tuplin,F,SBD,FR-T3,67.5,Raw,2005,Team Hogan,USA,ME,65.1,87.5,97.5,105,105,60,65,67.5,67.5,120,130,140,140,312.5,,
2,Monique Lu,F,SBD,FR-T3,67.5,Raw,2004,,USA,MA,64.3,102.5,107.5,115,115,42.5,45,-47.5,45,97.5,102.5,107.5,107.5,267.5,,
G,Zachary Gorra,M,SBD,MR-G,140+,Raw,1986,,USA,MA,180.65,-250,252.5,,252.5,182.5,-200,,182.5,227.5,-262.5,,227.5,662.5,,
DQ,David Nguyen #11,M,SBD,MR-Jr,52,Raw,2004,,USA,MA,51.8,125,130,,130,-110,-110,-110,,,,,,,,
1,Tyler Stanio,M,SBD,MR-Jr,75,Raw,2000,,USA,CT,74.5,230,242.5,247.5,247.5,147.5,155,-157.5,155,297.5,-320,-320,297.5,700,,
2,Dylan Stefan,M,SBD,MR-Jr,75,Raw,2003,,USA,MA,74.8,210,222.5,232.5,232.5,127.5,132.5,135,135,255,272.5,282.5,282.5,650,,
3,Kevin Vasallo,M,SBD,MR-Jr,75,Raw,2000,Cyborg Strength,USA,CT,74,202.5,210,217.5,217.5,122.5,130,137.5,137.5,225,237.5,250,250,605,,
4,Darath Khon,M,SBD,MR-Jr,75,Raw,2000,,USA,MA,73.5,197.5,207.5,-217.5,207.5,117.5,122.5,-127.5,122.5,272.5,-282.5,,272.5,602.5,,
5,Alexander Domingos,M,SBD,MR-Jr,75,Raw,2000,Cyborg Strength,USA,CT,73.9,185,195,-202.5,195,-150,150,-157.5,150,225,235,-245,235,580,,
6,Henry Le,M,SBD,MR-Jr,75,Raw,2003,,USA,MA,74.6,185,192.5,200,200,125,130,135,135,217.5,230,240,240,575,,
7,Garrick Cheng,M,SBD,MR-Jr,75,Raw,2004,,USA,NY,74.1,170,182.5,187.5,187.5,135,142.5,150,150,217.5,227.5,232.5,232.5,570,,
8,Matthew Wong,M,SBD,MR-Jr,75,Raw,2000,Triumph Strength and Performance,USA,MA,74.9,192.5,-202.5,-202.5,192.5,122.5,130,-135,130,200,212.5,225,225,547.5,,
9,Cedric Salazar,M,SBD,MR-Jr,75,Raw,2002,,USA,NY,73.05,170,177.5,182.5,182.5,85,92.5,-97.5,92.5,200,210,-215,210,485,,
10,Henry Yu,M,SBD,MR-Jr,75,Raw,2003,,USA,NY,74.3,155,162.5,170,170,100,105,110,110,-177.5,185,195,195,475,,
1,Zachary Fowler,M,SBD,MR-Jr,90,Raw,2002,,USA,MA,89.9,240,255,262.5,262.5,115,120,125,125,267.5,282.5,295,295,682.5,,
2,Ely Yang,M,SBD,MR-Jr,90,Raw,2001,Stand Strong,USA,ME,89.6,-240,-245,245,245,152.5,160,-170,160,237.5,250,260,260,665,,
3,Evan Tu,M,SBD,MR-Jr,90,Raw,2002,,USA,MA,89.25,225,235,242.5,242.5,142.5,152.5,-160,152.5,235,250,265,265,660,,
4,Justin Dam,M,SBD,MR-Jr,90,Raw,2002,Triumph Strength and Performance,USA,CT,87.05,192.5,202.5,212.5,212.5,147.5,155,-160,155,250,-270,277.5,277.5,645,,
5,Mario Franco,M,SBD,MR-Jr,90,Raw,2002,,USA,MA,86.75,217.5,227.5,-237.5,227.5,107.5,115,117.5,117.5,232.5,245,252.5,252.5,597.5,,
6,Ronald Galluccio,M,SBD,MR-Jr,90,Raw,2000,,USA,NY,89.05,185,200,210,210,132.5,137.5,142.5,142.5,217.5,232.5,-250,232.5,585,,
7,Gavin Akeley,M,SBD,MR-Jr,90,Raw,2002,Team Hogan,USA,ME,87.95,190,202.5,207.5,207.5,-127.5,132.5,137.5,137.5,200,212.5,217.5,217.5,562.5,,
8,Liam McGibbon,M,SBD,MR-Jr,90,Raw,2002,,USA,ME,88.5,167.5,180,192.5,192.5,117.5,127.5,-135,127.5,210,227.5,242.5,242.5,562.5,,
9,Nathanael Speroni,M,SBD,MR-Jr,90,Raw,2001,Level Up Training Systems,USA,RI,84.25,167.5,177.5,185,185,117.5,122.5,127.5,127.5,195,210,227.5,227.5,540,,
10,Pasquale Gallo,M,SBD,MR-Jr,90,Raw,2002,,USA,CT,88.8,182.5,-185,185,185,-107.5,107.5,112.5,112.5,227.5,237.5,242.5,242.5,540,,
11,John Fukuda,M,SBD,MR-Jr,90,Raw,2004,,USA,NY,89.45,172.5,180,185,185,110,115,117.5,117.5,210,-220,-220,210,512.5,,
12,Daniel Chioffi,M,SBD,MR-Jr,90,Raw,2003,,USA,MA,85.75,175,182.5,-187.5,182.5,117.5,120,125,125,180,-187.5,,180,487.5,,
1,Brandon Chhim,M,SBD,MR-Jr,100,Raw,2001,,USA,NH,97.85,245,265,272.5,272.5,162.5,175,-180,175,-255,270,-290,270,717.5,,
2,Jordan Bourdeau,M,SBD,MR-Jr,100,Raw,2003,,USA,VT,97.5,235,255,270,270,127.5,135,140,140,262.5,280,292.5,292.5,702.5,,
3,Angel Amaya,M,SBD,MR-Jr,100,Raw,2004,,USA,MA,96.55,250,262.5,272.5,272.5,130,135,140,140,245,257.5,265,265,677.5,,
4,Nicholas Hallon,M,SBD,MR-Jr,100,Raw,2002,Triumph Strength and Performance,USA,MA,98.95,222.5,237.5,-252.5,237.5,145,-155,155,155,245,260,270,270,662.5,,
1,Nick Huempfner,M,SBD,MR-Jr,110,Raw,2004,,USA,CT,109.65,210,220,227.5,227.5,142.5,150,155,155,250,265,272.5,272.5,655,,
2,Jared Withers,M,SBD,MR-Jr,110,Raw,2001,,USA,ME,105.1,175,185,195,195,115,122.5,127.5,127.5,235,245,260,260,582.5,,
1,Eric Pimentel,M,SBD,MR-Jr,125,Raw,2002,Triumph Strength and Performance,USA,MA,123.8,235,252.5,260,260,142.5,150,155,155,260,280,-295,280,695,,
1,Avinaash Janarthanan,M,SBD,MR-Jr,67.5,Raw,2003,,USA,MA,67.25,190,202.5,-205,202.5,132.5,140,-142.5,140,247.5,260,270,270,612.5,,
2,Brian Yan #1,M,SBD,MR-Jr,67.5,Raw,2003,The Iron Mecca,USA,MA,66.95,170,182.5,192.5,192.5,112.5,117.5,-122.5,117.5,215,230,242.5,242.5,552.5,,
3,Skyler Normandie,M,SBD,MR-Jr,67.5,Raw,2003,Triumph Strength and Performance,USA,MA,64.4,152.5,162.5,170,170,97.5,105,110,110,195,207.5,217.5,217.5,497.5,,
4,Hamilton Portillo,M,SBD,MR-Jr,67.5,Raw,2002,,USA,MA,66.25,170,180,-182.5,180,112.5,117.5,120,120,190,197.5,-202.5,197.5,497.5,,
1,Nicholas Guarino #1,M,SBD,MR-Jr,82.5,Raw,2000,,USA,NY,82.1,245,260,-265,260,180,-190,190,190,260,272.5,-287.5,272.5,722.5,,
2,Stephen Milillo,M,SBD,MR-Jr,82.5,Raw,2002,Team GPT,USA,NY,82.45,220,235,245,245,135,140,145,145,270,280,295,295,685,,
3,Alexander Manning,M,SBD,MR-Jr,82.5,Raw,2001,,USA,MA,81.75,200,212.5,225,225,155,162.5,-165,162.5,267.5,282.5,-295,282.5,670,,
4,Alexander Schrijn,M,SBD,MR-Jr,82.5,Raw,2000,Cyborg Strength,USA,CT,77.75,207.5,212.5,-220,212.5,155,162.5,-167.5,162.5,250,260,267.5,267.5,642.5,,
5,Michael Lebreck,M,SBD,MR-Jr,82.5,Raw,2002,,USA,CT,82.5,220,232.5,237.5,237.5,152.5,160,-162.5,160,227.5,240,-247.5,240,637.5,,
6,Benjamin Tse,M,SBD,MR-Jr,82.5,Raw,2000,,USA,NY,81.4,220,235,240,240,140,150,-155,150,245,-260,-260,245,635,,
7,Joshua Lim,M,SBD,MR-Jr,82.5,Raw,2001,,USA,MA,81.25,195,210,220,220,135,-142.5,147.5,147.5,210,227.5,-242.5,227.5,595,,
8,Anthony Lam,M,SBD,MR-Jr,82.5,Raw,2004,,USA,MA,79.8,195,207.5,217.5,217.5,132.5,137.5,142.5,142.5,207.5,217.5,230,230,590,,
9,Shayan Raza,M,SBD,MR-Jr,82.5,Raw,2000,,USA,MA,79.1,195,207.5,220,220,110,115,-120,115,210,225,237.5,237.5,572.5,,
10,Noel Abalos,M,SBD,MR-Jr,82.5,Raw,2001,Triumph Strength and Performance,USA,MA,82.3,197.5,207.5,215,215,122.5,-127.5,127.5,127.5,217.5,-225,-225,217.5,560,,
11,Danny Nguyen #12,M,SBD,MR-Jr,82.5,Raw,2004,,USA,MA,79.6,162.5,172.5,182.5,182.5,97.5,102.5,107.5,107.5,187.5,197.5,205,205,495,,
DQ,Denis Jobin,M,SBD,MR-M1,75,Raw,1979,,USA,NH,73.45,-182.5,-187.5,-187.5,,140,147.5,-152.5,147.5,225,232.5,240,240,,,
1,Nathan Kulas,M,SBD,MR-M1,100,Raw,1983,,USA,ME,97.6,272.5,290,300,300,160,167.5,170,170,300,317.5,327.5,327.5,797.5,,
2,Brad Harris,M,SBD,MR-M1,100,Raw,1976,,USA,MA,97.95,237.5,247.5,250,250,130,137.5,-142.5,137.5,245,257.5,-267.5,257.5,645,,
1,Nicholas Zeckets,M,SBD,MR-M1,125,Raw,1980,,USA,MA,112,167.5,-170,-175,167.5,127.5,130,132.5,132.5,220,230,237.5,237.5,537.5,,
1,David Guerino,M,SBD,MR-M1,140+,Raw,1983,,USA,CT,174.75,-192.5,192.5,215,215,145,155,165,165,197.5,215,227.5,227.5,607.5,,
1,Lee Rogers,M,SBD,MR-M1,67.5,Raw,1978,Odyssey Barbell Club,USA,NH,67.15,137.5,150,-155,150,112.5,117.5,-122.5,117.5,185,200,207.5,207.5,475,,
1,Philip Tonks,M,SBD,MR-M2,75,Raw,1972,,USA,MA,72.8,160,167.5,175,175,107.5,115,-117.5,115,175,185,-195,185,475,,
1,Arthur McAleer,M,SBD,MR-M2,90,Raw,1968,,USA,NH,85.95,165,175,182.5,182.5,130,135,140,140,190,200,207.5,207.5,530,,
1,Ronald Iacobucci Jr,M,SBD,MR-M2,125,Raw,1971,,USA,CT,112.55,192.5,210,227.5,227.5,135,150,152.5,152.5,227.5,240,-257.5,240,620,,
DQ,Henry Marfe,M,SBD,MR-M2,125,Raw,1967,Sunshine Powerlifting,USA,NY,120.65,185,192.5,-200,192.5,-132.5,-132.5,,,187.5,-195,-195,187.5,,,
1,Ammon Shea,M,SBD,MR-M2,82.5,Raw,1970,,USA,NY,81.6,200,207.5,-212.5,207.5,115,120,-125,120,225,235,240,240,567.5,,
1,Prem Prakash,M,SBD,MR-M3,67.5,Raw,1959,,USA,VT,66.55,112.5,120,122.5,122.5,85,87.5,-90,87.5,142.5,152.5,-155,152.5,362.5,,
DQ,David Nguyen #11,M,SBD,MR-O,52,Raw,2004,,USA,MA,51.8,125,130,,130,-110,-110,-110,,,,,,,,
1,Tyler Stanio,M,SBD,MR-O,75,Raw,2000,,USA,CT,74.5,230,242.5,247.5,247.5,147.5,155,-157.5,155,297.5,-320,-320,297.5,700,,
2,Kevin Vasallo,M,SBD,MR-O,75,Raw,2000,Cyborg Strength,USA,CT,74,202.5,210,217.5,217.5,122.5,130,137.5,137.5,225,237.5,250,250,605,,
3,Henry Le,M,SBD,MR-O,75,Raw,2003,,USA,MA,74.6,185,192.5,200,200,125,130,135,135,217.5,230,240,240,575,,
4,Nigel Fung-A-Fat,M,SBD,MR-O,75,Raw,1992,Stand Strong,USA,ME,73.25,200,212.5,225,225,105,112.5,-117.5,112.5,215,230,-237.5,230,567.5,,
5,Kris Sullivan,M,SBD,MR-O,75,Raw,1985,,USA,NY,73,185,200,207.5,207.5,102.5,112.5,117.5,117.5,195,210,225,225,550,,
6,Matthew Wong,M,SBD,MR-O,75,Raw,2000,Triumph Strength and Performance,USA,MA,74.9,192.5,-202.5,-202.5,192.5,122.5,130,-135,130,200,212.5,225,225,547.5,,
7,Andy Zhen,M,SBD,MR-O,75,Raw,1999,The Iron Mecca,USA,MA,74.85,182.5,190,-192.5,190,112.5,117.5,-120,117.5,197.5,-200,,197.5,505,,
8,Anthony Nguyen #4,M,SBD,MR-O,75,Raw,2000,,USA,ME,70.45,165,175,182.5,182.5,90,95,100,100,205,215,-225,215,497.5,,
1,Daniel Howell,M,SBD,MR-O,90,Raw,1994,Odyssey Barbell Club,USA,MA,89.65,290,-305,305,305,155,162.5,-167.5,162.5,325,350,-373,350,817.5,,
2,Cameron Kellogg,M,SBD,MR-O,90,Raw,1995,,USA,CT,89.75,235,252.5,-257.5,252.5,147.5,157.5,165,165,250,277.5,290,290,707.5,,
3,Andre Pryce,M,SBD,MR-O,90,Raw,1991,Cyborg Strength,USA,CT,88.45,240,252.5,-262.5,252.5,160,167.5,-172.5,167.5,257.5,275,282.5,282.5,702.5,,
4,Travis Cooper,M,SBD,MR-O,90,Raw,1988,,USA,RI,88.8,240,252.5,265,265,155,165,170,170,235,252.5,265,265,700,,
5,Nicholas Ferneza,M,SBD,MR-O,90,Raw,1997,Odyssey Barbell Club,USA,MA,87.2,222.5,235,242.5,242.5,135,142.5,145,145,-287.5,305,-317.5,305,692.5,,
6,Marcus Brown,M,SBD,MR-O,90,Raw,1992,,USA,MA,88.6,227.5,237.5,245,245,130,140,147.5,147.5,257.5,275,290,290,682.5,,
7,Daniel Williams,M,SBD,MR-O,90,Raw,1997,,USA,MA,87.55,260,275,-285,275,125,-132.5,-132.5,125,250,265,277.5,277.5,677.5,,
8,Ely Yang,M,SBD,MR-O,90,Raw,2001,Stand Strong,USA,ME,89.6,-240,-245,245,245,152.5,160,-170,160,237.5,250,260,260,665,,
9,Justin Dam,M,SBD,MR-O,90,Raw,2002,Triumph Strength and Performance,USA,CT,87.05,192.5,202.5,212.5,212.5,147.5,155,-160,155,250,-270,277.5,277.5,645,,
10,Owen Wise,M,SBD,MR-O,90,Raw,2002,Triumph Strength and Performance,USA,MA,88.95,225,240,250,250,130,135,140,140,230,245,255,255,645,,
11,Arismendy Larancuent,M,SBD,MR-O,90,Raw,1995,Odyssey Barbell Club,USA,MA,86.3,215,227.5,237.5,237.5,137.5,145,150,150,242.5,255,-265,255,642.5,,
12,Mohamed Shuman,M,SBD,MR-O,90,Raw,2000,The Iron Mecca,USA,MA,89.55,215,222.5,-227.5,222.5,150,155,-162.5,155,245,260,-272.5,260,637.5,,
13,Cyrus Tyler,M,SBD,MR-O,90,Raw,1997,Team GPT,USA,CT,87.95,210,220,227.5,227.5,120,125,130,130,230,245,257.5,257.5,615,,
14,Joseph Gohar,M,SBD,MR-O,90,Raw,1999,,USA,CT,88.5,180,195,-205,195,160,170,177.5,177.5,197.5,222.5,-245,222.5,595,,
15,Conner Sheets,M,SBD,MR-O,90,Raw,1996,Triumph Strength and Performance,USA,ME,89.35,177.5,192.5,202.5,202.5,115,122.5,127.5,127.5,225,242.5,-252.5,242.5,572.5,,
16,Gavin Akeley,M,SBD,MR-O,90,Raw,2002,Team Hogan,USA,ME,87.95,190,202.5,207.5,207.5,-127.5,132.5,137.5,137.5,200,212.5,217.5,217.5,562.5,,
17,Nathanael Speroni,M,SBD,MR-O,90,Raw,2001,Level Up Training Systems,USA,RI,84.25,167.5,177.5,185,185,117.5,122.5,127.5,127.5,195,210,227.5,227.5,540,,
18,Tyler Mandeville,M,SBD,MR-O,90,Raw,2001,,USA,CT,88.2,180,-195,,180,100,110,112.5,112.5,200,222.5,-227.5,222.5,515,,
19,Kenny Peterson,M,SBD,MR-O,90,Raw,1990,,USA,ME,87.95,147.5,155,165,165,97.5,102.5,105,105,195,207.5,212.5,212.5,482.5,,
DQ,Sergio Villagran,M,SBD,MR-O,90,Raw,1989,,USA,MA,88.6,-240,-250,-250,,145,152.5,-160,152.5,-242.5,242.5,257.5,257.5,,,
1,Nathan Kulas,M,SBD,MR-O,100,Raw,1983,,USA,ME,97.6,272.5,290,300,300,160,167.5,170,170,300,317.5,327.5,327.5,797.5,,
2,Bryan Drago,M,SBD,MR-O,100,Raw,1996,Odyssey Barbell Club,USA,NH,97.85,-265,265,280,280,175,185,192.5,192.5,265,280,287.5,287.5,760,,
3,Brandon Chhim,M,SBD,MR-O,100,Raw,2001,,USA,NH,97.85,245,265,272.5,272.5,162.5,175,-180,175,-255,270,-290,270,717.5,,
4,Brian Cerezo,M,SBD,MR-O,100,Raw,1996,,USA,CT,99.25,232.5,242.5,250,250,160,165,,165,265,280,290,290,705,,
5,Ryan Sledzik,M,SBD,MR-O,100,Raw,1996,,USA,MA,96,217.5,232.5,240,240,135,147.5,-155,147.5,260,285,292.5,292.5,680,,
6,Noah Stern #1,M,SBD,MR-O,100,Raw,1996,,USA,MA,99.55,222.5,235,-242.5,235,167.5,177.5,180,180,240,257.5,-265,257.5,672.5,,
7,Nicholas Hallon,M,SBD,MR-O,100,Raw,2002,Triumph Strength and Performance,USA,MA,98.95,222.5,237.5,-252.5,237.5,145,-155,155,155,245,260,270,270,662.5,,
8,Ryan Polley,M,SBD,MR-O,100,Raw,1997,,USA,NH,99.1,220,230,-237.5,230,132.5,-140,-140,132.5,-222.5,222.5,230,230,592.5,,
9,Lee Engle,M,SBD,MR-O,100,Raw,1987,,USA,RI,92.2,180,190,200,200,120,125,-132.5,125,175,192.5,205,205,530,,
10,Michael Maruca,M,SBD,MR-O,100,Raw,2000,,USA,CT,93.75,137.5,147.5,165,165,100,110,-117.5,110,145,162.5,170,170,445,,
1,William Myers #1,M,SBD,MR-O,110,Raw,1989,,USA,CT,109.6,-280,280,285,285,210,217.5,,217.5,300,320,-330,320,822.5,,
2,Patrick Peter,M,SBD,MR-O,110,Raw,1999,,USA,MA,104.15,265,280,292.5,292.5,170,175,182.5,182.5,285,300,310,310,785,,
3,Devin Clark,M,SBD,MR-O,110,Raw,1993,Team GPT,USA,CT,107.45,240,252.5,265,265,165,175,187.5,187.5,272.5,290,300,300,752.5,,
4,Evan Larsen,M,SBD,MR-O,110,Raw,1992,Team Hogan,USA,ME,107.3,242.5,257.5,-267.5,257.5,137.5,145,-150,145,250,260,265,265,667.5,,
5,Mark Doherty #1,M,SBD,MR-O,110,Raw,1986,,USA,CT,109,225,240,250,250,120,130,-137.5,130,250,272.5,285,285,665,,
6,Krishan Eskew,M,SBD,MR-O,110,Raw,2001,,USA,MA,106.45,212.5,217.5,230,230,122.5,127.5,132.5,132.5,245,260,270,270,632.5,,
7,Tommaso Marsella,M,SBD,MR-O,110,Raw,1999,Level Up Training Systems,USA,RI,108.4,215,227.5,-232.5,227.5,152.5,160,-165,160,222.5,230,235,235,622.5,,
8,Yahir Fernandez,M,SBD,MR-O,110,Raw,1998,,USA,NY,109.3,-217.5,217.5,-227.5,217.5,132.5,137.5,140,140,215,235,242.5,242.5,600,,
1,Kevin Chu #1,M,SBD,MR-O,125,Raw,1998,,USA,NY,116.55,255,275,290,290,150,157.5,160,160,300,325,-345,325,775,,
2,Zackary George,M,SBD,MR-O,125,Raw,1985,,USA,MA,113,217.5,240,252.5,252.5,140,145,150,150,285,305,320,320,722.5,,
3,Eric Pimentel,M,SBD,MR-O,125,Raw,2002,Triumph Strength and Performance,USA,MA,123.8,235,252.5,260,260,142.5,150,155,155,260,280,-295,280,695,,
4,Dylan Johnson #8,M,SBD,MR-O,125,Raw,1995,Level Up Training Systems,USA,RI,123.3,240,247.5,-255,247.5,200,-207.5,-207.5,200,210,227.5,-247.5,227.5,675,,
5,Edward Medaris,M,SBD,MR-O,125,Raw,2006,Team GPT,USA,CT,123.7,220,232.5,240,240,122.5,132.5,142.5,142.5,240,257.5,270,270,652.5,,
6,Ronald Iacobucci Jr,M,SBD,MR-O,125,Raw,1971,,USA,CT,112.55,192.5,210,227.5,227.5,135,150,152.5,152.5,227.5,240,-257.5,240,620,,
DQ,Danial Khan,M,SBD,MR-O,125,Raw,1993,,USA,CT,120.1,255,265,277.5,277.5,-162.5,-162.5,-162.5,,270,290,-295,290,,,
1,Joseph Merullo,M,SBD,MR-O,140,Raw,1997,,USA,NH,133.4,237.5,250,262.5,262.5,167.5,-175,-175,167.5,285,295,305,305,735,,
2,Michael Huynh,M,SBD,MR-O,140,Raw,1998,,USA,MA,135.55,220,-232.5,237.5,237.5,132.5,137.5,142.5,142.5,232.5,245,252.5,252.5,632.5,,
3,Joey Hayden,M,SBD,MR-O,140,Raw,2008,Stand Strong,USA,ME,137.7,200,212.5,227.5,227.5,97.5,105,110,110,192.5,202.5,215,215,552.5,,
1,Kyle Lockhart,M,SBD,MR-O,140+,Raw,1995,Stand Strong,USA,ME,187.5,335,355,370,370,227.5,240,-250,240,280,295,-307.5,295,905,,
2,Justin Robinson #1,M,SBD,MR-O,140+,Raw,1984,,USA,MA,155.65,305,332.5,342.5,342.5,177.5,190,200,200,315,350,-385,350,892.5,,
3,Gary Shaw,M,SBD,MR-O,140+,Raw,1999,Level Up Training Systems,USA,RI,165.7,292.5,312.5,320,320,172.5,180,182.5,182.5,245,-272.5,-272.5,245,747.5,,
4,Brandon Allen #7,M,SBD,MR-O,140+,Raw,1999,,USA,NH,152.3,212.5,222.5,232.5,232.5,127.5,137.5,145,145,205,225,237.5,237.5,615,,
1,Anthony Poy,M,SBD,MR-O,67.5,Raw,1995,Level Up Training Systems,USA,RI,64.9,200,210,215,215,137.5,142.5,-147.5,142.5,252.5,265,272.5,272.5,630,,
2,Davis Parella,M,SBD,MR-O,67.5,Raw,1998,,USA,MA,66.85,205,215,-220,215,135,-142.5,-142.5,135,242.5,252.5,262.5,262.5,612.5,,
3,Avinaash Janarthanan,M,SBD,MR-O,67.5,Raw,2003,,USA,MA,67.25,190,202.5,-205,202.5,132.5,140,-142.5,140,247.5,260,270,270,612.5,,
4,Brian Yan #1,M,SBD,MR-O,67.5,Raw,2003,The Iron Mecca,USA,MA,66.95,170,182.5,192.5,192.5,112.5,117.5,-122.5,117.5,215,230,242.5,242.5,552.5,,
5,Michael Hartjens,M,SBD,MR-O,67.5,Raw,1994,Team Hogan,USA,MA,65.7,177.5,187.5,192.5,192.5,97.5,107.5,112.5,112.5,215,230,-240,230,535,,
6,Skyler Normandie,M,SBD,MR-O,67.5,Raw,2003,Triumph Strength and Performance,USA,MA,64.4,152.5,162.5,170,170,97.5,105,110,110,195,207.5,217.5,217.5,497.5,,
7,Hamilton Portillo,M,SBD,MR-O,67.5,Raw,2002,,USA,MA,66.25,170,180,-182.5,180,112.5,117.5,120,120,190,197.5,-202.5,197.5,497.5,,
8,Lee Rogers,M,SBD,MR-O,67.5,Raw,1978,Odyssey Barbell Club,USA,NH,67.15,137.5,150,-155,150,112.5,117.5,-122.5,117.5,185,200,207.5,207.5,475,,
9,Brandon Nguyen,M,SBD,MR-O,67.5,Raw,2004,Triumph Strength and Performance,USA,CT,62.7,147.5,157.5,-167.5,157.5,115,120,125,125,152.5,162.5,170,170,452.5,,
1,Stephen Milillo,M,SBD,MR-O,82.5,Raw,2002,Team GPT,USA,NY,82.45,220,235,245,245,135,140,145,145,270,280,295,295,685,,
2,Jonathan Lavoie,M,SBD,MR-O,82.5,Raw,1986,Team Hogan,USA,ME,81.55,215,225,230,230,165,175,-180,175,255,260,-262.5,260,665,,
3,Anthony LaPorta,M,SBD,MR-O,82.5,Raw,2003,Triumph Strength and Performance,USA,NY,81.85,197.5,207.5,217.5,217.5,145,152.5,160,160,247.5,-265,272.5,272.5,650,,
4,Alexander Schrijn,M,SBD,MR-O,82.5,Raw,2000,Cyborg Strength,USA,CT,77.75,207.5,212.5,-220,212.5,155,162.5,-167.5,162.5,250,260,267.5,267.5,642.5,,
5,Benjamin Tse,M,SBD,MR-O,82.5,Raw,2000,,USA,NY,81.4,220,235,240,240,140,150,-155,150,245,-260,-260,245,635,,
6,Benny Lin,M,SBD,MR-O,82.5,Raw,1998,The Iron Mecca,USA,MA,80.95,215,225,232.5,232.5,135,142.5,-145,142.5,245,255,-265,255,630,,
7,Joshua Lim,M,SBD,MR-O,82.5,Raw,2001,,USA,MA,81.25,195,210,220,220,135,-142.5,147.5,147.5,210,227.5,-242.5,227.5,595,,
8,Tien Lam,M,SBD,MR-O,82.5,Raw,1999,The Iron Mecca,USA,MA,81.2,225,235,242.5,242.5,130,137.5,-140,137.5,-175,175,205,205,585,,
9,Samuel Peterson,M,SBD,MR-O,82.5,Raw,1996,,USA,MN,81.75,170,180,187.5,187.5,110,117.5,122.5,122.5,212.5,225,-232.5,225,535,,
10,Walter Richardson,M,SBD,MR-O,82.5,Raw,2002,Triumph Strength and Performance,USA,MA,79.6,157.5,165,172.5,172.5,120,125,-127.5,125,202.5,210,215,215,512.5,,
11,Peter Kelly #2,M,SBD,MR-O,82.5,Raw,1996,,USA,MA,77.3,170,180,-185,180,115,-125,-125,115,165,172.5,182.5,182.5,477.5,,
1,Ogden Horowitz Shea,M,SBD,MR-T1,75,Raw,2009,,USA,NY,69.5,165,175,182.5,182.5,107.5,112.5,117.5,117.5,190,-200,-200,190,490,,
1,Joey Hayden,M,SBD,MR-T1,140,Raw,2008,Stand Strong,USA,ME,137.7,200,212.5,227.5,227.5,97.5,105,110,110,192.5,202.5,215,215,552.5,,
1,Jintao Huang,M,SBD,MR-T2,90,Raw,2007,,USA,NY,82.7,152.5,,,152.5,110,115,-117.5,115,-150,150,155,155,422.5,,
1,James Elworth,M,SBD,MR-T2,100,Raw,2006,,USA,NY,94.55,215,222.5,-227.5,222.5,125,135,,135,-220,227.5,-232.5,227.5,585,17,
1,Ryan Jung,M,SBD,MR-T2,67.5,Raw,2006,,USA,NY,64.65,137.5,145,152.5,152.5,85,90,-92.5,90,220,232.5,237.5,237.5,480,,
1,Miles Tolman,M,SBD,MR-T3,60,Raw,2006,,USA,CT,59.25,162.5,175,-182.5,175,90,95,-102.5,95,182.5,202.5,215,215,485,,
1,Lukas Nadolski,M,SBD,MR-T3,75,Raw,2006,,USA,CT,73.95,187.5,202.5,215,215,120,132.5,135,135,195,217.5,235,235,585,,
1,Joseph Suh,M,SBD,MR-T3,90,Raw,2005,,USA,MA,88.05,227.5,240,250,250,-120,125,132.5,132.5,225,242.5,250,250,632.5,,
2,Tyler Turcotte,M,SBD,MR-T3,90,Raw,2004,,USA,MA,88.5,182.5,192.5,-197.5,192.5,-105,105,107.5,107.5,185,195,-200,195,495,,
1,Jackson Shackleford,M,SBD,MR-T3,100,Raw,2005,,USA,NH,99.4,215,-227.5,-227.5,215,132.5,142.5,-150,142.5,227.5,240,-252.5,240,597.5,,
1,Edward Medaris,M,SBD,MR-T3,125,Raw,2006,Team GPT,USA,CT,123.7,220,232.5,240,240,122.5,132.5,142.5,142.5,240,257.5,270,270,652.5,,
1,Brandon Nguyen,M,SBD,MR-T3,67.5,Raw,2004,Triumph Strength and Performance,USA,CT,62.7,147.5,157.5,-167.5,157.5,115,120,125,125,152.5,162.5,170,170,452.5,,
2,William Ehlers,M,SBD,MR-T3,67.5,Raw,2004,,USA,CT,66.3,142.5,-152.5,,142.5,120,-127.5,-127.5,120,170,182.5,-195,182.5,445,,
1,Luke Chiodo,M,SBD,MR-T3,82.5,Raw,2004,,USA,MA,81.6,197.5,212.5,227.5,227.5,137.5,-147.5,147.5,147.5,212.5,227.5,242.5,242.5,617.5,,
2,Cameron Doyle,M,SBD,MR-T3,82.5,Raw,2004,,USA,MA,81.35,197.5,210,220,220,97.5,105,112.5,112.5,215,230,242.5,242.5,575,,
