Place,Sex,Name,Event,Division,WeightClassKg,Equipment,Team,BodyweightKg,Squat1Kg,Squat2Kg,Squat3Kg,Best3SquatKg,Bench1Kg,Bench2Kg,Bench3Kg,Best3BenchKg,Deadlift1Kg,Deadlift2Kg,Deadlift3Kg,Best3DeadliftKg,TotalKg,BirthYear
1,M,Glen Nugent,B,MR-M1,120,Raw,,115.5,,,,,162.5,170,175,175,,,,,175,1969
3,F,Dawn Macomber,B,FR-M1,84+,Raw,,84.5,,,,,62.5,65,70,70,,,,,70,1971
1,M,Robert Cutts,B,MR-M2,120+,Raw,,176,,,,,190,195,200,200,,,,,200,1959
1,M,Jeff Morse,B,MR-M3,120+,Raw,,131.5,,,,,130,137.5,-142.5,137.5,,,,,137.5,
2,F,Katarina Hennessey,B,FR-T2,52,Raw,,50.2,,,,,40,45,47.5,47.5,,,,,47.5,1999
1,M,Adam Palmer,B,MR-O,93,Raw,,88.4,,,,,145,147.5,150,150,,,,,150,1982
2,F,Dawn Macomber,D,FR-M1,84+,Raw,,84.5,,,,,,,,,127.5,-142.5,-142.5,127.5,127.5,1971
2,F,Joanne Craig,D,FR-M2,72,Raw,,65.7,,,,,,,,,122.5,132.5,137.5,137.5,137.5,1961
1,M,Alexander Kang,D,M-O,66,Single-ply,,65.2,,,,,,,,,227.5,247.5,262.5,262.5,262.5,1984
2,F,Alyssa Marye Perez,D,FR-O,57,Raw,,52.2,,,,,,,,,115,127.5,-137.5,127.5,127.5,
1,F,Joanna Welsh,SBD,FR-M1,47,Raw,SBWC,46,95,-100,100,100,55,60,-62.5,60,127.5,137.5,-140,137.5,297.5,1972
1,M,Eric Kupperstein,SBD,MR-M1,59,Raw,BAY,59,175,-188,188,188,77.5,85,-90,85,230,251,-257.5,251,524,1966
1,M,Curtis Hendricks,SBD,MR-M1,120,Raw,SBWC,117.6,-237.5,-255,255,255,145,160,162.5,162.5,260,277.5,290,290,707.5,1974
1,F,Marie-Andree Cleary,SBD,FR-M1,63,Raw,PNX,62.1,80,-85,-87.5,80,47.5,-52.5,55,55,90,95,-100,95,230,1972
1,F,Lonnie Fariss,SBD,FR-M1,72,Raw,ICB,64.6,90,95,97.5,97.5,70,72.5,-75,72.5,135,137.5,140,140,310,1969
1,F,Lee-Ann Ray,SBD,FR-M1,84+,Raw,,97.3,92.5,112.5,120,120,72.5,77.5,-82.5,77.5,155,-170,170,170,367.5,1972
1,M,Scott Giorgi,SBD,MR-M1,93,Raw,,89.8,142.5,147.5,155,155,115,122.5,125,125,142.5,150,157.5,157.5,437.5,1970
1,M,Sean Benak,SBD,MR-M1,105,Raw,,103.4,130,147.5,-157.5,147.5,85,-97.5,-97.5,85,170,187.5,197.5,197.5,430,1973
1,M,David Reichard,SBD,MR-M1,120+,Raw,,125.2,157.5,165,170,170,140,150,-157.5,150,125,182.5,190,190,510,1970
2,F,Carmen Hays,SBD,FR-M1,84+,Raw,,100.5,-90,90,-100,90,52.5,57.5,60,60,125,137.5,142.5,142.5,292.5,1968
2,F,Anabela Papamitrou,SBD,FR-M1,72,Raw,,69.3,75,77.5,80,80,37.5,40,42.5,42.5,102.5,107.5,112.5,112.5,235,1969
2,M,Marcus Irven,SBD,MR-M1,93,Raw,SBWC,91,127.5,137.5,142.5,142.5,82.5,87.5,-90,87.5,175,185,190,190,420,1974
2,M,Eric Nadeau,SBD,MR-M1,120,Raw,,117.3,-192.5,200,205,205,145,155,160,160,192.5,205,220,220,585,1974
3,F,Suzanne Cyr,SBD,FR-M1,72,Raw,,70.3,60,65,70,70,40,42.5,45,45,102.5,107.5,112.5,112.5,227.5,1966
3,M,Tim Sarner,SBD,MR-M1,120,Raw,,112.7,155,,,155,145,-155,-155,145,235,240,,240,540,
1,F,Joanne Craig,SBD,FR-M2,72,Raw,,65.7,120,-130,130,130,57.5,62.5,65,65,122.5,132.5,137.5,137.5,332.5,1961
1,F,Lee Lipsitz,SBD,FR-M2,72,Raw,,71.7,122.5,130,132.5,132.5,67.5,70,-72.5,70,145,150,160,160,362.5,1964
1,F,Susan Shaw,SBD,FR-M2,57,Raw,,55.9,90,-95,-95,90,50,52.5,-55,52.5,110,-117.5,-117.5,110,252.5,1961
1,F,Nandi Xie,SBD,FR-M2,63,Raw,,61.5,92.5,102.5,107.5,107.5,67.5,70,72.5,72.5,122.5,134,-137.5,134,314,1963
1,M,Mark Knowles,SBD,MR-M2,93,Raw,,92.6,170,187.5,-195,187.5,112.5,120,-122.5,120,177.5,200,210,210,517.5,1963
1,M,William Trottier,SBD,MR-M2,105,Raw,,102.3,127.5,135,145,145,-102.5,110,112.5,112.5,175,185,,185,442.5,
1,M,Richard Bettina,SBD,MR-M2,120,Raw,,116.8,185,-190,190,190,115,120,122.5,122.5,197.5,212.5,217.5,217.5,530,1957
1,M,Jeff Shad,SBD,MR-M2,74,Raw,,73.1,115,125,130,130,90,95,-97.5,95,185,195,-200,195,420,1964
1,F,Deanne Tonry,SBD,FR-M2,52,Raw,,48.5,90,95,-97.5,95,57.5,-60,-60,57.5,-110,-112.5,115,115,267.5,1964
2,F,Lizz Smullen,SBD,FR-M2,57,Raw,,56.2,65,70,72.5,72.5,52.5,-57.5,57.5,57.5,102.5,112.5,120,120,250,1962
2,M,Mitch Edelstein,SBD,MR-M2,93,Raw,,92.9,162.5,172.5,-182.5,172.5,92.5,105,115,115,190,210,227.5,227.5,515,1962
2,M,Charles Cocci,SBD,MR-M2,120,Raw,CCG,117.5,160,175,,175,95,102.5,,102.5,-195,200,-205,200,477.5,1956
DQ,M,Michael Khoury,SBD,MR-M2,120,Raw,CCG,117.5,-240,-255,-255,,165,170,-175,170,270,-287.5,-287.5,270,,1965
1,F,Emily Cassista,SBD,F-O,57,Single-ply,BAY,54.7,160,-167.5,167.5,167.5,105,110,-112.5,110,145,155,160,160,437.5,1992
DQ,M,Jared Weers,SBD,M-O,93,Single-ply,,92.8,-220,-220,-220,,120,127.5,132.5,132.5,-215,215,-230,215,,1987
1,M,Matthew Cassista,SBD,M-O,105,Single-ply,BAY,98.8,-315,315,325,325,215,220,-227.5,220,265,285,292.5,292.5,837.5,1992
1,M,Ian MacPherson,SBD,M-O,83,Single-ply,BAY,79.4,275,282.5,-292.5,282.5,175,-182.5,182.5,182.5,215,-227.5,-235,215,680,1994
1,F,Shaina Vickery,SBD,F-O,63,Single-ply,BAY,62.9,-182.5,182.5,,182.5,110,-117.5,,110,170,185,-197.5,185,477.5,1989
1,M,Maurico Mejia Boza,SBD,M-O,74,Single-ply,CR,72.6,-220,-220,220,220,155,165,-177.5,165,220,-235,235,235,620,
1,M,Stephen King #2,SBD,M-O,120+,Single-ply,BAY,150,270,-295,-320,270,305,325,332.5,332.5,265,290,-312.5,290,892.5,1992
DQ,M,James Marcotte,SBD,M-O,83,Single-ply,BAY,82.3,-270,-275,-275,,-217.5,,,,227.5,,,227.5,,1991
2,F,Lodrina Cherne,SBD,F-O,63,Single-ply,GF,58.9,142.5,-150,-150,142.5,85,90,-97.5,90,155,165,172.5,172.5,405,1982
2,M,Chris Simon,SBD,M-O,120+,Single-ply,,170.2,175,-190,195,195,-120,125,-135,125,245,-260,275,275,595,
1,M,James van Allen,SBD,MR-M3,93,Raw,,91.1,175,-195,195,195,115,125,137.5,137.5,205,230,235,235,567.5,1953
1,F,Ann Whitmarsh,SBD,FR-M3,63,Raw,SBWC,61.4,52.5,57.5,62.5,62.5,32.5,35,-37.5,35,77.5,85,92.5,92.5,190,1953
1,F,Carolyn Blaszka,SBD,FR-M3,72,Raw,,68.2,60,67.5,75,75,-42.5,42.5,47.5,47.5,105,115,122.5,122.5,245,
DQ,M,George Parigian Jr,SBD,MR-M3,105,Raw,CCG,98.9,-192.5,-192.5,-192.5,,-97.5,102.5,-107.5,102.5,192.5,,,192.5,,
1,F,Danielle Burton,SBD,F-Jr,72,Single-ply,BAY,68.9,147.5,155,160,160,80,85,-90,85,145,155,162.5,162.5,407.5,1992
1,M,Ahnise Cassab,SBD,M-Jr,93,Single-ply,,86,-230,-230,230,230,95,-140,-140,95,217.5,-230,230,230,555,
2,M,Ryan Olney,SBD,M-Jr,93,Single-ply,,86.8,-175,-185,185,185,-115,115,120,120,175,187.5,197.5,197.5,502.5,
1,M,Jake Connolly,SBD,MR-T2,66,Raw,SJP,64.9,125,142.5,150,150,77.5,85,-90,85,142.5,157.5,172.5,172.5,407.5,1999
1,F,Katarina Hennessey,SBD,FR-T2,52,Raw,,50.2,70,-77.5,77.5,77.5,40,45,47.5,47.5,-72.5,72.5,80,80,205,1999
DQ,M,Tyler Burgoyne,SBD,MR-T2,120,Raw,,114.9,210,232.5,-240,232.5,-112.5,-112.5,-112.5,,200,217.5,-230,217.5,,
1,F,Casey Vela,SBD,FR-T2,63,Raw,,59.8,67.5,72.5,77.5,77.5,32.5,37.5,40,40,72.5,77.5,85,85,202.5,1999
1,F,Colleen Grehlinger,SBD,FR-T2,52,Raw,,48.6,77.5,85,-92.5,85,45,-47.5,-47.5,45,-117.5,117.5,127.5,127.5,257.5,1998
1,M,Ben Fischer,SBD,MR-T2,59,Raw,SJP,57.8,107.5,110,-117.5,110,62.5,67.5,-70,67.5,142.5,155,167.5,167.5,345,1998
1,M,Nicholas Chludzinski,SBD,MR-T2,74,Raw,,73.7,185,-200,200,200,100,112.5,122.5,122.5,197.5,212.5,-222.5,212.5,535,1998
1,M,Chris Fulgione,SBD,MR-T2,93,Raw,SJP,91,132.5,150,165,165,85,90,92.5,92.5,182.5,197.5,212.5,212.5,470,
1,M,Benjamin Plamondon,SBD,MR-T2,105,Raw,,97,-170,170,185,185,120,-127.5,-127.5,120,-210,210,-232.5,210,515,1998
2,M,Matt Everett,SBD,MR-T2,74,Raw,SJP,66.8,107.5,120,125,125,57.5,62.5,65,65,162.5,175,182.5,182.5,372.5,1997
2,M,Fiachra Daly,SBD,MR-T2,66,Raw,SJP,64.1,100,107.5,-112.5,107.5,67.5,72.5,75,75,135,147.5,157.5,157.5,340,1998
2,M,Amog Gopal,SBD,MR-T2,59,Raw,SJP,58.1,97.5,107.5,112.5,112.5,50,55,-60,55,-140,147.5,150,150,317.5,1998
2,F,Kendra Gordillo,SBD,FR-T2,63,Raw,,60.4,52.5,-60,-65,52.5,-30,35,-37.5,35,60,67.5,77.5,77.5,165,1998
2,M,Evan Chaisson,SBD,MR-T2,93,Raw,SJP,87.4,127.5,-135,140,140,25,60,67.5,67.5,100,137.5,155,155,362.5,1999
2,M,William Baum,SBD,MR-T2,105,Raw,SJP,95.3,100,112.5,122.5,122.5,65,70,-75,70,137.5,152.5,162.5,162.5,355,1999
3,M,Michael Terranova,SBD,MR-T2,74,Raw,SJP,67.2,100,110,120,120,62.5,67.5,72.5,72.5,130,-145,150,150,342.5,1998
3,M,Luke Melanson,SBD,MR-T2,93,Raw,SJP,86.1,100,110,117.5,117.5,60,65,70,70,120,130,137.5,137.5,325,1999
3,M,Ryan Cooper,SBD,MR-T2,59,Raw,SJP,55,90,-100,105,105,47.5,50,-55,50,115,125,130,130,285,1999
3,M,Daniel Roderman,SBD,MR-T2,66,Raw,SJP,59.5,90,100,-107.5,100,55,62.5,67.5,67.5,97.5,117.5,130,130,297.5,1999
4,M,Connor King,SBD,MR-T2,59,Raw,SJP,56.2,50,-60,65,65,45,50,-55,50,85,105,112.5,112.5,227.5,
1,F,Helen Ramsay,SBD,FR-Jr,63,Raw,NU,62,110,117.5,122.5,122.5,60,65,-67.5,65,115,122.5,-130,122.5,310,1993
1,M,Kyle Coogan #2,SBD,MR-Jr,74,Raw,,72.5,175,185,195,195,110,117.5,122.5,122.5,245,257.5,272.5,272.5,590,1994
1,M,Devin Lane,SBD,MR-Jr,105,Raw,NU,100.6,210,220,227.5,227.5,147.5,155,-160,155,240,255,265,265,647.5,1995
1,M,Phillip Herndon,SBD,MR-Jr,93,Raw,DD,91.1,230,240,-247.5,240,142.5,150,-157.5,150,230,242.5,250,250,640,1995
1,M,Michael Cheung,SBD,MR-Jr,66,Raw,NU,64.5,150,155,-160,155,95,-100,-100,95,172.5,182.5,187.5,187.5,437.5,1994
1,M,Carl Hollant,SBD,MR-Jr,120+,Raw,CCG,129.6,227.5,237.5,252.5,252.5,165,172.5,-175,172.5,260,275,-285,275,700,1992
1,M,Craig Kelly,SBD,MR-Jr,83,Raw,,82,215,227.5,235,235,150,-155,-155,150,255,-272.5,277.5,277.5,662.5,1992
1,M,Bryan Siu,SBD,MR-Jr,59,Raw,,58,112.5,125,-140,125,67.5,77.5,-87.5,77.5,122.5,132.5,145,145,347.5,1994
1,F,Alicia Saleh,SBD,FR-Jr,57,Raw,,54.9,-105,110,112.5,112.5,52.5,-55,55,55,120,-130,130,130,297.5,1994
1,F,Lina Hoang,SBD,FR-Jr,52,Raw,,51.4,85,90,95,95,57.5,62.5,65,65,110,117.5,125,125,285,1992
1,F,Ellen Liverpool,SBD,FR-Jr,72,Raw,,70.3,137.5,145,152.5,152.5,65,70,75,75,147.5,160,170,170,397.5,1993
1,F,Claire Akin,SBD,FR-Jr,84,Raw,FNCF,75.3,132.5,135,-140,135,67.5,70,72.5,72.5,145,152.5,160,160,367.5,1993
1,F,Y'Deidre Green,SBD,FR-Jr,84+,Raw,CCG,91,-125,-132.5,140,140,92.5,-100,105,105,172.5,185,202.5,202.5,447.5,
1,M,Edllay Martins,SBD,MR-Jr,120,Raw,,110.2,215,227.5,-237.5,227.5,170,182.5,190,190,210,227.5,235,235,652.5,1995
2,M,Thomas Reilly,SBD,MR-Jr,93,Raw,NU,91.6,240,247.5,-252.5,247.5,137.5,142.5,-147.5,142.5,230,242.5,-257.5,242.5,632.5,1992
2,M,Sam Belinsky,SBD,MR-Jr,105,Raw,,103.5,177.5,182.5,190,190,157.5,162.5,167.5,167.5,237.5,252.5,-260,252.5,610,
2,M,Alex Lau #1,SBD,MR-Jr,83,Raw,,81.6,200,215,227.5,227.5,125,135,-137.5,135,237.5,247.5,-257.5,247.5,610,1992
2,F,Nicole Maalouf,SBD,FR-Jr,72,Raw,NU,71.2,-122.5,-125,125,125,72.5,-75,-75,72.5,127.5,137.5,145,145,342.5,1994
2,M,Jacob Halpern,SBD,MR-Jr,74,Raw,,73.9,182.5,192.5,-200,192.5,125,130,135,135,232.5,240,,240,567.5,1994
2,F,Kristen Lobo,SBD,FR-Jr,52,Raw,NU,50.8,72.5,77.5,-80,77.5,37.5,-42.5,42.5,42.5,100,-107.5,112.5,112.5,232.5,1995
2,F,Samantha Blindt,SBD,FR-Jr,57,Raw,,55.5,82.5,92.5,-100,92.5,55,-60,-60,55,115,122.5,127.5,127.5,275,
2,F,Valerie Oliveira,SBD,FR-Jr,84,Raw,,75.5,-112.5,112.5,-117.5,112.5,60,-62.5,62.5,62.5,120,125,132.5,132.5,307.5,
2,F,Alyssa Frey,SBD,FR-Jr,63,Raw,,62.2,92.5,102.5,-110,102.5,50,55,-57.5,55,122.5,132.5,-142.5,132.5,290,1992
2,M,Jordan Fiske,SBD,MR-Jr,120,Raw,UMA,111.7,-205,215,227.5,227.5,125,137.5,-147.5,137.5,222.5,260,272.5,272.5,637.5,
3,F,Emily Chang,SBD,FR-Jr,72,Raw,PRI,64.3,105,112.5,117.5,117.5,55,60,62.5,62.5,122.5,135,145,145,325,1994
3,M,Eric Jacques,SBD,MR-Jr,120,Raw,NU,112,182.5,195,200,200,125,132.5,-137.5,132.5,247.5,265,-272.5,265,597.5,1994
3,M,Yuuki Sato,SBD,MR-Jr,83,Raw,NU,80,195,207.5,220,220,125,-132.5,135,135,215,230,-240,230,585,1994
3,M,Anthony Guarracino,SBD,MR-Jr,74,Raw,,72.5,192.5,202.5,207.5,207.5,107.5,115,-117.5,115,212.5,225,227.5,227.5,550,1992
3,M,James Sykes,SBD,MR-Jr,105,Raw,NU,101.3,-165,165,175,175,90,-97.5,-100,90,210,222.5,230,230,495,1992
3,F,Sara Pelletier,SBD,FR-Jr,63,Raw,,61,97.5,102.5,107.5,107.5,47.5,50,52.5,52.5,115,120,-140,120,280,1994
3,F,Maeve Bell,SBD,FR-Jr,84,Raw,NU,83.3,95,100,105,105,55,60,-62.5,60,112.5,120,-127.5,120,285,1995
3,F,Shannon Chipman,SBD,FR-Jr,57,Raw,,55.5,100,-112.5,-112.5,100,50,55,-62.5,55,102.5,107.5,120,120,275,1993
3,M,Nick Lucente,SBD,MR-Jr,93,Raw,DD,92.9,-197.5,197.5,-202.5,197.5,-165,165,170,170,252.5,260,,260,627.5,
4,M,Alex Vignone,SBD,MR-Jr,93,Raw,,90,202.5,215,230,230,117.5,125,132.5,132.5,220,-232.5,232.5,232.5,595,1994
4,M,Jimmy Heim,SBD,MR-Jr,83,Raw,,82.2,187.5,197.5,210,210,117.5,125,-132.5,125,227.5,242.5,-250,242.5,577.5,
4,F,Lynday Rathbun,SBD,FR-Jr,63,Raw,PSU,60.4,82.5,87.5,-92.5,87.5,37.5,42.5,-45,42.5,-97.5,97.5,-102.5,97.5,227.5,1993
4,F,Emily Russell,SBD,FR-Jr,84,Raw,,75.8,85,92.5,97.5,97.5,40,45,-50,45,97.5,105,112.5,112.5,255,1992
4,M,Anthony Nguyen #2,SBD,MR-Jr,74,Raw,,74,195,202.5,-210,202.5,115,-120,120,120,212.5,222.5,227.5,227.5,550,1993
DQ,M,Desmond Quirk,SBD,MR-Jr,105,Raw,,102.8,187.5,-200,-200,187.5,-122.5,122.5,-130,122.5,-220,-220,-220,,,1993
5,M,Nicholas Walker,SBD,MR-Jr,83,Raw,,79.9,177.5,190,200,200,112.5,117.5,122.5,122.5,220,232.5,250,250,572.5,1997
5,M,Kyle Thebado,SBD,MR-Jr,74,Raw,,72.1,185,190,-200,190,127.5,137.5,-142.5,137.5,205,215,-227.5,215,542.5,1993
5,M,Colton Bernier,SBD,MR-Jr,93,Raw,,85.9,180,192.5,205,205,132.5,140,-145,140,195,215,230,230,575,1995
DQ,M,Alex Bettina,SBD,MR-Jr,105,Raw,,104.6,-160,-165,-165,,160,162.5,-165,162.5,197.5,212.5,220,220,,1993
6,M,Jian Cai Wu,SBD,MR-Jr,74,Raw,,73.9,180,192.5,,192.5,-105,105,112.5,112.5,205,-220,220,220,525,1995
6,M,James Faso,SBD,MR-Jr,83,Raw,NU,82.6,195,205,-215,205,112.5,120,-125,120,230,242.5,-255,242.5,567.5,1992
6,M,Andrew Green,SBD,MR-Jr,93,Raw,,89,170,177.5,182.5,182.5,102.5,110,-115,110,222.5,240,-242.5,240,532.5,
7,M,Trevor Nathan,SBD,MR-Jr,93,Raw,NU,86.6,167.5,177.5,-182.5,177.5,92.5,100,-105,100,192.5,202.5,210,210,487.5,1994
7,M,Peter Hsi,SBD,MR-Jr,74,Raw,,71.3,150,162.5,172.5,172.5,127.5,140,-150,140,180,190,195,195,507.5,
7,M,Daniel Howell,SBD,MR-Jr,83,Raw,,80.7,195,200,205,205,100,107.5,112.5,112.5,247.5,-267.5,-272.5,247.5,565,1994
8,M,Isaac Rynowecer,SBD,MR-Jr,83,Raw,NU,82.1,162.5,170,-175,170,112.5,117.5,120,120,212.5,220,227.5,227.5,517.5,1993
8,M,Joseph Banh,SBD,MR-Jr,74,Raw,,70.9,160,175,-185,175,112.5,130,-135,130,175,187.5,200,200,505,1994
DQ,M,Alex Aquila,SBD,MR-Jr,93,Raw,UH,86.5,175,185,187.5,187.5,-112.5,-115,-115,,217.5,-230,-230,217.5,,1995
9,M,Nick Desantis,SBD,MR-Jr,83,Raw,NU,75.6,160,167.5,175,175,82.5,90,95,95,182.5,192.5,200,200,470,
9,M,Joshua Sampsell,SBD,MR-Jr,74,Raw,PSU,73.8,167.5,175,182.5,182.5,107.5,112.5,-117.5,112.5,185,192.5,200,200,495,1993
10,M,Ian Doxsee,SBD,MR-Jr,83,Raw,NU,77.7,162.5,-172.5,-172.5,162.5,92.5,97.5,-102.5,97.5,175,185,192.5,192.5,452.5,1992
10,M,Koty Wong,SBD,MR-Jr,74,Raw,,72.7,145,157.5,165,165,102.5,112.5,-115,112.5,170,185,192.5,192.5,470,1992
11,M,Justin Franchetti,SBD,MR-Jr,83,Raw,NL,78.9,135,145,-160,145,100,107.5,-112.5,107.5,165,175,182.5,182.5,435,1993
11,M,Daniel Navas,SBD,MR-Jr,74,Raw,,70.7,130,137.5,142.5,142.5,-90,90,-100,90,160,175,185,185,417.5,1995
12,M,Alan Hsieh,SBD,MR-Jr,83,Raw,,80.4,132.5,142.5,150,150,82.5,87.5,-92.5,87.5,155,175,-182.5,175,412.5,1993
13,M,Mei-Ta Hung,SBD,MR-Jr,83,Raw,,79.3,127.5,135,-142.5,135,80,85,-87.5,85,127.5,182.5,-187.5,182.5,402.5,
1,M,Joe Hardy,SBD,MR-O,105,Raw,,99.4,227.5,-272.5,,227.5,142.5,182.5,,182.5,310,327.5,-340,327.5,737.5,1991
1,M,Ozzie Hyppolite,SBD,MR-O,83,Raw,,82.2,205,215,-220,215,142.5,150,-152.5,150,227.5,250,-255,250,615,1980
1,F,Sophia Veiras,SBD,FR-O,63,Raw,NU,62.2,127.5,135,140,140,65,70,-75,70,140,155,165,165,375,1991
1,M,Kyle Coogan #2,SBD,MR-O,74,Raw,,72.5,175,185,195,195,110,117.5,122.5,122.5,245,257.5,272.5,272.5,590,1994
1,F,Cheryl Edelstein,SBD,FR-O,52,Raw,,49.9,-87.5,95,100,100,65,70,-72.5,70,137.5,148,-150,148,318,1975
1,M,Eric Kupperstein,SBD,MR-O,59,Raw,BAY,59,175,-188,188,188,77.5,85,-90,85,230,251,-257.5,251,524,1966
1,M,Carl Hollant,SBD,MR-O,120+,Raw,CCG,129.6,227.5,237.5,252.5,252.5,165,172.5,-175,172.5,260,275,-285,275,700,1992
1,F,Jennifer Rodrigues,SBD,FR-O,84,Raw,Chaos,75.7,-140,147.5,-155,147.5,65,75,80,80,155,165,175,175,402.5,1982
1,M,Michael Sullivan,SBD,MR-O,120,Raw,CCG,119.9,252.5,-267.5,267.5,267.5,165,175,182.5,182.5,290,305,315,315,765,1997
1,F,Lisa Randazzo,SBD,FR-O,47,Raw,,46.9,105,112.5,117.5,117.5,52.5,57.5,60,60,120,125,-132.5,125,302.5,1976
1,F,Alicia Saleh,SBD,FR-O,57,Raw,,54.9,-105,110,112.5,112.5,52.5,-55,55,55,120,-130,130,130,297.5,1994
1,F,Alyssa Marye Perez,SBD,FR-O,57,Raw,,52.2,82.5,90,92.5,92.5,45,47.5,-50,47.5,115,127.5,-137.5,127.5,267.5,
1,F,Ellen Liverpool,SBD,FR-O,72,Raw,,70.3,137.5,145,152.5,152.5,65,70,75,75,147.5,160,170,170,397.5,1993
1,F,Samantha Cohen,SBD,FR-O,84+,Raw,BAY,95.6,140,157.5,-170,157.5,95,100,105,105,147.5,167.5,185,185,447.5,1981
1,M,Vincent Yacuzzi,SBD,MR-O,66,Raw,,65.7,182.5,190,-192.5,190,120,122.5,-125,122.5,225,-232.5,-232.5,225,537.5,
1,M,Zachery McBey,SBD,MR-O,93,Raw,,91.7,205,215,227.5,227.5,155,165,170,170,250,-275,-275,250,647.5,1989
2,F,Joanna Welsh,SBD,FR-O,47,Raw,SBWC,46,95,-100,100,100,55,60,-62.5,60,127.5,137.5,-140,137.5,297.5,1972
2,M,Chris Hughes #2,SBD,MR-O,120,Raw,NU,115.6,270,280,290,290,160,170,172.5,172.5,270,287.5,300,300,762.5,1993
2,F,Lee Lipsitz,SBD,FR-O,72,Raw,,71.7,122.5,130,132.5,132.5,67.5,70,-72.5,70,145,150,160,160,362.5,1964
2,F,Lizz Smullen,SBD,FR-O,57,Raw,,56.2,65,70,72.5,72.5,52.5,-57.5,57.5,57.5,102.5,112.5,120,120,250,1962
2,M,David Nguyen #1,SBD,MR-O,66,Raw,,65.9,182.5,-190,-190,182.5,105,-107.5,107.5,107.5,210,225,-230,225,515,1988
2,M,Christopher Aydin,SBD,MR-O,93,Raw,,91.6,207.5,220,230,230,152.5,160,165,165,225,240,250,250,645,1988
2,M,Adam Lebel,SBD,MR-O,120+,Raw,,126.7,220,230,240,240,190,197.5,207.5,207.5,250,-265,-275,250,697.5,1981
2,M,Jacob Halpern,SBD,MR-O,74,Raw,,73.9,182.5,192.5,-200,192.5,125,130,135,135,232.5,240,,240,567.5,1994
2,F,Rachel Denis,SBD,FR-O,84+,Raw,SBWC,91.8,125,132.5,137.5,137.5,70,75,80,80,132.5,142.5,150,150,367.5,1985
2,M,Mark Luehring-Jones,SBD,MR-O,83,Raw,,81.6,190,197.5,205,205,-125,125,-130,125,262.5,270,-275,270,600,1989
2,F,Kerry Sachs,SBD,FR-O,52,Raw,,50.4,102.5,-112.5,-115,102.5,42.5,47.5,-50,47.5,125,137.5,145,145,295,1990
2,F,Sara Donovan,SBD,FR-O,63,Raw,,62.4,102.5,107.5,115,115,62.5,67.5,-72.5,67.5,132.5,145,155,155,337.5,1986
2,F,Claire Akin,SBD,FR-O,84,Raw,FNCF,75.3,132.5,135,-140,135,67.5,70,72.5,72.5,145,152.5,160,160,367.5,1993
2,M,Bao Stephen Pham,SBD,MR-O,59,Raw,,58.1,147.5,160,-165,160,85,92.5,95,95,175,182.5,187.5,187.5,442.5,
2,M,Samuel Choi,SBD,MR-O,105,Raw,SBWC,101.8,230,245,255,255,142.5,152.5,155,155,217.5,232.5,-237.5,232.5,642.5,1991
3,M,Ed Minelli,SBD,MR-O,120,Raw,BAY,115.2,225,240,250,250,150,160,170,170,265,287.5,302.5,302.5,722.5,1988
3,M,Anthony Guarracino,SBD,MR-O,74,Raw,,72.5,192.5,202.5,207.5,207.5,107.5,115,-117.5,115,212.5,225,227.5,227.5,550,1992
3,M,Edward Cai,SBD,MR-O,66,Raw,,65.8,175,190,-197.5,190,-97.5,105,-110,105,195,215,-227.5,215,510,1988
3,M,Phillip Herndon,SBD,MR-O,93,Raw,DD,91.1,230,240,-247.5,240,142.5,150,-157.5,150,230,242.5,250,250,640,1995
3,M,Garrett Berna,SBD,MR-O,105,Raw,CCG,100,212.5,222.5,-237.5,222.5,157.5,162.5,167.5,167.5,-232.5,232.5,-250,232.5,622.5,1986
3,M,William Fluck,SBD,MR-O,120+,Raw,,144,240,262.5,-272.5,262.5,142.5,150,-155,150,245,-265,-265,245,657.5,1985
3,F,Valerie Oliveira,SBD,FR-O,84,Raw,,75.5,-112.5,112.5,-117.5,112.5,60,-62.5,62.5,62.5,120,125,132.5,132.5,307.5,
3,F,Jessica Needham,SBD,FR-O,63,Raw,,62.8,87.5,95,102.5,102.5,52.5,60,-62.5,60,120,125,132.5,132.5,295,
3,F,Yohanna Estime,SBD,FR-O,84+,Raw,,90.1,-125,125,-132.5,125,65,67.5,70,70,155,157.5,-162.5,157.5,352.5,
3,M,Bryan Siu,SBD,MR-O,59,Raw,,58,112.5,125,-140,125,67.5,77.5,-87.5,77.5,122.5,132.5,145,145,347.5,1994
3,M,Jimmy Heim,SBD,MR-O,83,Raw,,82.2,187.5,197.5,210,210,117.5,125,-132.5,125,227.5,242.5,-250,242.5,577.5,
3,F,Justine Colgan,SBD,FR-O,72,Raw,,63.2,115,122.5,130,130,60,62.5,67.5,67.5,140,150,160,160,357.5,1991
3,F,Lina Hoang,SBD,FR-O,52,Raw,,51.4,85,90,95,95,57.5,62.5,65,65,110,117.5,125,125,285,1992
DQ,F,Angela Souza,SBD,FR-O,57,Raw,,56.4,-60,-60,-60,,-42.5,-42.5,-42.5,,-70,70,-72.5,70,,
4,M,Guo Chen,SBD,MR-O,66,Raw,,64.1,165,180,185,185,100,105,110,110,175,190,195,195,490,1980
4,F,Brittni Perry,SBD,FR-O,72,Raw,CCG,70.4,127.5,-132.5,-132.5,127.5,62.5,-67.5,-67.5,62.5,135,145,-157.5,145,335,1989
4,F,Elyse Bezarro,SBD,FR-O,84,Raw,CCG,83.8,90,95,-105,95,45,50,-55,50,112.5,122.5,130,130,275,
4,M,Brian Badger,SBD,MR-O,120,Raw,,119.3,225,240,-250,240,157.5,-162.5,,157.5,265,275,-295,275,672.5,
4,F,Allison Cross,SBD,FR-O,52,Raw,,50.8,85,92.5,95,95,52.5,57.5,-60,57.5,115,122.5,127.5,127.5,280,1988
4,F,Colie Pascone,SBD,FR-O,63,Raw,,61.1,95,102.5,-105,102.5,55,60,65,65,115,125,-132.5,125,292.5,1982
4,F,Brittany Guillory,SBD,FR-O,84+,Raw,SBWC,93.8,110,117.5,-120,117.5,70,75,80,80,125,135,140,140,337.5,1986
4,M,Nico Ferragano,SBD,MR-O,74,Raw,,72.8,-185,185,-190,185,-120,120,125,125,202.5,217.5,230,230,540,
4,M,Chris Contois,SBD,MR-O,83,Raw,,78,195,-207.5,-207.5,195,137.5,-145,-145,137.5,227.5,-235,-235,227.5,560,1983
4,M,Nick Lucente,SBD,MR-O,93,Raw,DD,92.9,-197.5,197.5,-202.5,197.5,-165,165,170,170,252.5,260,,260,627.5,
4,M,Ryan Pothier,SBD,MR-O,105,Raw,,101.9,-165,170,195,195,120,135,-140,135,205,225,230,230,560,1988
4,M,Michael Morabito,SBD,MR-O,120+,Raw,,131.7,217.5,232.5,240,240,-152.5,160,165,165,225,-240,,225,630,1969
5,F,Chrystn Fisher,SBD,FR-O,72,Raw,,69.5,102.5,110,-117.5,110,60,65,-70,65,130,137.5,145,145,320,1978
5,M,Josh Banks #1,SBD,MR-O,120+,Raw,,120.6,175,187.5,197.5,197.5,147.5,155,165,165,227.5,242.5,-247.5,242.5,605,1987
5,M,Jian Cai Wu,SBD,MR-O,74,Raw,,73.9,180,192.5,,192.5,-105,105,112.5,112.5,205,-220,220,220,525,1995
5,M,Jeff Blackwood,SBD,MR-O,120,Raw,,116.9,210,225,232.5,232.5,142.5,147.5,150,150,235,247.5,252.5,252.5,635,1986
5,M,Jared Carmichael,SBD,MR-O,105,Raw,CCG,96.9,190,-200,200,200,117.5,122.5,127.5,127.5,227.5,-237.5,-237.5,227.5,555,1989
5,M,Devon Smith,SBD,MR-O,93,Raw,NHBC,83.9,-195,207.5,-222.5,207.5,135,145,-150,145,232.5,242.5,-260,242.5,595,1991
5,M,Nicalos Westgate,SBD,MR-O,83,Raw,,81.3,175,187.5,195,195,142.5,152.5,155,155,190,210,-220,210,560,1988
5,F,Melissa Tibay,SBD,FR-O,63,Raw,,59.3,97.5,105,-112.5,105,52.5,57.5,-60,57.5,110,117.5,125,125,287.5,
5,F,Deanne Tonry,SBD,FR-O,52,Raw,,48.5,90,95,-97.5,95,57.5,-60,-60,57.5,-110,-112.5,115,115,267.5,1964
5,F,BG Tucker,SBD,FR-O,84+,Raw,,90.7,87.5,95,100,100,60,65,-72.5,65,100,115,127.5,127.5,292.5,
5,M,Alan Wu,SBD,MR-O,66,Raw,,65.9,150,167.5,-172.5,167.5,100,-112.5,112.5,112.5,192.5,210,-220,210,490,1997
6,M,Adam Delancey,SBD,MR-O,120+,Raw,CCG,128.3,192.5,210,-220,210,125,132.5,-140,132.5,225,237.5,-245,237.5,580,1989
6,M,Fredrick Zeiba Jr,SBD,MR-O,120,Raw,,118.5,230,-245,250,250,132.5,140,142.5,142.5,207.5,220,235,235,627.5,1988
6,F,Sabrina De Costa,SBD,FR-O,72,Raw,,64.8,115,120,-125,120,67.5,-70,-75,67.5,-125,130,-140,130,317.5,1982
6,M,Peter Hsi,SBD,MR-O,74,Raw,,71.3,150,162.5,172.5,172.5,127.5,140,-150,140,180,190,195,195,507.5,
6,M,Daniel Oteri,SBD,MR-O,105,Raw,,104.4,182.5,192.5,-197.5,192.5,130,-137.5,137.5,137.5,190,202.5,215,215,545,
6,F,Alyssa DiNatale,SBD,FR-O,52,Raw,,50,62.5,65,70,70,37.5,-42.5,-42.5,37.5,75,85,-92.5,85,192.5,1989
6,F,Meredith Janelle,SBD,FR-O,63,Raw,,61.6,92.5,97.5,105,105,-57.5,65,-72.5,65,92.5,97.5,112.5,112.5,282.5,1984
6,M,Louis Pisano,SBD,MR-O,66,Raw,JMPU,64.2,150,165,175,175,97.5,105,-110,105,185,202.5,205,205,485,1991
6,M,James Ainsworth,SBD,MR-O,83,Raw,,74.8,180,185,195,195,125,-130,-130,125,215,220,-225,220,540,1991
6,M,John Troiano,SBD,MR-O,93,Raw,,91.6,157.5,185,190,190,147.5,160,165,165,215,230,235,235,590,1979
7,M,Bao-Khang Luu,SBD,MR-O,66,Raw,SBWC,63,150,160,170,170,95,107.5,-112.5,107.5,180,192.5,200,200,477.5,1978
7,M,Mark Chaffer,SBD,MR-O,120,Raw,,107,222.5,237.5,245,245,107.5,-115,115,115,210,-220,-220,210,570,1990
7,M,Clarence Forman,SBD,MR-O,105,Raw,,101.2,170,182.5,190,190,112.5,122.5,-127.5,122.5,197.5,210,215,215,527.5,
7,F,Marie-Andree Cleary,SBD,FR-O,63,Raw,PNX,62.1,80,-85,-87.5,80,47.5,-52.5,55,55,90,95,-100,95,230,1972
7,M,Joseph Banh,SBD,MR-O,74,Raw,,70.9,160,175,-185,175,112.5,130,-135,130,175,187.5,200,200,505,1994
7,F,Lonnie Fariss,SBD,FR-O,72,Raw,ICB,64.6,90,95,97.5,97.5,70,72.5,-75,72.5,135,137.5,140,140,310,1969
7,F,Tiffini Mann,SBD,FR-O,52,Raw,,48.5,57.5,-60,60,60,35,-40,-40,35,85,-87.5,87.5,87.5,182.5,1984
7,M,Minhchau Tran,SBD,MR-O,83,Raw,,81.3,-170,170,185,185,105,110,115,115,212.5,225,240,240,540,
7,M,Derick Healy,SBD,MR-O,93,Raw,,91.2,182.5,190,195,195,-127.5,135,142.5,142.5,225,242.5,-252.5,242.5,580,1990
7,M,Peter Kenyon,SBD,MR-O,120+,Raw,,134.9,167.5,172.5,180,180,132.5,137.5,-142.5,137.5,180,-182.5,-182.5,180,497.5,1989
8,M,Kyle Cross,SBD,MR-O,105,Raw,,100.5,180,192.5,197.5,197.5,110,115,120,120,192.5,200,-207.5,200,517.5,1983
8,M,Nikolai Flores,SBD,MR-O,93,Raw,,84.6,197.5,207.5,-212.5,207.5,-125,125,-132.5,125,235,245,-255,245,577.5,1988
8,M,Trevor Biller,SBD,MR-O,83,Raw,SBWC,80.1,160,170,177.5,177.5,105,115,-120,115,195,205,210,210,502.5,1988
8,F,Lynday Rathbun,SBD,FR-O,63,Raw,PSU,60.4,82.5,87.5,-92.5,87.5,37.5,42.5,-45,42.5,-97.5,97.5,-102.5,97.5,227.5,1993
8,F,Martha Connaughton,SBD,FR-O,72,Raw,,69.9,80,87.5,95,95,65,70,-75,70,130,140,145,145,310,1986
8,M,Joshua Bane,SBD,MR-O,66,Raw,,62.1,-140,145,160,160,100,112.5,115,115,160,172.5,180,180,455,1987
8,M,Jacob Ferwerda,SBD,MR-O,74,Raw,,72.5,165,175,182.5,182.5,107.5,115,,115,192.5,205,-215,205,502.5,1991
8,M,Jarrod Pooler,SBD,MR-O,120,Raw,,117.6,142.5,155,-170,155,102.5,110,-115,110,150,160,182.5,182.5,447.5,1985
9,M,Robert Keller #1,SBD,MR-O,120,Raw,,119.5,75,85,95,95,75,85,95,95,75,100,115,115,305,1962
9,F,Heather Hurd,SBD,FR-O,72,Raw,,66.4,85,95,102.5,102.5,-60,60,62.5,62.5,130,-132.5,-132.5,130,295,1983
9,M,Sith Prak,SBD,MR-O,74,Raw,,74,155,167.5,-182.5,167.5,-105,105,-110,105,182.5,205,227.5,227.5,500,1982
9,F,Andrea Fogg,SBD,FR-O,63,Raw,CCG,62.1,60,-67.5,-72.5,60,30,35,40,40,87.5,95,100,100,200,1979
9,M,Brian Fama,SBD,MR-O,83,Raw,,80.5,157.5,162.5,170,170,117.5,-122.5,122.5,122.5,197.5,202.5,210,210,502.5,
9,M,Kevin Richards,SBD,MR-O,93,Raw,,91.9,180,192.5,205,205,130,145,-150,145,205,227.5,-240,227.5,577.5,1990
9,M,Abe Eastman,SBD,MR-O,105,Raw,,96.7,142.5,155,160,160,102.5,107.5,112.5,112.5,185,192.5,-197.5,192.5,465,
10,M,Ravi Shah,SBD,MR-O,105,Raw,SBWC,100.3,165,170,-172.5,170,102.5,110,-112.5,110,175,180,-190,180,460,1987
10,M,Kevin Bugaj,SBD,MR-O,93,Raw,,91.9,182.5,192.5,-202.5,192.5,125,130,135,135,215,225,235,235,562.5,1985
10,F,Jessica Julian,SBD,FR-O,72,Raw,,69.5,82.5,95,-105,95,42.5,50,-57.5,50,102.5,117.5,127.5,127.5,272.5,1989
10,M,Andrew Berg,SBD,MR-O,74,Raw,,66.3,167.5,-177.5,-177.5,167.5,112.5,-117.5,-117.5,112.5,205,212.5,217.5,217.5,497.5,1991
10,M,Michael Fabrizi,SBD,MR-O,83,Raw,,81.4,170,182.5,190,190,102.5,107.5,-112.5,107.5,-192.5,195,202.5,202.5,500,
11,M,Hardu Virks-Lee,SBD,MR-O,74,Raw,,72.5,172.5,-190,190,190,117.5,-127.5,-127.5,117.5,172.5,190,-207.5,190,497.5,1991
11,M,Jason Brown #2,SBD,MR-O,93,Raw,,86.1,-165,172.5,182.5,182.5,125,-135,-137.5,125,205,227.5,237.5,237.5,545,1986
11,F,Jennifer Schandelmayer,SBD,FR-O,72,Raw,,67.1,72.5,77.5,82.5,82.5,50,-52.5,55,55,110,115,122.5,122.5,260,1983
11,M,James Murphy,SBD,MR-O,83,Raw,,79.6,145,160,167.5,167.5,102.5,107.5,-115,107.5,185,200,210,210,485,
11,M,Eric DiFalco,SBD,MR-O,105,Raw,,98.4,145,157.5,-172.5,157.5,-95,95,105,105,160,170,180,180,442.5,1983
12,M,Joshua Sampsell,SBD,MR-O,74,Raw,PSU,73.8,167.5,175,182.5,182.5,107.5,112.5,-117.5,112.5,185,192.5,200,200,495,1993
12,M,Joshua Wakefield,SBD,MR-O,93,Raw,Chaos,91.7,-185,-185,185,185,120,-125,-125,120,240,-250,-250,240,545,1991
12,M,Jason Smith #19,SBD,MR-O,105,Raw,SBWC,101.3,145,152.5,160,160,92.5,97.5,-100,97.5,165,175,-182.5,175,432.5,1984
12,M,Josh Mavilia,SBD,MR-O,83,Raw,,78.8,140,-152.5,-162.5,140,120,127.5,130,130,170,177.5,185,185,455,1991
13,M,Bill Clayton,SBD,MR-O,83,Raw,,81.9,102.5,145,,145,-75,92.5,,92.5,102.5,150,182.5,182.5,420,1953
13,M,Zack LaCasse,SBD,MR-O,74,Raw,,73,142.5,157.5,-167.5,157.5,80,85,-90,85,167.5,177.5,185,185,427.5,
13,M,John Kimball,SBD,MR-O,93,Raw,,91.7,-172.5,172.5,182.5,182.5,102.5,115,122.5,122.5,202.5,217.5,230,230,535,1989
DQ,M,Desmond Quirk,SBD,MR-O,105,Raw,,102.8,187.5,-200,-200,187.5,-122.5,122.5,-130,122.5,-220,-220,-220,,,1993
14,M,Charles Hwang,SBD,MR-O,74,Raw,,72.3,140,-155,-155,140,75,82.5,87.5,87.5,150,160,-180,160,387.5,1983
14,M,Riley Bourbon,SBD,MR-O,83,Raw,,77.1,97.5,102.5,107.5,107.5,82.5,87.5,92.5,92.5,142.5,147.5,155,155,355,
14,M,Kenneth Wick,SBD,MR-O,93,Raw,,89.5,167.5,175,-187.5,175,110,117.5,-125,117.5,202.5,222.5,230,230,522.5,1986
15,M,Mark Knowles,SBD,MR-O,93,Raw,,92.6,170,187.5,-195,187.5,112.5,120,-122.5,120,177.5,200,210,210,517.5,1963
15,M,DJ Pascone,SBD,MR-O,74,Raw,,72.1,117.5,132.5,-137.5,132.5,80,-85,-85,80,165,-182.5,-182.5,165,377.5,1985
DQ,M,Jamie Leslie,SBD,MR-O,74,Raw,,74,-150,-150,-150,,-115,-115,-115,,-190,190,-200,190,,1991
16,M,Brendan McCaffrey,SBD,MR-O,93,Raw,,88.4,160,180,-185,180,95,107.5,-117.5,107.5,195,220,-227.5,220,507.5,1990
17,M,Donald Counihan III,SBD,MR-O,93,Raw,,89.3,162.5,185,-187.5,185,112.5,-115,115,115,205,-220,-220,205,505,1988
18,M,Galen McConnell,SBD,MR-O,93,Raw,,88.8,157.5,175,-187.5,175,90,97.5,102.5,102.5,172.5,-187.5,-187.5,172.5,450,1985
19,M,Scott Giorgi,SBD,MR-O,93,Raw,,89.8,142.5,147.5,155,155,115,122.5,125,125,142.5,150,157.5,157.5,437.5,1970
20,M,Jeff Bramhall,SBD,MR-O,93,Raw,,91.4,142.5,152.5,-160,152.5,82.5,-90,90,90,185,-200,-200,185,427.5,1981
21,M,Matthew Sullivan #2,SBD,MR-O,93,Raw,,87.7,100,112.5,125,125,80,-95,-95,80,170,182.5,195,195,400,1977
DQ,M,Alex Aquila,SBD,MR-O,93,Raw,UH,86.5,175,185,187.5,187.5,-112.5,-115,-115,,217.5,-230,-230,217.5,,1995
DQ,M,Ross Ackeifi,SBD,MR-O,93,Raw,UH,90.5,177.5,185,190,190,-132.5,-132.5,-132.5,,230,235,240,240,,1996
DQ,M,Phil Najemy,SBD,MR-O,93,Raw,,91.3,220,232.5,-237.5,232.5,-105,-105,,,272.5,-285,,272.5,,1980
1,M,Joe Rizza,SBD,M-M3,74,Single-ply,,74,-160,160,182.5,182.5,62.5,67.5,72.5,72.5,160,172.5,-182.5,172.5,427.5,1949
1,M,Paul Mears #1,SBD,M-M3,66,Single-ply,OB,65.6,145,155,165,165,77.5,,,77.5,172.5,182.5,,182.5,425,1953
1,M,John Goodyear,SBD,MR-T3,83,Raw,NU,80.8,-165,175,182.5,182.5,112.5,120,125,125,190,200,-212.5,200,507.5,1995
1,F,Sarh Lurie,SBD,FR-T3,63,Raw,PRI,62.1,112.5,122.5,-130,122.5,65,72.5,-75,72.5,155,167.5,-175,167.5,362.5,
1,F,Lisa Li,SBD,FR-T3,84,Raw,NU,80.9,-105,105,112.5,112.5,45,50,55,55,122.5,130,135,135,302.5,1996
1,M,Alan Wu,SBD,MR-T3,66,Raw,,65.9,150,167.5,-172.5,167.5,100,-112.5,112.5,112.5,192.5,210,-220,210,490,1997
2,F,Allison Tran,SBD,FR-T3,84,Raw,NU,73.4,77.5,82.5,87.5,87.5,35,40,45,45,115,122.5,-127.5,122.5,255,1995
2,M,Josh Jean,SBD,MR-T3,83,Raw,,81.5,137.5,150,160,160,102.5,110,117.5,117.5,192.5,-212.5,-227.5,192.5,470,
1,M,James Dean,SBD,MR-T1,74,Raw,SJP,70.7,92.5,102.5,-110,102.5,60,62.5,-65,62.5,130,142.5,150,150,315,2000
2,M,Matt Osborne,SBD,MR-T1,74,Raw,SJP,72.6,92.5,102.5,-107.5,102.5,60,65,70,70,120,135,140,140,312.5,
1,M,Steven Davenport,SBD,M-M1,120+,Single-ply,,131.7,322.5,-327.5,327.5,327.5,250,255,-260,255,275,320,-325,320,902.5,1971
1,M,Edju Gasinowski,SBD,M-M1,83,Single-ply,,82.8,227.5,237.5,245,245,137.5,145,155,155,227.5,237.5,-242.5,237.5,637.5,1972
1,M,Jim Stovall,SBD,MR-M4,83,Raw,,79.3,-125,125,-145,125,80,82.5,-87.5,82.5,170,180,-185,180,387.5,
1,M,Mark Daniel,SBD,M-M2,93,Single-ply,,89.5,-207.5,207.5,-220,207.5,155,160,162.5,162.5,205,220,227.5,227.5,597.5,1962
1,F,Daniel Caryn,SBD,F-M2,72,Single-ply,,68.9,125,135,-140,135,65,70,75,75,125,135,142.5,142.5,352.5,1963
1,M,Sam Belinsky,SBD,MR-SO,105,Raw,,103.5,177.5,182.5,190,190,157.5,162.5,167.5,167.5,237.5,252.5,-260,252.5,610,
1,M,Floyd Hayes,SBD,M-M4,120,Single-ply,,110.4,112.5,-120,-120,112.5,52.5,62.5,,62.5,205,-215,215,215,390,
1,F,Dawn Macomber,BD,FR-M1,84+,Raw,,84.5,,,,,62.5,65,70,70,127.5,-142.5,-142.5,127.5,197.5,1971
1,F,Maura Waxwood,BD,FR-M1,72,Raw,,64.7,,,,,37.5,40,42.5,42.5,55,-77.5,90,90,132.5,
1,F,Susan Walter,BD,FR-M3,63,Raw,,61.8,,,,,-42.5,42.5,-45,42.5,85,87.5,90,90,132.5,1948
1,M,Kirill Gusarov,BD,MR-Jr,105,Raw,,104.4,,,,,122.5,130,137.5,137.5,200,210,,210,347.5,1992
1,M,Aaron Lamb,BD,MR-O,83,Raw,,78,,,,,115,125,-132.5,125,195,210,217.5,217.5,342.5,1988
DQ,F,Paulette Diva Richards,BD,FR-O,84,Raw,,74.4,,,,,72.5,77.5,-80,77.5,-175,-175,-175,,,
1,F,Courtney Marshall,BD,FR-O,84+,Raw,,118.4,,,,,42.5,-57.5,-60,42.5,92.5,112.5,132.5,132.5,175,1976
1,F,Maura Waxwood,BD,FR-O,72,Raw,,64.7,,,,,37.5,40,42.5,42.5,55,-77.5,90,90,132.5,
2,F,Ioana Moga,BD,FR-O,84+,Raw,,105.3,,,,,52.5,55,57.5,57.5,100,105,110,110,167.5,1991
1,M,William Levine,BD,MR-T3,53,Raw,BP,51.1,,,,,80,85,-90,85,107.5,112.5,117.5,117.5,202.5,1997
1,M,Brandon Carasiti,BD,MR-T3,74,Raw,,72.3,,,,,112.5,-120,-120,112.5,185,-190,190,190,302.5,1996
