Division,WeightClassKg,Place,Name,Team,BodyweightKg,Best3SquatKg,Best3BenchKg,Best3DeadliftKg,TotalKg,Equipment,Event,Sex
Boys,51.71,1,Max Obregon,Dilley,50.89,140.61,81.65,140.61,362.87,Single-ply,SBD,M
Boys,51.71,2,Jesus Gomez,Somerset,51.53,115.67,70.31,127.01,312.98,Single-ply,SBD,M
Boys,51.71,3,Ritchie Nevarez,Uvalde,50.8,79.38,45.36,90.72,215.46,Single-ply,SBD,M
Boys,55.79,1,Josh Lomas,Crystal City,55.07,136.08,97.52,172.37,405.97,Single-ply,SBD,M
Boys,55.79,2,Alan Espinosa,Dilley,55.79,133.81,77.11,149.69,360.61,Single-ply,SBD,M
Boys,55.79,3,Randy Mancha,Crystal City,55.16,111.13,72.57,145.15,328.85,Single-ply,SBD,M
Boys,55.79,4,Sid Alcoser,Somerset,52.62,113.4,65.77,136.08,315.25,Single-ply,SBD,M
Boys,55.79,5,Jm Elizondo,Pearsall,52.62,97.52,61.23,102.06,260.82,Single-ply,SBD,M
Boys,59.87,1,Felix Gutierrez,Crystal City,59.78,154.22,97.52,165.56,417.3,Single-ply,SBD,M
Boys,59.87,2,Christian Sanchez,Cotulla,57.15,149.69,92.99,167.83,410.5,Single-ply,SBD,M
Boys,59.87,3,Gustavo Ayala,Cotulla,58.51,138.35,77.11,158.76,374.21,Single-ply,SBD,M
Boys,59.87,4,Rudy Martinez,Carrizo Springs,58.06,108.86,81.65,170.1,360.61,Single-ply,SBD,M
Boys,59.87,5,Joel Rodriguez,Castroville Medina Valley,58.97,124.74,92.99,138.35,356.07,Single-ply,SBD,M
Boys,59.87,DQ,Oscar de Leon,Somerset,59.87,,,,,Single-ply,SBD,M
Boys,67.13,1,Ozzy Gonzalez,Somerset,67.13,181.44,81.65,172.37,435.45,Single-ply,SBD,M
Boys,67.13,2,Ricky Ayala,Cotulla,63.96,142.88,83.91,172.37,399.16,Single-ply,SBD,M
Boys,67.13,3,Jess Rutledge,Carrizo Springs,60.96,136.08,68.04,154.22,358.34,Single-ply,SBD,M
Boys,67.13,4,Josh Ramos,Somerset,67.13,142.88,68.04,142.88,353.8,Single-ply,SBD,M
Boys,67.13,5,Angel Gonzales #3,Uvalde,66.22,122.47,72.57,140.61,335.66,Single-ply,SBD,M
Boys,67.13,6,Leroy Torres,Castroville Medina Valley,66.04,115.67,74.84,131.54,322.05,Single-ply,SBD,M
Boys,67.13,7,Emilio Arce,Carrizo Springs,66.68,95.25,83.91,120.2,299.37,Single-ply,SBD,M
Boys,67.13,8,Andres Rodriguez,Castroville Medina Valley,67.13,83.91,52.16,97.52,233.6,Single-ply,SBD,M
Boys,67.13,DQ,Lorenzo Cruz,Carrizo Springs,60.78,104.33,,,,Single-ply,SBD,M
Boys,67.13,DQ,Zack Oreneleas,Pearsall,64.59,158.76,,,,Single-ply,SBD,M
Boys,67.13,DQ,Eduardo Medrano,Uvalde,64.86,117.93,,,,Single-ply,SBD,M
Boys,74.84,1,Ricky Garza,Crystal City,73.57,170.1,108.86,174.63,453.59,Single-ply,SBD,M
Boys,74.84,2,Mark Ruiz,Cotulla,71.76,163.29,108.86,176.9,449.06,Single-ply,SBD,M
Boys,74.84,3,Raul Vasquez,Pearsall,69.4,149.69,92.99,156.49,399.16,Single-ply,SBD,M
Boys,74.84,4,Andrew Esquivel,Carrizo Springs,68.86,142.88,88.45,161.03,392.36,Single-ply,SBD,M
Boys,74.84,5,Zeke Hinojosa,Pearsall,71.21,129.27,81.65,136.08,347,Single-ply,SBD,M
Boys,74.84,6,Reagan Luce,Barksdale Nueces Canyon,68.95,117.93,83.91,120.2,322.05,Single-ply,SBD,M
Boys,74.84,7,Esteban Cruz,Cotulla,68.76,97.52,77.11,124.74,299.37,Single-ply,SBD,M
Boys,74.84,8,Rake Palermo,Barksdale Nueces Canyon,74.39,111.13,70.31,113.4,294.84,Single-ply,SBD,M
Boys,74.84,9,Robert Rodriguez,Castroville Medina Valley,70.76,102.06,61.23,127.01,290.3,Single-ply,SBD,M
Boys,74.84,10,Jason Garcia #8,Uvalde,73.94,83.91,56.7,140.61,281.23,Single-ply,SBD,M
Boys,74.84,11,Chase Todd,Castroville Medina Valley,67.59,83.91,61.23,108.86,254.01,Single-ply,SBD,M
Boys,74.84,12,Nate Grissam,Castroville Medina Valley,70.03,90.72,65.77,92.99,249.48,Single-ply,SBD,M
Boys,74.84,DQ,Johnny Salazar,Somerset,68.4,,,,,Single-ply,SBD,M
Boys,74.84,DQ,JR Hernandez,Uvalde,73.94,,,,,Single-ply,SBD,M
Boys,74.84,DQ,Noel Gonzales,Uvalde,74.62,,,,,Single-ply,SBD,M
Boys,82.1,1,Justin Quesada,Somerset,79.38,226.8,129.27,217.72,573.79,Single-ply,SBD,M
Boys,82.1,2,Pedro Molina,Somerset,78.93,204.12,122.47,226.8,553.38,Single-ply,SBD,M
Boys,82.1,3,Jj Elias,Somerset,79.56,197.31,115.67,226.8,539.77,Single-ply,SBD,M
Boys,82.1,4,John Valdez,Somerset,75.48,142.88,106.59,161.03,410.5,Single-ply,SBD,M
Boys,82.1,5,Chris Vinton,Pearsall,77.11,149.69,92.99,158.76,401.43,Single-ply,SBD,M
Boys,82.1,6,Ace Sanchez,Barksdale Nueces Canyon,82.1,142.88,81.65,142.88,367.41,Single-ply,SBD,M
Boys,82.1,7,Joshua Guerra,Castroville Medina Valley,77.2,115.67,74.84,161.03,351.53,Single-ply,SBD,M
Boys,82.1,8,Thomas Rodriguez,Somerset,80.83,102.06,65.77,142.88,310.71,Single-ply,SBD,M
Boys,82.1,9,Albert Romo,Castroville Medina Valley,81.65,97.52,70.31,86.18,254.01,Single-ply,SBD,M
Boys,82.1,DQ,Silverio Trejo,Pearsall,80.74,179.17,,,,Single-ply,SBD,M
Boys,82.1,DQ,John Ventura,Pearsall,75.75,190.51,,,,Single-ply,SBD,M
Boys,82.1,DQ,Inez Guevara,Uvalde,81.65,,,,,Single-ply,SBD,M
Boys,82.1,DQ,Rigo Hernandez,Uvalde,81.65,,,,,Single-ply,SBD,M
Boys,89.81,1,Jordan Garcia #6,Cotulla,89.81,204.12,133.81,226.8,564.72,Single-ply,SBD,M
Boys,89.81,2,David Garza,Cotulla,83.19,192.78,131.54,208.65,532.97,Single-ply,SBD,M
Boys,89.81,3,Michael Bustamante,Somerset,85.28,176.9,104.33,163.29,444.52,Single-ply,SBD,M
Boys,89.81,4,Gabe Morales,Pearsall,86.82,156.49,86.18,172.37,415.04,Single-ply,SBD,M
Boys,89.81,5,Isaiah Miranda,Cotulla,84.37,142.88,102.06,145.15,390.09,Single-ply,SBD,M
Boys,89.81,6,Jose Perez #21,Uvalde,88.45,158.76,83.91,142.88,385.55,Single-ply,SBD,M
Boys,89.81,7,Derek Garcia,Uvalde,88.45,108.86,77.11,136.08,322.05,Single-ply,SBD,M
Boys,89.81,8,Jesus Ramirez,Uvalde,89.36,108.86,68.04,113.4,290.3,Single-ply,SBD,M
Boys,89.81,DQ,Kalka Jay,Somerset,83.91,,,,,Single-ply,SBD,M
Boys,89.81,DQ,Abraham Cantu,Pearsall,89.81,,,,,Single-ply,SBD,M
Boys,99.79,1,Justin Lomas,Crystal City,98.25,231.33,120.2,215.46,566.99,Single-ply,SBD,M
Boys,99.79,2,Fabian Huerta,Crystal City,96.62,156.49,97.52,176.9,430.91,Single-ply,SBD,M
Boys,99.79,3,Alejandro Guzman,Dilley,99.34,165.56,88.45,167.83,421.84,Single-ply,SBD,M
Boys,99.79,4,Joe Tovar,Somerset,98.79,165.56,92.99,161.03,419.57,Single-ply,SBD,M
Boys,99.79,5,Andrew Estrada,Carrizo Springs,99.7,147.42,83.91,156.49,387.82,Single-ply,SBD,M
Boys,99.79,6,Jesus Pilado,Somerset,94.98,102.06,92.99,136.08,331.12,Single-ply,SBD,M
Boys,99.79,DQ,Tyler Mitchell,Somerset,98.43,165.56,,,,Single-ply,SBD,M
Boys,99.79,DQ,Mark Cerda,Somerset,98.43,222.26,,,,Single-ply,SBD,M
Boys,99.79,DQ,Ray Palomenque,Pearsall,94.08,136.08,,,,Single-ply,SBD,M
Boys,99.79,DQ,David Orosco,Carrizo Springs,99.06,113.4,,,,Single-ply,SBD,M
Boys,109.77,1,Sal Marines,Somerset,103.06,249.48,124.74,272.16,646.37,Single-ply,SBD,M
Boys,109.77,2,Bj Frieda,Somerset,107.95,163.29,106.59,197.31,467.2,Single-ply,SBD,M
Boys,109.77,3,David Nieto,Pearsall,101.33,165.56,111.13,151.95,428.64,Single-ply,SBD,M
Boys,109.77,4,Juliio Fuentes,Carrizo Springs,107.05,136.08,102.06,167.83,405.97,Single-ply,SBD,M
Boys,109.77,5,Julius Gonzales,Dilley,106.59,156.49,74.84,151.95,383.29,Single-ply,SBD,M
Boys,109.77,6,Trevor Ward,Barksdale Nueces Canyon,101.88,88.45,58.97,108.86,256.28,Single-ply,SBD,M
Boys,109.77,DQ,Ricky Arambula,Carrizo Springs,106.41,120.2,,,,Single-ply,SBD,M
Boys,109.77,DQ,Joe Ruschman,Somerset,107.95,,,,,Single-ply,SBD,M
Boys,109.77,DQ,Ivan Hernandez #1,Uvalde,109.32,108.86,,,,Single-ply,SBD,M
Boys,124.74,1,Joe Aguero,Somerset,122.92,317.51,138.35,213.19,669.05,Single-ply,SBD,M
Boys,124.74,2,Gabriel Garza #1,Somerset,121.83,249.48,149.69,204.12,603.28,Single-ply,SBD,M
Boys,124.74,3,Alejandro Maldonado #1,Uvalde,112.94,208.65,115.67,215.46,539.77,Single-ply,SBD,M
Boys,124.74,4,Larry Vidales,Somerset,114.76,154.22,92.99,181.44,428.64,Single-ply,SBD,M
Boys,124.74,5,Juan Ramirez,Carrizo Springs,119.11,127.01,95.25,145.15,367.41,Single-ply,SBD,M
Boys,124.74,6,Bruno Castillo,Somerset,118.02,108.86,106.59,106.59,322.05,Single-ply,SBD,M
Boys,124.74,DQ,Sim Brown,Barksdale Nueces Canyon,116.57,142.88,,,,Single-ply,SBD,M
Boys,124.74,DQ,Edgar Chavez,Cotulla,112.04,,,,,Single-ply,SBD,M
Boys,124.74+,1,Kyle Oden,Uvalde,145.15,208.65,106.59,226.8,542.04,Single-ply,SBD,M
Boys,124.74+,2,Andy Villadolid,Somerset,133.36,215.46,113.4,172.37,501.22,Single-ply,SBD,M
Boys,124.74+,3,Drew Kirkpatrick,Uvalde,129.27,181.44,92.99,181.44,455.86,Single-ply,SBD,M
Boys,124.74+,DQ,Nune Perez,Crystal City,134.72,294.84,,,,Single-ply,SBD,M
