Division,WeightClassKg,Place,Name,Team,BodyweightKg,Best3SquatKg,Best3BenchKg,Best3DeadliftKg,TotalKg,Equipment,Event,Sex,BirthDate
Girls,44.23,1,Lilly Patterson,Brock,43.82,115.67,68.04,113.4,297.1,Unlimited,SBD,F,
Girls,44.23,2,Lilly Carruthers,Aledo,44.13,61.23,40.82,63.5,165.56,Unlimited,SBD,F,
Girls,44.23,3,Jessica Aguado,Granbury,41.28,61.23,31.75,54.43,147.42,Unlimited,SBD,F,
Girls,47.85,1,Deysi Villegas,Granbury,46.72,106.59,47.63,113.4,267.62,Unlimited,SBD,F,
Girls,47.85,2,Jordan Harsany,Brock,47.63,97.52,38.56,92.99,229.06,Unlimited,SBD,F,
Girls,47.85,3,Jazmynn Torres,Granbury,46.72,83.91,36.29,77.11,197.31,Unlimited,SBD,F,
Girls,47.85,4,Angelina Perez,Granbury,46.72,70.31,40.82,70.31,181.44,Unlimited,SBD,F,
Girls,47.85,5,Kylie Dernovich,Aledo,46.27,56.7,31.75,58.97,147.42,Unlimited,SBD,F,
Girls,51.94,1,Morgan Sehnem,Aledo,51.12,108.86,49.9,95.25,254.01,Unlimited,SBD,F,
Girls,51.94,2,Zoe LaPraim,Aledo,51.17,83.91,47.63,97.52,229.06,Unlimited,SBD,F,
Girls,51.94,3,Jazlynn Torres,Granbury,49.44,90.72,36.29,86.18,213.19,Unlimited,SBD,F,
Girls,51.94,4,Liadhan Guffey,Aledo,51.26,81.65,49.9,77.11,208.65,Unlimited,SBD,F,
Girls,51.94,5,Jayli Pope,Brock,51.12,70.31,38.56,92.99,201.85,Unlimited,SBD,F,
Girls,51.94,6,Gabby O'Leary,Brock,51.62,83.91,29.48,83.91,197.31,Unlimited,SBD,F,
Girls,51.94,7,Kambry Zschiesche,Granbury,48.63,68.04,36.29,79.38,183.7,Unlimited,SBD,F,
Girls,51.94,8,Charlie Melancon,Granbury,49.44,63.5,34.02,86.18,183.7,Unlimited,SBD,F,
Girls,51.94,9,Carissa Ramirez,Glen Rose,49.71,74.84,31.75,77.11,183.7,Unlimited,SBD,F,
Girls,56.02,1,Summer Guthrie,Brock,55.97,129.27,68.04,111.13,308.44,Unlimited,SBD,F,
Girls,56.02,2,Bryanna Orr,Aledo,55.34,111.13,58.97,106.59,276.69,Unlimited,SBD,F,
Girls,56.02,3,Charlee Soward,Aledo,55.93,108.86,58.97,106.59,274.42,Unlimited,SBD,F,
Girls,56.02,4,Lexi Douglas,Glen Rose,53.98,111.13,52.16,99.79,263.08,Unlimited,SBD,F,
Girls,56.02,5,Preslee Carnes,Granbury,54.43,95.25,56.7,102.06,254.01,Unlimited,SBD,F,
Girls,56.02,6,Alexie Crabtree,Granbury,55.34,104.33,47.63,88.45,240.4,Unlimited,SBD,F,
Girls,56.02,7,Scout Hendrickson,Brock,53.98,83.91,36.29,83.91,204.12,Unlimited,SBD,F,
Girls,56.02,8,Lanie Walker,Brock,53.71,81.65,34.02,83.91,199.58,Unlimited,SBD,F,
Girls,56.02,9,Temperance Comer,Glen Rose,53.16,70.31,45.36,79.38,195.04,Unlimited,SBD,F,
Girls,60.1,1,Hannah Clark,Aledo,59.38,120.2,72.57,138.35,331.12,Unlimited,SBD,F,
Girls,60.1,2,Emma Lavett,Glen Rose,58.69,108.86,61.23,136.08,306.17,Unlimited,SBD,F,
Girls,60.1,3,Madison Widmayer,Aledo,58.92,113.4,65.77,113.4,292.57,Unlimited,SBD,F,
Girls,60.1,4,Shelby Roy,Brock,58.69,113.4,58.97,115.67,288.03,Unlimited,SBD,F,
Girls,60.1,5,Amanda Hodgson,Brock,58.33,106.59,43.09,102.06,251.74,Unlimited,SBD,F,
Girls,60.1,6,Stella Kendall,Aledo,58.92,90.72,58.97,102.06,251.74,Unlimited,SBD,F,
Girls,60.1,7,Tina Lapraim,Aledo,59.33,81.65,45.36,90.72,217.72,Unlimited,SBD,F,
Girls,60.1,8,Savannah Thompson,Aledo,59.6,79.38,47.63,88.45,215.46,Unlimited,SBD,F,
Girls,60.1,9,Bella Ibarra,Glen Rose,57.24,74.84,45.36,90.72,210.92,Unlimited,SBD,F,
Girls,60.1,10,Yancy Ross,Glen Rose,59.6,77.11,47.63,81.65,206.38,Unlimited,SBD,F,
Girls,60.1,11,Kylie Gibson,Granbury,58.97,70.31,45.36,77.11,192.78,Unlimited,SBD,F,
Girls,67.36,1,Emily Parker #2,Glen Rose,67.04,158.76,65.77,145.15,369.68,Unlimited,SBD,F,
Girls,67.36,2,Arhiana Aguilar,Brock,65.32,140.61,70.31,140.61,351.53,Unlimited,SBD,F,
Girls,67.36,3,Ari Mathias,Aledo,67.13,127.01,77.11,117.93,322.05,Unlimited,SBD,F,
Girls,67.36,4,Taylor Dawley,Granbury,66.5,122.47,63.5,131.54,317.51,Unlimited,SBD,F,
Girls,67.36,5,Fiona Doss,Granbury,66.86,108.86,52.16,120.2,281.23,Unlimited,SBD,F,
Girls,67.36,6,Breleigh Mayer,Aledo,65.41,99.79,49.9,106.59,256.28,Unlimited,SBD,F,
Girls,67.36,7,Pooja Vitthalpura,Granbury,65.32,88.45,45.36,102.06,235.87,Unlimited,SBD,F,
Girls,67.36,8,Emma Tempest,Granbury,63.59,102.06,38.56,90.72,231.33,Unlimited,SBD,F,
Girls,67.36,9,Alli Faulkner,Aledo,65.32,68.04,58.97,95.25,222.26,Unlimited,SBD,F,
Girls,67.36,10,Sophia Frank,Aledo,61.51,63.5,54.43,86.18,204.12,Unlimited,SBD,F,
Girls,67.36,11,Tatum Kosse,Aledo,62.91,61.23,40.82,77.11,179.17,Unlimited,SBD,F,
Girls,75.07,1,Addison Gigliotta,Brock,74.84,147.42,90.72,133.81,371.95,Unlimited,SBD,F,
Girls,75.07,2,Sharai Rosas,Granbury,71.21,140.61,70.31,138.35,349.27,Unlimited,SBD,F,
Girls,75.07,3,Chasity Foster,Granbury,69.4,111.13,61.23,111.13,283.5,Unlimited,SBD,F,
Girls,75.07,4,Taylor Harlin,Glen Rose,74.57,102.06,61.23,111.13,274.42,Unlimited,SBD,F,
Girls,75.07,5,Catherine Morel,Granbury,71.21,92.99,58.97,108.86,260.82,Unlimited,SBD,F,
Girls,75.07,6,Amelia Feao,Granbury,73.94,97.52,47.63,113.4,258.55,Unlimited,SBD,F,
Girls,75.07,7,Lyla Irish,Brock,70.76,102.06,45.36,108.86,256.28,Unlimited,SBD,F,
Girls,75.07,8,Zoey Dunagan,Granbury,74.84,90.72,56.7,106.59,254.01,Unlimited,SBD,F,
Girls,75.07,9,Ashton Teague,Aledo,73.84,86.18,49.9,104.33,240.4,Unlimited,SBD,F,
Girls,75.07,10,Leilani Robert,Aledo,74.16,90.72,40.82,95.25,226.8,Unlimited,SBD,F,
Girls,75.07,11,Kenya Mendoza,Brock,72.48,83.91,45.36,90.72,219.99,Unlimited,SBD,F,
Girls,75.07,12,Claire Moseley,Aledo,72.67,79.38,34.02,102.06,215.46,Unlimited,SBD,F,
Girls,82.33,1,Estrella Diaz,Granbury,78.47,161.03,79.38,161.03,401.43,Unlimited,SBD,F,
Girls,82.33,2,Emmy Mey,Brock,78.83,124.74,70.31,127.01,322.05,Unlimited,SBD,F,
Girls,82.33,3,Preslee Spangler,Brock,77.84,117.93,72.57,115.67,306.17,Unlimited,SBD,F,
Girls,82.33,4,Jayden Staggs,Aledo,80.83,97.52,68.04,113.4,278.96,Unlimited,SBD,F,
Girls,82.33,5,Karmyn Williams,Granbury,79.38,113.4,45.36,113.4,272.16,Unlimited,SBD,F,
Girls,82.33,6,Brooklynn Norman,Glen Rose,81.65,102.06,47.63,108.86,258.55,Unlimited,SBD,F,
Girls,82.33,7,Abby Gilbert,Aledo,79.74,88.45,61.23,106.59,256.28,Unlimited,SBD,F,
Girls,90.04,1,Carli Rosson,Glen Rose,89.45,142.88,81.65,136.08,360.61,Unlimited,SBD,F,
Girls,90.04,2,Tylee Procter,Glen Rose,89.36,117.93,74.84,140.61,333.39,Unlimited,SBD,F,
Girls,90.04,3,Adrianna Lambert,Aledo,89.54,136.08,68.04,129.27,333.39,Unlimited,SBD,F,
Girls,90.04,4,Lauren StPeters,Aledo,88.72,95.25,65.77,131.54,292.57,Unlimited,SBD,F,
Girls,90.04,5,Harmony Burns,Granbury,87.54,115.67,65.77,106.59,288.03,Unlimited,SBD,F,
Girls,90.04,6,Miley Drikas,Brock,87.09,104.33,54.43,70.31,229.06,Unlimited,SBD,F,
Girls,100.02,1,Bella Garcia,Granbury,94.35,131.54,68.04,127.01,326.59,Unlimited,SBD,F,
Girls,100.02,2,Lilly Crisp,Glen Rose,98.79,124.74,74.84,111.13,310.71,Unlimited,SBD,F,
Girls,100.02,3,Lilly Stover,Glen Rose,96.62,83.91,52.16,106.59,242.67,Unlimited,SBD,F,
Girls,100.02,8,Ally Gilbert,Aledo,92.53,61.23,52.16,74.84,188.24,Unlimited,SBD,F,
Girls,110,1,Kathryn Goodner,Granbury,102.06,133.81,97.52,151.95,383.29,Unlimited,SBD,F,
