Division,WeightClassKg,Place,Name,Team,BodyweightKg,Best3SquatKg,Best3BenchKg,Best3DeadliftKg,TotalKg,Equipment,Event,Sex
Boys,51.71,1,Alfredo Barron,Splendora,49.71,122.47,58.97,136.08,317.51,Single-ply,SBD,M
Boys,51.71,2,Nate Colborn,Montgomery,44.36,108.86,49.9,108.86,267.62,Single-ply,SBD,M
Boys,51.71,3,Mason Walker,Livingston,48.63,88.45,47.63,97.52,233.6,Single-ply,SBD,M
Boys,55.79,1,Wyatt Dudley,Santa Fe,55.7,129.27,56.7,151.95,337.93,Single-ply,SBD,M
Boys,55.79,2,Salvador Bahena,Beaumont Ozen,54.79,106.59,77.11,131.54,315.25,Single-ply,SBD,M
Boys,55.79,3,Noel Spurlock,Montgomery,55.61,102.06,63.5,142.88,308.44,Single-ply,SBD,M
Boys,55.79,4,Tim Wilson,Conroe Caney Creek,54.16,97.52,68.04,133.81,299.37,Single-ply,SBD,M
Boys,55.79,5,Casey Avellaneda,Splendora,55.79,77.11,47.63,97.52,222.26,Single-ply,SBD,M
Boys,59.87,1,August Williams,Conroe Oak Ridge,59.87,145.15,102.06,151.95,399.16,Single-ply,SBD,M
Boys,59.87,2,Jerell Jones,Conroe Oak Ridge,59.87,145.15,90.72,154.22,390.09,Single-ply,SBD,M
Boys,59.87,3,Ashton Mashaw,Conroe Caney Creek,57.42,149.69,74.84,156.49,381.02,Single-ply,SBD,M
Boys,59.87,4,Justin Compean,Splendora,59.87,115.67,92.99,142.88,351.53,Single-ply,SBD,M
Boys,59.87,5,Clay Coogler,Shepherd,57.97,136.08,79.38,131.54,347,Single-ply,SBD,M
Boys,59.87,6,Noah Courvelle,Shepherd,59.69,131.54,79.38,136.08,347,Single-ply,SBD,M
Boys,59.87,7,Zack McDaniel,Livingston,59.42,92.99,65.77,111.13,269.89,Single-ply,SBD,M
Boys,67.13,1,Gin Ivey,Conroe Oak Ridge,66.59,197.31,115.67,208.65,521.63,Single-ply,SBD,M
Boys,67.13,2,James Traylor,Montgomery,62.87,163.29,92.99,199.58,455.86,Single-ply,SBD,M
Boys,67.13,3,Nathan Erickson,Splendora,63.14,156.49,102.06,185.97,444.52,Single-ply,SBD,M
Boys,67.13,4,Chad Currie,Coldspring-Oakhurst,67.13,174.63,106.59,158.76,439.98,Single-ply,SBD,M
Boys,67.13,5,William Mattison,Conroe Caney Creek,66.13,142.88,102.06,167.83,412.77,Single-ply,SBD,M
Boys,67.13,6,Lane Goodwin,Splendora,64.59,136.08,86.18,172.37,394.63,Single-ply,SBD,M
Boys,67.13,7,Cameron Charles,Channelview,66.68,117.93,81.65,174.63,374.21,Single-ply,SBD,M
Boys,67.13,8,Austen Gurka,Santa Fe,61.33,124.74,61.23,115.67,301.64,Single-ply,SBD,M
Boys,67.13,DQ,Tommy Nguyen,Galveston Ball,61.33,120.2,,,,Single-ply,SBD,M
Boys,74.84,1,Asa Spade,Splendora,74.3,244.94,140.61,222.26,607.81,Single-ply,SBD,M
Boys,74.84,2,Colton Boatright,Shepherd,73.57,213.19,147.42,219.99,580.6,Single-ply,SBD,M
Boys,74.84,3,Kenny Bounds,Montgomery,69.67,215.46,147.42,206.38,569.26,Single-ply,SBD,M
Boys,74.84,4,Dawson Nobriga,Channelview,73.84,201.85,142.88,204.12,548.85,Single-ply,SBD,M
Boys,74.84,5,Eddie Cross,Coldspring-Oakhurst,73.3,183.7,124.74,201.85,510.29,Single-ply,SBD,M
Boys,74.84,6,Brandon Cheves,Shepherd,72.03,188.24,106.59,183.7,478.54,Single-ply,SBD,M
Boys,74.84,7,Amado Vasquez,Santa Fe,74.84,183.7,111.13,183.7,478.54,Single-ply,SBD,M
Boys,74.84,8,Jared Hope,Livingston,74.03,165.56,95.25,206.38,467.2,Single-ply,SBD,M
Boys,74.84,9,David Fulcher,Coldspring-Oakhurst,72.57,183.7,106.59,174.63,464.93,Single-ply,SBD,M
Boys,74.84,10,Angel Navarro,Crosby,74.3,181.44,99.79,183.7,464.93,Single-ply,SBD,M
Boys,74.84,11,James Harrison #3,Shepherd,73.3,172.37,97.52,167.83,437.72,Single-ply,SBD,M
Boys,74.84,12,Kyle Palenik,Splendora,74.84,181.44,88.45,165.56,435.45,Single-ply,SBD,M
Boys,74.84,13,Devin Kelley,Huffman Hargrave,74.39,172.37,102.06,156.49,430.91,Single-ply,SBD,M
Boys,74.84,14,Kaylen Manzi,Huffman Hargrave,74.84,154.22,102.06,174.63,430.91,Single-ply,SBD,M
Boys,74.84,15,Zach Jenkins,Shepherd,68.04,167.83,83.91,167.83,419.57,Single-ply,SBD,M
Boys,74.84,16,Laveal Gibson,Channelview,70.76,158.76,99.79,158.76,417.3,Single-ply,SBD,M
Boys,74.84,17,Cameron Carson,Shepherd,71.85,142.88,90.72,154.22,387.82,Single-ply,SBD,M
Boys,74.84,18,Quinlan Scott,New Caney Porter,74.84,147.42,86.18,145.15,378.75,Single-ply,SBD,M
Boys,74.84,19,Craig Marine,Livingston,72.57,147.42,77.11,145.15,369.68,Single-ply,SBD,M
Boys,74.84,DQ,John Eccles,Huffman Hargrave,74.39,,,,,Single-ply,SBD,M
Boys,74.84,DQ,Taylor Lipsey,Montgomery,69.67,124.74,102.06,,,Single-ply,SBD,M
Boys,82.1,1,Michael Morris #2,Splendora,75.57,199.58,129.27,217.72,546.58,Single-ply,SBD,M
Boys,82.1,2,Donovan Leach,Splendora,79.83,181.44,131.54,199.58,512.56,Single-ply,SBD,M
Boys,82.1,3,Alejandro Cortina,Channelview,81.83,197.31,95.25,195.04,487.61,Single-ply,SBD,M
Boys,82.1,4,Colton Canada,Montgomery,78.93,183.7,115.67,185.97,485.34,Single-ply,SBD,M
Boys,82.1,5,Danny Garcia,New Caney,78.56,181.44,99.79,183.7,464.93,Single-ply,SBD,M
Boys,82.1,6,Riley Orn,Coldspring-Oakhurst,82.1,174.63,106.59,170.1,451.32,Single-ply,SBD,M
Boys,82.1,7,Sam Jones #3,New Caney,80.29,161.03,104.33,174.63,439.98,Single-ply,SBD,M
Boys,82.1,8,Jesus Valdez,Conroe Caney Creek,81.37,138.35,104.33,188.24,430.91,Single-ply,SBD,M
Boys,82.1,9,Cohl Cruz,Conroe Oak Ridge,82.1,145.15,108.86,176.9,430.91,Single-ply,SBD,M
Boys,82.1,10,Carlos Norman,New Caney Porter,81.92,147.42,97.52,183.7,428.64,Single-ply,SBD,M
Boys,82.1,11,Devin Higgins,Huffman Hargrave,79.92,149.69,102.06,170.1,421.84,Single-ply,SBD,M
Boys,82.1,12,Michael Espitia,New Caney Porter,81.56,147.42,90.72,147.42,385.55,Single-ply,SBD,M
Boys,82.1,13,Ethan Robins,Conroe Caney Creek,82.1,147.42,63.5,149.69,360.61,Single-ply,SBD,M
Boys,82.1,14,Nick Taylor,Huffman Hargrave,80.74,138.35,79.38,140.61,358.34,Single-ply,SBD,M
Boys,82.1,DQ,Jonathan Salcido,Shepherd,79.47,,,,,Single-ply,SBD,M
Boys,89.81,1,Dylan Bates,Conroe Oak Ridge,87.72,267.62,161.03,263.08,691.73,Single-ply,SBD,M
Boys,89.81,2,Sterling Winzor,Beaumont Ozen,83.73,208.65,131.54,235.87,576.06,Single-ply,SBD,M
Boys,89.81,3,Gary Carter,Crosby,85.46,208.65,120.2,226.8,555.65,Single-ply,SBD,M
Boys,89.81,4,Brent Patton,Conroe Caney Creek,89.81,224.53,124.74,183.7,532.97,Single-ply,SBD,M
Boys,89.81,5,Ethan Benestante,Coldspring-Oakhurst,89.81,190.51,127.01,206.38,523.9,Single-ply,SBD,M
Boys,89.81,6,Bobby Burke,Shepherd,82.55,197.31,140.61,170.1,508.02,Single-ply,SBD,M
Boys,89.81,7,Jonathan Dullen,New Caney Porter,83.1,195.04,111.13,183.7,489.88,Single-ply,SBD,M
Boys,89.81,8,Seth Nance,Galveston Ball,83.28,183.7,115.67,190.51,489.88,Single-ply,SBD,M
Boys,89.81,9,Will Broussard,Livingston,85.18,192.78,92.99,204.12,489.88,Single-ply,SBD,M
Boys,89.81,10,Colton Maxey,Crosby,87.82,181.44,115.67,192.78,489.88,Single-ply,SBD,M
Boys,89.81,11,Taylor Johnson #3,Huffman Hargrave,89.18,179.17,122.47,188.24,489.88,Single-ply,SBD,M
Boys,89.81,12,John Blaker,Montgomery,86.73,183.7,111.13,190.51,485.34,Single-ply,SBD,M
Boys,89.81,13,Michael McVay,Santa Fe,89.27,174.63,111.13,181.44,467.2,Single-ply,SBD,M
Boys,89.81,14,Kane Placker,Livingston,83.46,174.63,102.06,183.7,460.4,Single-ply,SBD,M
Boys,89.81,15,Gage Slaughter,Santa Fe,88.81,165.56,102.06,181.44,449.06,Single-ply,SBD,M
Boys,89.81,16,Deryck Villareal,Huffman Hargrave,84.64,161.03,95.25,149.69,405.97,Single-ply,SBD,M
Boys,89.81,17,DeAndre Kindred,Conroe Oak Ridge,89.18,145.15,74.84,145.15,365.14,Single-ply,SBD,M
Boys,89.81,DQ,Eduardo Maury,Beaumont Ozen,86.18,,,,,Single-ply,SBD,M
Boys,99.79,1,Joe Thomas,Beaumont Ozen,98.88,272.16,124.74,272.16,669.05,Single-ply,SBD,M
Boys,99.79,2,Kallen Miller,Montgomery,99.43,238.14,136.08,247.21,621.42,Single-ply,SBD,M
Boys,99.79,3,Christian Reza,Beaumont Ozen,97.98,235.87,133.81,226.8,596.47,Single-ply,SBD,M
Boys,99.79,4,Brandon Mckean,Conroe Caney Creek,99.79,235.87,129.27,231.33,596.47,Single-ply,SBD,M
Boys,99.79,5,Tyler Shirey,Shepherd,91.99,226.8,154.22,199.58,580.6,Single-ply,SBD,M
Boys,99.79,6,Michael Taylor #2,Splendora,98.16,192.78,136.08,226.8,555.65,Single-ply,SBD,M
Boys,99.79,7,Brandon Diaz,Crosby,95.89,192.78,124.74,226.8,544.31,Single-ply,SBD,M
Boys,99.79,8,Caleb Richardson,New Caney,92.9,204.12,113.4,213.19,530.7,Single-ply,SBD,M
Boys,99.79,9,Gildardo Bernal,Channelview,99.34,215.46,117.93,197.31,530.7,Single-ply,SBD,M
Boys,99.79,10,Chance Hodgkinson,New Caney Porter,99.06,219.99,124.74,167.83,512.56,Single-ply,SBD,M
Boys,99.79,11,Travis Hyman,Crosby,90.36,183.7,120.2,197.31,501.22,Single-ply,SBD,M
Boys,99.79,12,David Alsip,Conroe Caney Creek,92.08,195.04,106.59,195.04,496.68,Single-ply,SBD,M
Boys,99.79,13,Camron Easley,New Caney Porter,97.07,158.76,113.4,181.44,453.59,Single-ply,SBD,M
Boys,99.79,14,Noah Young #2,Huffman Hargrave,99.43,163.29,111.13,176.9,451.32,Single-ply,SBD,M
Boys,99.79,15,Dylan Amigliore,New Caney,95.62,158.76,106.59,154.22,419.57,Single-ply,SBD,M
Boys,99.79,16,Zyon Bell,New Caney Porter,93.44,154.22,99.79,127.01,381.02,Single-ply,SBD,M
Boys,99.79,17,Beau McCrary,Huffman Hargrave,91.53,140.61,83.91,154.22,378.75,Single-ply,SBD,M
Boys,109.77,1,Gavin Franklin,Conroe Oak Ridge,109.59,249.48,172.37,265.35,687.19,Single-ply,SBD,M
Boys,109.77,2,Hunter Grimmett,Montgomery,105.96,231.33,158.76,233.6,623.69,Single-ply,SBD,M
Boys,109.77,3,Tyler Ray,Santa Fe,106.68,238.14,120.2,224.53,582.87,Single-ply,SBD,M
Boys,109.77,4,Nathaniel Sandoval,Conroe Caney Creek,109.41,233.6,136.08,213.19,582.87,Single-ply,SBD,M
Boys,109.77,5,Roberto Varvelo,Channelview,102.6,204.12,104.33,208.65,517.1,Single-ply,SBD,M
Boys,109.77,6,Anthony Richard,Santa Fe,105.78,206.38,92.99,165.56,464.93,Single-ply,SBD,M
Boys,109.77,7,Tristin Spoerle,Conroe Oak Ridge,101.6,195.04,90.72,167.83,453.59,Single-ply,SBD,M
Boys,109.77,8,Luke Sterling,Crosby,101.88,181.44,115.67,151.95,449.06,Single-ply,SBD,M
Boys,109.77,9,Neearrius Withers,Beaumont Ozen,106.68,158.76,117.93,172.37,449.06,Single-ply,SBD,M
Boys,109.77,10,Mario Maldonado,Splendora,109.68,136.08,115.67,179.17,430.91,Single-ply,SBD,M
Boys,109.77,11,Patrick Charbonneau,Crosby,100.33,136.08,106.59,181.44,424.11,Single-ply,SBD,M
Boys,109.77,12,Zach Gray,Huffman Hargrave,108.95,151.95,86.18,165.56,403.7,Single-ply,SBD,M
Boys,109.77,13,Everardo Avalos,Splendora,102.69,111.13,74.84,136.08,322.05,Single-ply,SBD,M
Boys,109.77,DQ,Seth Mericle,Splendora,108.14,208.65,161.03,,,Single-ply,SBD,M
Boys,109.77,DQ,Jamar Hamilton,Crosby,103.87,170.1,,,,Single-ply,SBD,M
Boys,124.74,1,Marcus Garza,Conroe Caney Creek,111.58,276.69,151.95,231.33,659.98,Single-ply,SBD,M
Boys,124.74,2,Max Cerino,Channelview,120.66,219.99,136.08,238.14,594.21,Single-ply,SBD,M
Boys,124.74,3,Elias Garcia,New Caney,111.77,231.33,142.88,190.51,564.72,Single-ply,SBD,M
Boys,124.74,4,Caleb Johnson #7,New Caney Porter,115.48,226.8,140.61,197.31,564.72,Single-ply,SBD,M
Boys,124.74,5,Manvel Alamanza,New Caney,117.21,219.99,124.74,204.12,548.85,Single-ply,SBD,M
Boys,124.74,6,JD Williams,Montgomery,121.29,208.65,120.2,206.38,535.24,Single-ply,SBD,M
Boys,124.74,7,Ryan Johnson #18,Montgomery,116.57,181.44,136.08,188.24,505.76,Single-ply,SBD,M
Boys,124.74,8,Sean Dillon,Galveston Ball,117.03,199.58,117.93,188.24,505.76,Single-ply,SBD,M
Boys,124.74,9,Jacob Carroll,New Caney,115.39,183.7,127.01,183.7,494.42,Single-ply,SBD,M
Boys,124.74,10,Cruz Barcenas,Huffman Hargrave,120.2,170.1,120.2,204.12,494.42,Single-ply,SBD,M
Boys,124.74,11,Dylan Poindexter,New Caney,116.75,183.7,136.08,158.76,478.54,Single-ply,SBD,M
Boys,124.74,12,Jose Silva,Channelview,115.39,176.9,113.4,181.44,471.74,Single-ply,SBD,M
Boys,124.74,13,Byron Henderson Jr,Channelview,112.13,167.83,117.93,183.7,469.47,Single-ply,SBD,M
Boys,124.74,14,Kenneth Armstrong,Crosby,118.93,170.1,102.06,192.78,464.93,Single-ply,SBD,M
Boys,124.74,15,Cameron Barr,Conroe Caney Creek,112.76,147.42,90.72,145.15,383.29,Single-ply,SBD,M
Boys,124.74,DQ,Chuck Umevgokowe,New Caney,117.57,231.33,142.88,,,Single-ply,SBD,M
Boys,124.74,DQ,CJ Knighton,Livingston,119.2,219.99,88.45,,,Single-ply,SBD,M
Boys,124.74+,1,Quinlan Beck,Shepherd,143.56,299.37,174.63,224.53,698.53,Single-ply,SBD,M
Boys,124.74+,2,Terry Carter,Livingston,153.59,272.16,142.88,272.16,687.19,Single-ply,SBD,M
Boys,124.74+,3,Brent Holmes,Conroe Caney Creek,132.9,285.76,142.88,231.33,659.98,Single-ply,SBD,M
Boys,124.74+,4,Zach Taylor #3,Shepherd,133.9,276.69,154.22,206.38,637.3,Single-ply,SBD,M
Boys,124.74+,5,Jerome Harmon,Beaumont Ozen,126.64,204.12,113.4,217.72,535.24,Single-ply,SBD,M
Boys,124.74+,6,Casy Duhon,Conroe Oak Ridge,131.09,215.46,111.13,183.7,510.29,Single-ply,SBD,M
Boys,124.74+,7,Junah Arimond,Conroe Oak Ridge,125.65,158.76,113.4,215.46,487.61,Single-ply,SBD,M
Boys,124.74+,8,Flores Michael,Conroe Caney Creek,125.19,129.27,70.31,129.27,328.85,Single-ply,SBD,M
Boys,124.74+,DQ,Kase Lackey,Santa Fe,132.81,219.99,,,,Single-ply,SBD,M
Boys,124.74+,DQ,Ben Buruca,New Caney,130.91,,,,,Single-ply,SBD,M
Boys,,NS,Claude Conner,Beaumont Ozen,,,,,,Single-ply,SBD,M
Boys,,NS,Markel Perry,Beaumont Ozen,,,,,,Single-ply,SBD,M
Boys,,NS,Ryan LaGarce,Conroe Oak Ridge,,,,,,Single-ply,SBD,M
Boys,,NS,Morgan Garcia #1,Livingston,,,,,,Single-ply,SBD,M
Boys,,NS,Billy Dobbins,Livingston,,,,,,Single-ply,SBD,M
Boys,,NS,Andrew Rhodes,Livingston,,,,,,Single-ply,SBD,M
Boys,,NS,Josea Eustupinan,Beaumont Ozen,,,,,,Single-ply,SBD,M
Boys,,NS,Derek Smith,Beaumont Ozen,,,,,,Single-ply,SBD,M
Boys,,NS,Bernard Childs,Channelview,,,,,,Single-ply,SBD,M
Boys,,NS,Jessy Yanez,Channelview,,,,,,Single-ply,SBD,M
Boys,,NS,Gus Davis,Huffman Hargrave,,,,,,Single-ply,SBD,M
Boys,,NS,Trevon Hithens,New Caney Porter,,,,,,Single-ply,SBD,M
Boys,,NS,Jeremy Soriano,New Caney Porter,,,,,,Single-ply,SBD,M
Boys,,NS,Cameron Providence,New Caney Porter,,,,,,Single-ply,SBD,M
Boys,,NS,Alex Palacios,Conroe Caney Creek,,,,,,Single-ply,SBD,M
Boys,,NS,Malik Griffin,Crosby,,,,,,Single-ply,SBD,M
Boys,,NS,Christian Solis,Crosby,,,,,,Single-ply,SBD,M
Boys,,NS,Luis Perez,Santa Fe,,,,,,Single-ply,SBD,M
Boys,,NS,Keagan Wilson,Huffman Hargrave,,,,,,Single-ply,SBD,M
Boys,,NS,Nathan Gruver,Huffman Hargrave,,,,,,Single-ply,SBD,M
