Name,BirthYear,BodyweightKg,WeightClassKg,Country,Squat1Kg,Squat2Kg,Squat3Kg,Best3SquatKg,Bench1Kg,Bench2Kg,Bench3Kg,Best3BenchKg,Deadlift1Kg,Deadlift2Kg,Deadlift3Kg,Best3DeadliftKg,TotalKg,Division,Sex,Equipment,Event,BirthDate,Place,Squat4Kg,Bench4Kg,Deadlift4Kg
Anasztázia Rácz,2007,59.4,60,Hungary,95,105,115,115,55,60,-65,60,140,150,152.5,152.5,327.5,T2,F,Wraps,SBD,,1,,,
Nikol Lenghartová,2006,83.5,90,Slovakia,140,-150,150,150,-80,80,-82.5,80,145,155,170,170,400,T3,F,Wraps,SBD,,1,,,
Pavlína Chovancová,2005,74.8,75,Slovakia,130,142.5,-145,142.5,75,80,-82.5,80,130,142.5,145,145,367.5,T3,F,Wraps,SBD,,1,,,
Lilien Pacova,2006,59,60,Slovakia,120,130,-135,130,55,-60,,55,100,115,-127.5,115,300,T3,F,Wraps,SBD,,1,,,
Emilia Bryńczak,2010,50.5,52,Poland,90,-100,-105,90,45,50,-52.5,50,90,102.5,110,110,250,T1,F,Wraps,SBD,,1,,,
Daniela Almendra,2007,67.5,67.5,Portugal,-97.5,97.5,110,110,45,52.5,55,55,117.5,132.5,135,135,300,T2,F,Sleeves,SBD,,1,,,
Vendula Kuxová,2005,57.7,60,Czechia,90,100,-107.5,100,50,55,-57.5,55,100,107.5,-115,107.5,262.5,T3,F,Wraps,SBD,,2,,,
Lilla Adamik,2009,42,44,Hungary,40,50,55,55,25,-30,-30,25,80,90,-100,90,170,T1,F,Wraps,SBD,,1,,,
Inka Arhenius,2008,87.1,90,Finland,115,125,135,135,55,62.5,66,66,115,125,135,135,336,T1,F,Wraps,SBD,,1,141,,
Simona Vokounová,2004,65.2,67.5,Czechia,100,110,115,115,45,55,-57.5,55,95,107.5,115,115,285,T3,F,Wraps,SBD,,1,,,
Agáta Čechová,2005,72.4,75,Czechia,100,115,-122.5,115,45,-50,-50,45,120,130,-140,130,290,T3,F,Wraps,SBD,,2,,,
Kristína Hasáková,2010,55.8,56,Slovakia,85,90,-95,90,45,50,-55,50,75,82.5,90,90,230,T1,F,Wraps,SBD,,1,,,
Sofia Jarošová,2008,59.5,60,Slovakia,80,87.5,90,90,35,40,-42.5,40,82.5,87.5,92.5,92.5,222.5,T2,F,Wraps,SBD,,2,,,
Ana Laura Bedin,2006,58.4,60,Brazil,-100,100,-125,100,-45,-50,-50,,,,,,,T3,F,Wraps,SBD,,DQ,,,
Lenka Rudločáková,2003,65.1,67.5,Slovakia,-140,150,165,165,57.5,65,70,70,140,155,167.5,167.5,402.5,J,F,Wraps,SBD,,1,,,
Mónika Dancsó,2004,59,60,Hungary,130,140,-145,140,60,65,70,70,145,152.5,-157.5,152.5,362.5,J,F,Wraps,SBD,,1,,,
Hana Matějková,2003,59.6,60,Czechia,120,132.5,140,140,50,57.5,-60,57.5,120,130,140,140,337.5,J,F,Wraps,SBD,,2,,,
Laura Tomai,2003,54.5,56,Hungary,115,122.5,-127.5,122.5,50,52.5,55,55,120,130,-135,130,307.5,J,F,Wraps,SBD,,1,,,
Ester Horňák,2001,81.7,82.5,Slovakia,145,155,162.5,162.5,77.5,-82.5,-82.5,77.5,150,-160,-162.5,150,390,J,F,Wraps,SBD,,1,,,
Luca Garami,2000,69.5,75,Hungary,-120,120,130,130,55,60,65,65,140,150,155,155,350,J,F,Wraps,SBD,,1,,,
Nina Baniarová,2004,55,56,Slovakia,110,120,-130,120,40,45,-50,45,110,120,-130,120,285,J,F,Wraps,SBD,,2,,,
Vitoria de Oliveria dos Santos,2001,60,60,UK,127.5,-132.5,132.5,132.5,45,52.5,-55,52.5,125,-130,,125,310,J,F,Wraps,SBD,,3,,,
Tereza Šimková,2004,92.6,110,Czechia,90,100,-110,100,50,55,-60,55,140,-150,-150,140,295,J,F,Wraps,SBD,,1,,,
Mariša Golob,1990,55.6,56,Slovenia,160,170,175,175,100,-105,-105,100,180,191,-195,191,466,O,F,Wraps,SBD,,1,,,
Andrea Gregorová,1999,73,75,Slovakia,-200,215,225,225,92.5,102.5,110,110,195,217.5,-225,217.5,552.5,O,F,Wraps,SBD,,1,,,
Beatriz Azevedo #1,2000,54.2,56,Portugal,140,145,-147.5,145,82.5,-87.5,-87.5,82.5,150,162.5,172.5,172.5,400,O,F,Sleeves,SBD,,2,,,
Marija Gajevskaja,1998,66,67.5,Czechia,155,165,172.5,172.5,90,97.5,-100,97.5,175,190,-205,190,460,O,F,Wraps,SBD,,1,,,
Marie Tomečková,1998,95.5,110,Czechia,195,210,220,220,95,105,-110,105,210,225,-230,225,550,O,F,Wraps,SBD,,1,,,
Andrade Leticia Matioli,1991,59.5,60,Brazil,140,-152.5,-152.5,140,70,-75,75,75,165,177.5,190,190,405,O,F,Wraps,SBD,,1,,,
Ana Vasconcelos,1991,59.7,60,Portugal,147.5,155,-160,155,72.5,77.5,-80,77.5,155,165,172.5,172.5,405,O,F,Wraps,SBD,,2,,,
Liza Kovács,1996,59,60,Hungary,120,127.5,132.5,132.5,60,67.5,72.5,72.5,130,140,145,145,350,O,F,Wraps,SBD,,3,,,
Justina Kozlovskaja,1986,69.3,75,Latvia,130,140,145,145,75,80,-85,80,-155,155,,155,380,O,F,Wraps,SBD,,2,,,
Beatriz Dias,1999,66.2,67.5,Portugal,125,135,-142.5,135,65,72.5,-77.5,72.5,130,140,147.5,147.5,355,O,F,Wraps,SBD,,2,,,
Teresa Saiote,1986,59.3,60,Portugal,117.5,-125,-127.5,117.5,62.5,65,67.5,67.5,-125,130,140,140,325,O,F,Wraps,SBD,,4,,,
Fanni Tóth,1999,56.8,60,Hungary,100,110,-112.5,110,57.5,62.5,-65,62.5,110,120,127.5,127.5,300,O,F,Wraps,SBD,,5,,,
Marialucia Notario,1999,74.3,75,Portugal,120,130,-140,130,60,-65,-65,60,140,150,-160,150,340,O,F,Wraps,SBD,,3,,,
Emilija Zailac,1992,103,110,Croatia,140,152.5,160,160,65,70,-75,70,135,150,160,160,390,O,F,Wraps,SBD,,2,,,
Phoebe McQueen,1999,98.9,110,UK,110,-115,120,120,57.5,62.5,-70,62.5,120,127.5,137.5,137.5,320,O,F,Wraps,SBD,,3,,,
Márcia Reis,1996,107.4,110,Portugal,105,110,115,115,45,47.5,50,50,120,135,-140,135,300,O,F,Sleeves,SBD,,4,,,
Emily Parkinson,2000,133,110+,UK,130,135,-142.5,135,72.5,80,-82.5,80,135,-140,-140,135,350,O,F,Wraps,SBD,,1,,,
Christine Henwood,1958,74.2,75,New Zealand,155,160,165,165,85,-90,90,90,182.5,192.5,-197.5,192.5,447.5,M6,F,Wraps,SBD,,1,,-95,
Annjanette Saunders,1969,68.5,75,UK,160,172.5,-182.5,172.5,85,92.5,97.5,97.5,175,190,200,200,470,M3,F,Wraps,SBD,,1,,,-211
Nataly Barbosa,1971,66.7,67.5,South Africa,165,-175,-182.5,165,92.5,100,-102.5,100,180,192.5,200,200,465,M3,F,Wraps,SBD,,1,-182.5,,205
Alison Andric,1966,66.7,67.5,Australia,-130,135,-140,135,80,85.5,90,90,165.5,175,-180,175,400,M4,F,Wraps,SBD,,1,,,180
Lesley Jayne Thomas,1966,66.8,67.5,UK,135,142.5,-150,142.5,70,72.5,-75,72.5,150,157.5,162.5,162.5,377.5,M4,F,Wraps,SBD,,2,,,
Eleteia Bueno De Oliveira,1975,96.7,110,Brazil,180,190,-200,190,85,95,-100,95,-230,230,-235,230,515,M2,F,Wraps,SBD,,1,,,
Pimenta Cristina Oliveira,1980,79.8,82.5,Brazil,190,205,215,215,92.5,102.5,105,105,170,180,-190,180,500,M1,F,Wraps,SBD,,1,,,
Ana Catia Portilho Couto,1966,71.6,75,Brazil,120,-130,130,130,87.5,-92.5,-92.5,87.5,155,165,-172.5,165,382.5,M4,F,Wraps,SBD,,1,,,
Henrietta Tuba,1975,67.1,67.5,Hungary,120,125,130,130,90,95,97.5,97.5,155,165,-180,165,392.5,M2,F,Wraps,SBD,,1,,,
Irina Pomerantsev,1970,43.5,44,Israel,60,65,-67.5,65,57.5,-60,60,60,80,85,90,90,215,M3,F,Wraps,SBD,,1,,,
Brenda Fitzgerald,1981,94.7,110,Ireland,165,175,-185,175,70,77.5,-82.5,77.5,175,-185,-192.5,175,427.5,M1,F,Wraps,SBD,,1,,,
Sónia Ricardo,1981,70.5,75,Portugal,-125,125,130,130,60,-62.5,62.5,62.5,140,145,-150,145,337.5,M1,F,Sleeves,SBD,,2,,,
Vanessa Wadsworth,1967,99,110,Australia,-100,100,110,110,57.5,60,-62.5,60,135,150.5,-155,150.5,320.5,M4,F,Wraps,SBD,,1,,,
Hannah Webb-Cameron,1983,95.2,110,New Zealand,125,132.5,142.5,142.5,92.5,97.5,-101,97.5,150,-160,,150,390,M1,F,Wraps,SBD,,2,,,
Barbara Petiz,1984,73.4,75,Portugal,115,125,132.5,132.5,67.5,-75,-75,67.5,125,135,145,145,345,M1,F,Wraps,SBD,,1,,,
Georgina Payne,1970,57.3,60,UK,70,77.5,-82.5,77.5,42.5,47.5,-50,47.5,100,105,107.5,107.5,232.5,M3,F,Wraps,SBD,,1,,,
Dalia Houlden,1973,75.2,82.5,UK,-100,100,-110,100,50,52.5,-55,52.5,115,122.5,130,130,282.5,M3,F,Wraps,SBD,,1,,,
Raquel Elana Maia De Oliveira,1972,114.1,110+,Brazil,-110,-110,110,110,50,55,-60,55,140,155,160,160,325,M3,F,Wraps,SBD,,1,,,
Seres Marianna Ráczné,1980,62.3,67.5,Hungary,80,90,100,100,40,-45,47.5,47.5,120,125,130,130,277.5,M1,F,Wraps,SBD,,1,,,
Klaudia Tanczos,1973,75.9,82.5,Slovakia,92.5,97.5,102.5,102.5,-45,-45,45,45,105,112.5,117.5,117.5,265,M3,F,Wraps,SBD,,2,,,
Carmel Collins,1966,128.1,110+,UK,90,105,110,110,55,60,-65,60,100,110,120,120,290,M4,F,Wraps,SBD,,1,,,
Jana Janoušková,1960,58.9,60,Czechia,30,40,-45,40,30,35,-37.5,35,75,80,85,85,160,M5,F,Wraps,SBD,,1,,,
Bryńczak Anita Grądzka,1984,45.1,48,Poland,-90,-95,-95,,,,,,,,,,,M1,F,Wraps,SBD,,DQ,,,
Michal Svoboda,2004,89.6,90,Czechia,275,-300,-300,275,135,142.5,-150,142.5,290,305,312.5,312.5,730,T3,M,Wraps,SBD,,1,,,
Justin Sutherland,2005,66.1,67.5,Scotland,190,200,-205,200,110,117.5,-120,117.5,210,225,-231,225,542.5,T3,M,Wraps,SBD,,1,,,
Vojtěch Svoboda,2005,61.5,67.5,Czechia,165,-180,185,185,95,-100,-100,95,190,210,-220,210,490,T3,M,Wraps,SBD,,3,,,
Samuel Kubík,2006,65.3,67.5,Slovakia,145,-150,155,155,100,107.5,112.5,112.5,190,210,220,220,487.5,T3,M,Wraps,SBD,,4,,,
Henrique Roselho,2008,65,67.5,Portugal,170,175,-177.5,175,95,-100,,95,210,-230,-230,210,480,T2,M,Sleeves,SBD,,2,,,
Bence József Csóka,2007,62.5,67.5,Hungary,150,160,-165,160,100,-110,110,110,170,180,-187.5,180,450,T2,M,Wraps,SBD,,3,,,
Nikolas Pastier,2004,89.5,90,Slovakia,220,235,-245,235,130,140,-150,140,230,240,250,250,625,T3,M,Wraps,SBD,,4,,,
Samuel Mihálka,,121.9,125,Slovakia,260,280,-300,280,140,152.5,-165.5,152.5,225,250,267.5,267.5,700,T2,M,Wraps,SBD,,1,,-165.5,
Zoltán Haga,2006,64.8,67.5,Hungary,150,160,-167.5,160,90,100,105,105,175,185,195,195,460,T3,M,Wraps,SBD,,2,,,
André Pereira,2004,67,67.5,Portugal,155,-170,170,170,100,110,-112.5,110,180,195,-205,195,475,T3,M,Sleeves,SBD,,5,,,
Saul Cardoso,2005,82,82.5,Portugal,180,190,-205,190,120,125,-130,125,220,240,-260,240,555,T3,M,Wraps,SBD,,1,,,
József Tibor Kozma,2005,98.3,100,Hungary,245,-262.5,-270,245,120,130,135,135,235,-250,-250,235,615,T3,M,Wraps,SBD,,2,,,
Máté Hegedűs,2005,98.1,100,Hungary,200,215,230,230,107.5,115,-122.5,115,220,235,242.5,242.5,587.5,T3,M,Wraps,SBD,,1,,,
Benjámin Farkas,2005,88,90,Hungary,185,200,-205,200,120,-125,125,125,200,207.5,215,215,540,T3,M,Wraps,SBD,,2,,,
Jozef Suchánek,2006,72.4,75,Slovakia,130,135,-145,135,95,-102.5,-102.5,95,-200,200,212.5,212.5,442.5,T3,M,Wraps,SBD,,1,,,
Bence Takács,2008,84.8,90,Hungary,-180,190,200,200,90,100,-105,100,180,200,-210,200,500,T1,M,Wraps,SBD,,1,,,
Truong An Vu,2004,89.4,90,Czechia,180,200,-222.5,200,105,115,117.5,117.5,180,200,-205,200,517.5,T3,M,Wraps,SBD,,3,,,
Zsolt Viktór Szabó,2007,116.2,125,Hungary,200,212.5,-217.5,212.5,140,-145,-145,140,210,217.5,225,225,577.5,T2,M,Wraps,SBD,,2,,,
Liam Backhurst,2008,65.6,67.5,UK,120,130,135,135,90,-95,-95,90,140,150,160,160,385,T2,M,Wraps,SBD,,1,,,
Vojtěch Kocourek,2004,76.5,82.5,Czechia,-160,165,-175,165,85,90,-92.5,90,160,175,185,185,440,T3,M,Wraps,SBD,,2,,,
Richard Benko,2009,55.5,56,Slovakia,90,97.5,107.5,107.5,55,-62.5,-70,55,100,117.5,127.5,127.5,290,T1,M,Wraps,SBD,,1,-112.5,-70,-140.5
Illés Rácz,2009,65.5,67.5,Hungary,100,110,125,125,75,80,-85,80,145,155,160,160,365,T1,M,Wraps,SBD,,1,,,
Denis Chovanec,2010,72.9,75,Slovakia,110,135,-160,135,90,-100,100,100,142.5,155,165,165,400,T1,M,Wraps,SBD,,1,,,
Ján Christopher Kónya,2009,75.2,82.5,Slovakia,120,130,140,140,70,80,90,90,150,170,180,180,410,T1,M,Wraps,SBD,,2,151,,
Lukáš Lhoták,2005,73.6,75,Czechia,140,-160,-170,140,80,-90,-90,80,150,-170,-185,150,370,T3,M,Wraps,SBD,,2,,,
Bertalan Kaliba,2008,97.2,100,Hungary,170,,,170,95,,,95,160,172.5,,172.5,437.5,T2,M,Wraps,SBD,,1,,,
Tobias Majstrák,2009,76.6,82.5,Slovakia,100,115,120,120,70,80,-90,80,110,125,140,140,340,T1,M,Wraps,SBD,,1,,,
Olivér Takács,2006,94.2,100,Hungary,60,80,100,100,85,-92.5,-92.5,85,180,195,-202.5,195,380,T3,M,Wraps,SBD,,3,,,
Vojtěch Štegner,2006,74.8,75,Czechia,-212.5,-212.5,-212.5,,,,,,,,,,,T3,M,Wraps,SBD,,DQ,,,
Dávid Košč,2006,103.9,110,Slovakia,200,-205,-205,200,-155,-155,-155,,,,,,,T3,M,Wraps,SBD,,DQ,,,
Ladislav Paliesek,2006,108.4,110,Slovakia,215,-225,,215,-130,-140,-140,,,,,,,T2,M,Wraps,SBD,,DQ,,,
Tomáš Komjaty,2001,162.3,140+,Slovakia,-350,375,400,400,215,230,240,240,-315,340,-360,340,980,J,M,Wraps,SBD,,1,,,
George Kolar,2000,127.1,140,UK,350,-385,385,385,190,205,217.5,217.5,310,330,-340,330,932.5,J,M,Wraps,SBD,,1,,,
Andrew Martin #1,2002,108.2,110,UK,285,302.5,307.5,307.5,210,220,-225,220,-305,305,-320,305,832.5,J,M,Wraps,SBD,,1,,,
Dominik Lipták,2001,117.5,125,Hungary,255,270,275,275,185,197.5,-200,197.5,305,325,330,330,802.5,J,M,Wraps,SBD,,1,,,
Viktor Strážnický,2003,108.1,110,Czechia,250,-265,270,270,180,190,-200,190,-300,305,315,315,775,J,M,Wraps,SBD,,2,,,
Otávio Augusto Nascimento Costa,2002,99.9,100,Brazil,265,285,-300,285,150,155,160,160,270,290,300,300,745,J,M,Wraps,SBD,,1,,,
Pavel Mynařík,2002,88.3,90,Czechia,250,270,-280,270,120,130,135,135,250,270,285,285,690,J,M,Wraps,SBD,,1,,,
Petr Gerberg,2004,88.3,90,Czechia,230,250,265,265,125,140,150,150,230,250,-260,250,665,J,M,Wraps,SBD,,2,,,
Kiril Karlík,2003,79,82.5,Slovakia,200,212.5,-217.5,212.5,110,117.5,-130,117.5,260,270,-280,270,600,J,M,Wraps,SBD,,2,,,
Vitor Coelho,2002,74.2,75,Portugal,190,210,220,220,137.5,-145,-145,137.5,190,207.5,-215,207.5,565,J,M,Sleeves,SBD,,1,,,
Petr Sadílek,2002,84.4,90,Czechia,-215,215,225,225,120,130,135,135,250,270,-280,270,630,J,M,Wraps,SBD,,4,,,
Nikolaj Lapihuska,2001,87.4,90,Slovakia,200,-220,220,220,135,142.5,150,150,240,260,270,270,640,J,M,Wraps,SBD,,3,,,
Jose Riscado,2000,81.1,82.5,Portugal,190,200,212.5,212.5,132.5,142.5,150,150,215,232.5,242.5,242.5,605,J,M,Sleeves,SBD,,1,,,
Ákos Keppler,2002,81.1,82.5,Hungary,230,240,247.5,247.5,122.5,127.5,-130,127.5,220,-230,-235,220,595,J,M,Wraps,SBD,,3,,,
Szymon Skrudlik,2001,70.8,75,Poland,200,-215,-220,200,100,110,-120,110,200,210,-215,210,520,J,M,Wraps,SBD,,2,,,
László Baji,2001,104.1,110,Hungary,-250,250,-265,250,140,155,-165,155,260,270,-280,270,675,J,M,Wraps,SBD,,3,,,
Alex Horácsek,2001,89.7,90,Slovakia,200,220,-240,220,150,-155,-160,150,230,255,-265,255,625,J,M,Wraps,SBD,,5,,,
Pavel Janíček,2002,81.2,82.5,Czechia,190,210,230,230,140,150,-160,150,180,190,200,200,580,J,M,Wraps,SBD,,4,,,
Tamás Benedek Lóczi,2001,81.9,82.5,Hungary,195,205,212.5,212.5,115,122.5,127.5,127.5,202.5,215,225,225,565,J,M,Wraps,SBD,,5,,,
Petr Matěna,2001,128.9,140,Czechia,250,265,275,275,132.5,140,145,145,250,265,-280,265,685,J,M,Wraps,SBD,,2,,,
Stanisław Ligas,2001,122.5,125,Poland,250,270,-290,270,145,155,-165,155,-250,250,-260,250,675,J,M,Wraps,SBD,,2,,,
Ondřej Šťastný,2002,112.9,125,Czechia,225,-235,-235,225,165,-180,-180,165,270,-285,-290,270,660,J,M,Wraps,SBD,,3,,,
Ferenc Márk Mata,2001,89.5,90,Hungary,175,190,200,200,160,170,175,175,200,-215,215,215,590,J,M,Wraps,SBD,,6,,,
Patrik Kosmál,2002,109.2,110,Slovakia,220,232.5,240,240,150,-157.5,-157.5,150,230,240,-250,240,630,J,M,Wraps,SBD,,4,,,
Robert Antol,2001,100.7,110,Slovakia,192.5,205,-210,205,125,135,-140,135,240,260,270,270,610,J,M,Wraps,SBD,,5,,,
Miklós Bence Bartha,2003,98.2,100,Hungary,-215,215,-225,215,120,125,-127.5,125,225,240,260,260,600,J,M,Wraps,SBD,,2,,,
Lewis Satherley,2003,81.3,82.5,UK,170,-185,-185,170,110,117.5,-125,117.5,220,232.5,-240,232.5,520,J,M,Wraps,SBD,,6,,,
Jack Graham #2,2000,89,90,UK,185,200,-205,200,130,-137.5,-137.5,130,200,215,-225,215,545,J,M,Wraps,SBD,,7,,,
Jiří Šmolík,2001,100.6,110,Czechia,190,200,-207.5,200,132.5,-140,-140,132.5,220,-230,-230,220,552.5,J,M,Wraps,SBD,,6,,,
Jiří Pokorný,2002,122.8,125,Czechia,210,230,-260,230,100,-115,-115,100,220,-240,240,240,570,J,M,Wraps,SBD,,4,,,
Elias Bersgset,2001,114.4,125,Norway,140,160,-180,160,130,140,-150,140,210,230,-250,230,530,J,M,Wraps,SBD,,5,,,
Marek Červenka,2001,88.8,90,Slovakia,,,,,,,,,,,,,,J,M,Wraps,SBD,,DQ,,,
Dione César Teodoro,1992,107.7,110,Brazil,360,390,410,410,190,202.5,,202.5,335,375,-400,375,987.5,O,M,Sleeves,SBD,,1,,,
Ján Špais,1995,88.7,90,Slovakia,265,287.5,305,305,220,-240,240,240,310,330,340,340,885,O,M,Sleeves,SBD,,1,,,-355
Carnelós Lucas Veronezi,1990,117.5,125,Brazil,-340,340,360,360,190,200,210,210,360,-386,386,386,956,O,M,Wraps,SBD,,1,,,
Róbert Tumpek,1993,105.9,110,Hungary,330,350,362.5,362.5,182.5,190,192.5,192.5,330,-350,350,350,905,O,M,Wraps,SBD,,2,,,
Zoltán Debreceni,1996,99.9,100,Hungary,300,320,330,330,202.5,205,,205,300,320,335,335,870,O,M,Wraps,SBD,,1,,,
Jože Šinkovec,1998,97.2,100,Slovenia,320,342.5,350,350,180,190,195,195,270,290,-305,290,835,O,M,Wraps,SBD,,2,,,
Martin Medvedyk,1999,122.5,125,Czechia,365,390,-410,390,165,175,182.5,182.5,290,317.5,-327.5,317.5,890,O,M,Wraps,SBD,,2,,,
Zdenko Bystrianský,1989,82.9,90,Slovakia,290,300,-310,300,160,-170,,160,-280,280,-290,280,740,O,M,Wraps,SBD,,2,,,
István Bakkancsos,1994,99.1,100,Hungary,280,295,305,305,190,200,-210,200,290,302.5,307.5,307.5,812.5,O,M,Wraps,SBD,,3,,,
Ladislav Kašpar,1994,167.2,140+,Czechia,325,340,,340,220,230,-240,230,340,-360,-360,340,910,O,M,Wraps,SBD,,1,,,
Tiago Coucello,1996,80.9,82.5,Portugal,232.5,250,255,255,182.5,190,-195,190,245,262.5,-270,262.5,707.5,O,M,Wraps,SBD,,1,,,
Máté Kiss #1,1999,71.4,75,Hungary,210,220,230,230,110,120,-130,120,-255,260,280,280,630,O,M,Wraps,SBD,,1,,,
Tomáš Komárek,1993,108.1,110,Czechia,300,-320,-320,300,190,200,205,205,300,315,-325,315,820,O,M,Wraps,SBD,,3,,,
Martin Hepka,2000,98.3,100,Slovakia,265,280,290,290,-185,200,-210,200,280,292.5,-300,292.5,782.5,O,M,Wraps,SBD,,4,,,
Adam Egermaier,2000,108,110,Czechia,280,300,315,315,180,190,-200,190,270,290,305,305,810,O,M,Wraps,SBD,,4,,,
Piovezan Willian Brito,2000,139.9,140,Brazil,290,305,315,315,180,190,-200,190,320,340,350,350,855,O,M,Wraps,SBD,,1,,,
Tamás Barna,1992,94.5,100,Hungary,260,280,-290,280,192.5,-205,-210,192.5,290,-310,,290,762.5,O,M,Wraps,SBD,,5,,,
Michael Walton,1991,112.6,125,UK,270,-295,295,295,170,177.5,-180,177.5,310,330,342.5,342.5,815,O,M,Wraps,SBD,,3,,,
Leon Pavlovic,1992,107.9,110,Norway,300,310,-317.5,310,170,175,-180,175,300,310,-315,310,795,O,M,Wraps,SBD,,5,,,
Daniel Weeks,1997,64.4,67.5,UK,200,210,-220,210,112.5,117.5,-125,117.5,205,212.5,-215,212.5,540,O,M,Wraps,SBD,,1,,,
Juraj Kačmárik,1985,108.6,110,Slovakia,280,-300,-310,280,175,185,,185,325,-342.5,-357.5,325,790,O,M,Wraps,SBD,,6,,,
Harry Robbins,1999,124.4,125,UK,300,315,-320,315,190,200,,200,290,300,-305,300,815,O,M,Wraps,SBD,,4,,,
Zoltán Somi,1999,96.2,100,Hungary,275,290,300,300,165,175,-182.5,175,270,-280,-280,270,745,O,M,Wraps,SBD,,6,,,
Mateusz Wójtowicz,1994,82.2,82.5,Poland,225,240,-247.5,240,145,155,-162.5,155,250,260,272.5,272.5,667.5,O,M,Wraps,SBD,,2,,,
Filip Nikolov,1992,96.7,100,Serbia,-235,245,255,255,180,190,195,195,275,-300,-300,275,725,O,M,Wraps,SBD,,7,,,
Aarron Lynch,1989,104.6,110,UK,245,265,-285,265,160,175,185,185,245,265,285,285,735,O,M,Wraps,SBD,,7,,,
Matúš Gajdy,1999,94.4,100,Slovakia,-250,265,280,280,140,147.5,155,155,245,265,-272.5,265,700,O,M,Wraps,SBD,,8,,,
Ryan Morgan #1,1999,72.9,75,UK,197.5,-207.5,-207.5,197.5,120,127.5,-135,127.5,225,235,245,245,570,O,M,Wraps,SBD,,3,,,
Martin Ürban,1991,74.9,75,Czechia,190,200,-210,200,140,145,-150,145,-230,230,240,240,585,O,M,Wraps,SBD,,2,,,
Ash Barbour,1997,137.5,140,UK,272.5,300,-317.5,300,180,190,195,195,265,280,,280,775,O,M,Wraps,SBD,,2,,,
Bence Nagy,1995,98.1,100,Slovakia,235,245,255,255,162.5,172.5,180,180,-240,255,265,265,700,O,M,Wraps,SBD,,9,,,
Miguel Pereira,1998,79.8,82.5,Portugal,227.5,240,-250,240,117.5,-125,-125,117.5,235,250,-262.5,250,607.5,O,M,Sleeves,SBD,,3,,,
Lajos Zsarnai,1987,76.1,82.5,Hungary,180,210,-232.5,210,120,130,-137.5,130,200,230,240,240,580,O,M,Wraps,SBD,,4,,,
Richard Page,1987,98.3,100,Scotland,235,265,-275,265,135,-145,145,145,240,265,-282.5,265,675,O,M,Wraps,SBD,,10,,,
Alexandre Saingery,1988,106.3,110,France,260,-275,275,275,150,155,-157.5,155,245,260,-270,260,690,O,M,Wraps,SBD,,8,,,
Róbert Szücs,1992,93.9,100,Hungary,200,220,230,230,147.5,150,-152.5,150,255,270,-280,270,650,O,M,Wraps,SBD,,11,,,
Daniel Devine,1988,107,110,Ireland,215,-227.5,-230,215,172.5,-180,-180,172.5,285,295,-307.5,295,682.5,O,M,Wraps,SBD,,9,,,
Robin Richter,1997,73.9,75,Czechia,190,200,205,205,110,115,117.5,117.5,195,205,212.5,212.5,535,O,M,Wraps,SBD,,4,,,
Péter Szabó,1992,124.4,125,Hungary,255,270,280,280,137.5,-145,150,150,230,245,250,250,680,O,M,Wraps,SBD,,5,,,
Nicholas Webb,1993,98,100,South Africa,225,-245,245,245,120,130,-137.5,130,235,255,-270,255,630,O,M,Wraps,SBD,,12,,,
Ondřej Kasal,1999,88.7,90,Czechia,200,215,222.5,222.5,115,-122.5,-122.5,115,220,240,250,250,587.5,O,M,Wraps,SBD,,3,,,
Jaroslav Líška,1992,98.2,100,Slovakia,205,225,-235,225,125,-135,142.5,142.5,215,235,250,250,617.5,O,M,Wraps,SBD,,13,,,
Paul Atkinson,1994,95,100,UK,205,220,230,230,140,147.5,-150,147.5,200,-222.5,230,230,607.5,O,M,Wraps,SBD,,14,,,
Daniel Šimončič,1997,59.6,60,Slovakia,120,125,-130,125,-100,102.5,-105,102.5,160,165,-170,165,392.5,O,M,Wraps,SBD,,1,,,
Ashley Quigley,1987,136.2,140,UK,230,240,250,250,167.5,-175,175,175,240,-250,-250,240,665,O,M,Wraps,SBD,,3,,,
Diogo Durão,1990,86.5,90,Portugal,180,190,195,195,100,,,100,230,250,265,265,560,O,M,Wraps,SBD,,4,,,
Oldřich Janoušek,1999,88.6,90,Czechia,170,200,-225,200,130,140,-150,140,190,220,-242.5,220,560,O,M,Wraps,SBD,,5,,,
David Šimeček,1998,88.2,90,Czechia,180,-200,-200,180,100,-105,-105,100,200,220,-230,220,500,O,M,Wraps,SBD,,6,,,
Dominik Kocán,2000,81.7,82.5,Slovakia,-165,172.5,182.5,182.5,100,-105,105,105,175,182.5,185,185,472.5,O,M,Wraps,SBD,,5,,,
Jack Woodyatt,1993,76.1,82.5,UK,-180,-180,-180,,,,,,,,,,,O,M,Wraps,SBD,,DQ,,,
Józef Sokołowski,1955,107.9,110,Poland,240,260,-270,260,100,110,-115,110,270,280,,280,650,M6,M,Wraps,SBD,,1,,,
Adam Jasiński,1951,78.6,82.5,Poland,-185,185,-192.5,185,82.5,-87.5,87.5,87.5,185,192.5,-200,192.5,465,M7,M,Wraps,SBD,,1,,,
Marcio Rogério de Lima,1972,121.2,125,Brazil,320,-340,340,340,-150,-150,150,150,325,350,,350,840,M3,M,Wraps,SBD,,1,,,
František Nováček,1964,109.1,110,Czechia,232.5,242.5,252.5,252.5,182.5,190,195,195,242.5,255,265,265,712.5,M4,M,Wraps,SBD,,1,,,
Peter Lehocký,1972,82.5,82.5,Slovakia,210,230,245,245,140,155,-162.5,155,240,265,277.5,277.5,677.5,M3,M,Wraps,SBD,,1,,,
Darren Walker,1968,97.1,100,UK,205,230,235,235,135,140,145,145,262.5,292.5,300,300,680,M4,M,Wraps,SBD,,1,,,
József Sztanke,1954,89.5,90,Hungary,-170,170,-190,170,90,105,115,115,180,205,-220.5,205,490,M7,M,Wraps,SBD,,1,,,
Les Attewell,1966,87.3,90,UK,-200,200,-210,200,130,135,140,140,250,265,-275,265,605,M4,M,Wraps,SBD,,1,,,
Aleksandr Romanichev,1963,55.8,56,Israel,90,100,110,110,60,65,70,70,150,160,170,170,350,M5,M,Wraps,SBD,,1,,,
Erni Gregorčič,1976,74.3,75,Slovenia,205,215,-220,215,140,145,-150,145,240,253,-261,253,613,M2,M,Wraps,SBD,,1,,,
Juhani Kärkkäinen,1959,107.1,110,Finland,195,210,220,220,130,135,140,140,225,-245,-255,225,585,M5,M,Wraps,SBD,,1,,,
Peter Herák,1960,92.7,100,Slovakia,180,200,215,215,115,120,-122.5,120,210,220,225,225,560,M5,M,Wraps,SBD,,1,,,
Mike Dyer,1970,87.3,90,UK,195,210,-220,210,125,137.5,145,145,235,250,260,260,615,M3,M,Wraps,SBD,,1,,,
Petr Rambousek,1964,82.2,82.5,Czechia,-160,160,170,170,125,135,-140,135,210,220,-225,220,525,M5,M,Wraps,SBD,,1,,,
Imad Bahria,1975,99.8,100,France,265,285,301,301,122.5,127.5,130,130,260,280,-295,280,711,M2,M,Wraps,SBD,,1,,,
Zoltán Karsai,1974,96.9,100,Hungary,-250,250,-255,250,170,-180,-180,170,250,260,270,270,690,M3,M,Wraps,SBD,,1,,,
Federico Sipione,1980,96,100,Italy,275,285,-300,285,160,165,-170,165,280,-295,295,295,745,M1,M,Wraps,SBD,,1,,,
Jozef Gabrhel,1955,72.3,75,Slovakia,125,132.5,137,137,-90,90,95,95,150,160,-167.5,160,392,M6,M,Wraps,SBD,,1,,,
Mieczysłąw Maczka,1954,82.5,82.5,Germany,140,152.5,,152.5,102.5,110,,110,140,157.5,,157.5,420,M7,M,Wraps,SBD,,2,,,
Tibor Pukáč,1971,105.9,110,Slovakia,250,-270,-270,250,160,167.5,172.5,172.5,235,240,242.5,242.5,665,M3,M,Wraps,SBD,,1,,,
Mbarim Mehmeti,1982,70.6,75,Albania,175,185,190,190,140,-145,-145,140,240,245,250,250,580,M1,M,Wraps,SBD,,1,,,
István Gyuricska Jr,1967,89.6,90,Hungary,170,180,190,190,140,150,160,160,180,190,210,210,560,M4,M,Wraps,SBD,,2,,,
Robert Hazelton,1984,98.9,100,UK,265,285,-300,285,175,185,-192.5,185,260,275,-285,275,745,M1,M,Wraps,SBD,,2,,,
Nikolai Mikheev,1984,88.7,90,Russia,-240,240,250,250,170,182.5,190,190,240,260,-280,260,700,M1,M,Wraps,SBD,,1,,,
Péter Menyhárt,1973,98.2,100,Hungary,227.5,-242.5,-255,227.5,125,132.5,137.5,137.5,250,265,272.5,272.5,637.5,M3,M,Wraps,SBD,,2,,,
Hynek Stružka,1951,110.9,125,Czechia,140,-152.5,152.5,152.5,115,-120,-120,115,150,175,,175,442.5,M7,M,Wraps,SBD,,1,,,
Marek Pavkov,1982,98.2,100,Slovakia,265,275,-280,275,170,-175,-175,170,240,255,265,265,710,M1,M,Wraps,SBD,,3,,,
Matthew Jack,1981,89.5,90,UK,240,260,-267.5,260,140,145,-147.5,145,250,260,-265,260,665,M1,M,Wraps,SBD,,2,,,
Peter Bíroš,1983,123.5,125,Slovakia,280,-305,-305,280,180,200,-205,200,270,290,-300,290,770,M1,M,Wraps,SBD,,1,,,
Tibor Szántó,1976,116,125,Hungary,225,240,-247.5,240,160,170,-175,170,260,275,-282.5,275,685,M2,M,Wraps,SBD,,1,,,
Károly Horváth,1980,88.1,90,Hungary,260,-270,-275,260,120,127.5,132.5,132.5,235,-265,-265,235,627.5,M1,M,Wraps,SBD,,3,,,
Martin Hurdálek,1978,104.4,110,Czechia,230,250,260,260,160,-165,165,165,200,220,-230,220,645,M2,M,Wraps,SBD,,1,,,
Antal Tábor,1979,100,100,Hungary,220,230,-240,230,160,170,,170,240,,,240,640,M2,M,Wraps,SBD,,2,,,
Grzegorz Skrabarczyk,1984,72.2,75,Poland,200,-215,-215,200,130,140,145,145,-180,180,,180,525,M1,M,Wraps,SBD,,2,,,
József Kovács,1977,89.8,90,Hungary,205,220,225,225,105,-112.5,,105,220,237.5,245,245,575,M2,M,Wraps,SBD,,1,,,
Matt Thompson #4,1981,80.6,82.5,UK,175,185,-192.5,185,120,127.5,-130,127.5,230,245,-250,245,557.5,M1,M,Wraps,SBD,,1,,,
Michal Móry,1978,73.6,75,Slovakia,-157.5,157.5,-172.5,157.5,105,110,115,115,190,205,215,215,487.5,M2,M,Wraps,SBD,,2,,,
Illés Tibor Rácz,1970,86.3,90,Hungary,150,160,-170,160,100,110,-115,110,200,210,220,220,490,M3,M,Wraps,SBD,,2,,,
Steve Sutton #2,1969,101.2,110,Portugal,-140,150,-165,150,105,-117.5,120,120,220,235,250,250,520,M3,M,Wraps,SBD,,2,,,
Michael Burden,1965,99.1,100,UK,155,165,,165,-95,95,100,100,165,-172.5,,165,430,M4,M,Wraps,SBD,,2,,,
Andrea Tinarelet,1967,80.1,82.5,Italy,-110,110,120,120,-75,-75,75,75,170,187.5,195,195,390,M4,M,Wraps,SBD,,1,,,
Rory May,1967,74,75,Scotland,170,-185,185,185,95,105,-112.5,105,70,,,70,360,M4,M,Wraps,SBD,,1,,,
Aleks Piciga,1981,74.2,75,Slovenia,-150,-150,150,150,105,107.5,-110,107.5,170,177.5,182.5,182.5,440,M1,M,Wraps,SBD,,3,,,
Zdeno Pupiš,1964,81.3,82.5,Slovakia,-110,110,120,120,80,85,90,90,130,140,-150,140,350,M5,M,Wraps,SBD,,2,,,
Moacir Martini De Araújo,1976,93.4,100,Brazil,-140,140,-155,140,110,120,125,125,170,180,-190,180,445,M2,M,Wraps,SBD,,3,,,
Jerzy Robert Kucza,1977,88.3,90,Poland,100,-110,110,110,100,110,120,120,150,160,170,170,400,M2,M,Wraps,SBD,,2,,,
Ľubomír Majstrák,1974,114.1,125,Slovakia,110,125,140,140,50,60,70,70,110,125,140,140,350,M3,M,Wraps,SBD,,2,,,
Ricardo Pereira,1972,103.5,110,Portugal,120,,,120,80,90,100,100,100,,,100,320,M3,M,Sleeves,SBD,,3,,,
László Kupcsik,1967,82.7,90,Hungary,,,,,,,,,,,,,,M4,M,Wraps,SBD,,DQ,,,
Philip Pritchard,1962,98.7,100,UK,-140,-145,-145,,,,,,,,,,,M5,M,Wraps,SBD,,DQ,,,
Július Tkáč,2006,76.4,82.5,Slovakia,210,225,230,230,120,-127.5,130,130,180,190,200,200,560,T3,M,Multi-ply,SBD,,1,,,
Tobias Hvozdovič,2006,90.3,100,Slovakia,210,225,240,240,120,130,-135,130,210,230,245,245,615,T3,M,Multi-ply,SBD,,1,,,
Ondřej Ščuglík,2006,87.1,90,Czechia,290,310,325,325,-185,-185,-185,,,,,,,T3,M,Multi-ply,SBD,,DQ,,,
Tomáš Kunz,2002,73.6,75,Czechia,250,-270,-270,250,150,-160,,150,180,200,,200,600,J,M,Multi-ply,SBD,,1,,,
Tomáš Múdrý,1994,96.3,100,Slovakia,280,305,315,315,-180,190,200,200,270,285,300,300,815,O,M,Multi-ply,SBD,,1,,,
Stanislav Hoza,1956,87.6,90,Czechia,-240,240,255,255,160,165,170,170,200,220,-230,220,645,M6,M,Multi-ply,SBD,,1,,,
Valery Tomilov,1965,97.4,100,Israel,-250,250,-275,250,190,205,-212.5,205,235,245,255,255,710,M4,M,Multi-ply,SBD,,1,,,
Robert Graham #1,1965,107.4,110,UK,-240,240,270,270,180,-187.5,-187.5,180,220,230,,230,680,M4,M,Multi-ply,SBD,,1,,,
Libor Hurdálek,1954,98.1,100,Czechia,180,-190,190,190,-150,150,-160,150,150,160,170,170,510,M7,M,Multi-ply,SBD,,1,,,
Karol Brečka,1961,74,75,Czechia,140,160,-170,160,115,-122.5,122.5,122.5,150,170,195,195,477.5,M5,M,Multi-ply,SBD,,1,,,
Darren Bennett,1984,109.5,110,Ireland,270,300,320,320,225,235,-242.5,235,302.5,-320,-320,302.5,857.5,M1,M,Multi-ply,SBD,,1,,,
Mieczysłąw Maczka,1954,82.5,82.5,Germany,145,155,,155,102.5,112.5,,112.5,142.5,160,,160,427.5,M7,M,Multi-ply,SBD,,1,,,
Andrew Saunders,1967,98.4,100,UK,250,280,-300,280,210,225,-240,225,100,,,100,605,M4,M,Multi-ply,SBD,,2,,,
Rodrigo Mora,1974,62.5,67.5,Colombia,140,160,-180,160,115,120,-130,120,140,150,160,160,440,M3,M,Multi-ply,SBD,,1,,,
Vilém Žák,1942,82.9,90,Czechia,80,-86,86,86,65,-76,76,76,100,-111,111,111,273,M9,M,Multi-ply,SBD,,1,,,
Josef Jeníček,1973,102.8,110,Czechia,205,-210,-210,205,130,140,-150,140,210,220,,220,565,M3,M,Multi-ply,SBD,,1,,,
Eugenijus Cibulskis,1975,100.8,110,Lithuania,205,-220,-230,205,130,140,150,150,180,200,220,220,575,M2,M,Multi-ply,SBD,,1,,,
Ivan Levický,1970,103.6,110,Slovakia,210,225,-240,225,150,160,170,170,-282.5,-282.5,-282.5,,,M3,M,Multi-ply,SBD,,DQ,,,
Petra Orovecz,2004,66,67.5,Hungary,110,130,-140,130,,,,,,,,,130,T3,F,Multi-ply,S,,1,,,
Fabiana Conflitti,2007,52.5,56,Italy,95,105,-110,105,,,,,,,,,105,T2,F,Multi-ply,S,,1,,,
Simona Vokounová,2004,64.3,67.5,Czechia,90,-110,-115,90,,,,,,,,,90,T3,F,Multi-ply,S,,2,,,
Éva Smetanová,2001,74.5,75,Czechia,115,130,-140,130,,,,,,,,,130,J,F,Wraps,S,,1,-140,,
Simona Rančev,2002,58.8,60,Czechia,90,97.5,-102.5,97.5,,,,,,,,,97.5,J,F,Wraps,S,,1,,,
Alena Bartoňková,2002,57.2,60,Czechia,85,90,-95,90,,,,,,,,,90,J,F,Wraps,S,,2,,,
Nataly Barbosa,1971,70,75,South Africa,-165,-172.5,172.5,172.5,,,,,,,,,172.5,M3,F,Wraps,S,,1,177.5,,
Mónika Bazsó,1974,81.9,82.5,Hungary,172.5,182.5,192.5,192.5,,,,,,,,,192.5,M3,F,Wraps,S,,1,194,,
Hannah Webb-Cameron,1983,95,110,New Zealand,125,137.5,-145,137.5,,,,,,,,,137.5,M1,F,Wraps,S,,1,,,
Sörös Andrea Megyesiné,1979,62.7,67.5,Hungary,80,90,100,100,,,,,,,,,100,M2,F,Wraps,S,,1,,,
Rocco Struglia,2007,66.8,67.5,Italy,145,155,-157.5,155,,,,,,,,,155,T2,M,Wraps,S,,1,,,
Ján Christopher Kónya,2009,75,75,Slovakia,141,150,160,160,,,,,,,,,160,T1,M,Wraps,S,,1,,,
Oliver Beránek,2007,120.3,125,Czechia,185,200,-210,200,,,,,,,,,200,T2,M,Wraps,S,,1,,,
Bertalan Kaliba,2008,98.4,100,Hungary,170,185,-200,185,,,,,,,,,185,T2,M,Wraps,S,,1,,,
Edoardo Simone,2008,74.1,75,Italy,130,140,-150,140,,,,,,,,,140,T2,M,Wraps,S,,1,,,
Zénó Czinkó,2009,72.2,75,Hungary,-102.5,120,130,130,,,,,,,,,130,T1,M,Wraps,S,,2,,,
Luiz Edoardo Gondro,2006,59.7,60,Brazil,90,100,-120,100,,,,,,,,,100,T2,M,Wraps,S,,1,,,
Márk Tóth,2009,122.4,125,Hungary,-160,-160,160,160,,,,,,,,,160,T1,M,Wraps,S,,1,180,,
Tomáš Kunz,2002,76.5,82.5,Czechia,240,260,270,270,,,,,,,,,270,J,M,Multi-ply,S,,1,,,
Pavel Janíček,2002,80.8,82.5,Czechia,190,210,230,230,,,,,,,,,230,J,M,Wraps,S,,1,,,
Petr Matěna,2001,128.6,140,Czechia,250,265,-276,265,,,,,,,,,265,J,M,Wraps,S,,1,,,
Petr Gerberg,2004,90.4,100,Czechia,220,-240,-240,220,,,,,,,,,220,J,M,Wraps,S,,1,,,
Adam Rowley,2002,82,82.5,UK,190,-202.5,202.5,202.5,,,,,,,,,202.5,J,M,Wraps,S,,2,,,
Jiří Šmolík,2001,101,110,Czechia,190,-200,200,200,,,,,,,,,200,J,M,Wraps,S,,1,,,
Danijel Parac,1994,67.2,67.5,Croatia,180,211,,211,,,,,,,,,211,O,M,Multi-ply,S,,1,,,
Martin Studnička,1993,97,100,Czechia,230,242.5,252.5,252.5,,,,,,,,,252.5,O,M,Multi-ply,S,,1,,,
László Posnyák,1993,77.1,82.5,Hungary,110,120,-125,120,,,,,,,,,120,O,M,Multi-ply,S,,1,,,
Gábor Kocsis,1992,130.3,140,Hungary,320,340,-355,340,,,,,,,,,340,O,M,Wraps,S,,1,,,
Dušan Jovanović,1992,107.9,110,Serbia,300,320,,320,,,,,,,,,320,O,M,Wraps,S,,1,,,
Krisztián Németh,1996,121.9,125,Hungary,280,297.5,302.5,302.5,,,,,,,,,302.5,O,M,Wraps,S,,1,,,
Alexandre Saingery,1988,108.2,110,France,-255,255,265,265,,,,,,,,,265,O,M,Wraps,S,,2,,,
Danijel Parac,1994,67.2,67.5,Croatia,160,185,-201,185,,,,,,,,,185,O,M,Wraps,S,,1,,,
Tomáš Thüringer,1989,162.7,140+,Slovakia,-220,220,250,250,,,,,,,,,250,O,M,Wraps,S,,1,,,
Reece Roza de Oliveira,1998,102,110,UK,210,220,-225,220,,,,,,,,,220,O,M,Wraps,S,,3,,,
Csaba Csenteri,1990,63.1,67.5,Hungary,110,125,-135,125,,,,,,,,,125,O,M,Wraps,S,,2,,,
Mieczysłąw Maczka,1954,82.5,82.5,Germany,150,162.5,,162.5,,,,,,,,,162.5,M7,M,Multi-ply,S,,1,,,
Darren Bennett,1984,108.7,110,Ireland,276,300,,300,,,,,,,,,300,M1,M,Multi-ply,S,,1,,,
David Thomas #4,1951,107.3,110,UK,142.5,,,142.5,,,,,,,,,142.5,M7,M,Multi-ply,S,,1,,,
Spas Razhankov,1977,82.3,82.5,Bulgaria,170,180,190,190,,,,,,,,,190,M2,M,Multi-ply,S,,1,,,
Tibor Manzera,1968,111.4,125,Hungary,100,,,100,,,,,,,,,100,M4,M,Multi-ply,S,,1,,,
Milan Greguš,1968,100.3,110,Czechia,-290,-290,-290,,,,,,,,,,,M4,M,Multi-ply,S,,DQ,,,
Brian Johnston,1964,107.1,110,Canada,-285,-285,-285,,,,,,,,,,,M4,M,Multi-ply,S,,DQ,,,
Milan Greguš,1968,100.3,110,Czechia,240,255,271,271,,,,,,,,,271,M4,M,Wraps,S,,1,,,
Peter Herák,1960,88,90,Slovakia,180,200,-217.5,200,,,,,,,,,200,M5,M,Wraps,S,,1,,,
Mieczysłąw Maczka,1954,82.5,82.5,Germany,140,152.5,160,160,,,,,,,,,160,M7,M,Wraps,S,,1,,,
Ivan Giňovský,1967,100.7,110,Slovakia,195,210,225,225,,,,,,,,,225,M4,M,Wraps,S,,2,,,
Fábio Corrêa De Lyra,1973,92.4,100,Brazil,225,-245,,225,,,,,,,,,225,M3,M,Wraps,S,,1,,,
Davtuna Mzhavanadze,1972,107,110,Georgia,200,220,,220,,,,,,,,,220,M3,M,Wraps,S,,1,,,
József Kovács,1977,88.8,90,Hungary,205,215,-220,215,,,,,,,,,215,M2,M,Wraps,S,,1,,,
Denis Sadushi,1983,77,82.5,Albania,170,190,200,200,,,,,,,,,200,M1,M,Wraps,S,,1,,,
David Thomas #4,1951,107.3,110,UK,115,126,135,135,,,,,,,,,135,M7,M,Wraps,S,,1,,,
Tibor Karalyos,1973,137.7,140,Hungary,220,,,220,,,,,,,,,220,M3,M,Wraps,S,,1,,,
Ákos Takács,1976,109.3,110,Hungary,190,205,215,215,,,,,,,,,215,M2,M,Wraps,S,,1,,,
Spas Razhankov,1977,82.3,82.5,Bulgaria,175,185,-195,185,,,,,,,,,185,M2,M,Wraps,S,,1,,,
Ramaz Gabaidze,1982,101.5,110,Georgia,170,185,195,195,,,,,,,,,195,M1,M,Wraps,S,,1,,,
Gábor Kovács,1962,87.8,90,Hungary,120,130,-140,130,,,,,,,,,130,M5,M,Wraps,S,,2,,,
Dariusz Zwoliński,1974,84.7,90,Poland,140,150,,150,,,,,,,,,150,M2,M,Wraps,S,,2,,,
Tibor Manzera,1968,111.4,125,Hungary,100,110,,110,,,,,,,,,110,M4,M,Wraps,S,,1,,,
Brigitta Rékási,2006,51.7,52,Hungary,,,,,55,60,62.5,62.5,,,,,62.5,T3,F,Raw,B,,1,,,
Anita Tímea Szűcs,2006,50.2,52,Hungary,,,,,55,60,-65,60,,,,,60,T3,F,Raw,B,,2,,,
Pavlína Chovancová,2005,75.6,82.5,Slovakia,,,,,75,80,81,81,,,,,81,T3,F,Raw,B,,1,,-82.5,
Vanda Szalay,2005,56,56,Hungary,,,,,57.5,60,-65,60,,,,,60,T3,F,Raw,B,,1,,,
Klaudia Savanyu,2005,58.9,60,Hungary,,,,,55,60,-62.5,60,,,,,60,T3,F,Raw,B,,1,,,
Kristína Hasáková,2010,55,56,Slovakia,,,,,47.5,52.5,-55,52.5,,,,,52.5,T1,F,Raw,B,,1,,-55,
Diana Štefanidesová,2006,72.2,75,Slovakia,,,,,52.5,57.5,62.5,62.5,,,,,62.5,T3,F,Raw,B,,1,,,
Luca Sára Sátor,2009,96.4,110,Hungary,,,,,57.5,60,65,65,,,,,65,T1,F,Raw,B,,1,,67.5,
Laura Sophie Drescher,2003,74.8,75,Germany,,,,,85,90,95,95,,,,,95,J,F,Raw,B,,1,,,
Kateřina Janoutová,2002,60.4,67.5,Czechia,,,,,75,-77.5,77.5,77.5,,,,,77.5,J,F,Raw,B,,1,,,
Szandra Zachariás,2004,59.2,60,Hungary,,,,,-72.5,72.5,75,75,,,,,75,J,F,Raw,B,,1,,,
Marie Skřivánková,2002,76.4,82.5,Czechia,,,,,55,-60,-60,55,,,,,55,J,F,Raw,B,,1,,,
Éva Smetanová,2001,76.8,82.5,Czechia,,,,,45,50,55,55,,,,,55,J,F,Raw,B,,2,,,
Ilka Németh,2004,124,110+,Hungary,,,,,55,60,62.5,62.5,,,,,62.5,J,F,Raw,B,,2,,65,
Diana Balážová,2003,100.9,110,Slovakia,,,,,42.5,45,50,50,,,,,50,J,F,Raw,B,,1,,-55.5,
Júlia Popa,1989,71.2,75,Slovakia,,,,,112.5,-117.5,117.5,117.5,,,,,117.5,O,F,Raw,B,,1,,,
Magdalena Pawelak,1991,71.8,75,Poland,,,,,100,107.5,112.5,112.5,,,,,112.5,O,F,Raw,B,,2,,,
Tinna Pálsdóttir,1987,67.1,67.5,Iceland,,,,,-85,85,90,90,,,,,90,O,F,Raw,B,,1,,,
Mária Köteles,1992,169.5,110+,Hungary,,,,,142.5,150,152.5,152.5,,,,,152.5,O,F,Raw,B,,1,,,
Tímea Fekete-Horváth,1985,53.3,56,Hungary,,,,,60,-62.5,-62.5,60,,,,,60,O,F,Raw,B,,1,,,
Veronika Strolená,1985,80,82.5,Czechia,,,,,70,75,77.5,77.5,,,,,77.5,O,F,Raw,B,,1,,,
Petra Pokorná,1988,127.5,110+,Czechia,,,,,85,92.5,,92.5,,,,,92.5,O,F,Raw,B,,2,,,
Stella Širmerová,1999,51.8,52,Czechia,,,,,47.5,50,-52.5,50,,,,,50,O,F,Raw,B,,1,,,
Viktória Schulczová,1999,65.9,67.5,Slovakia,,,,,55,-57.5,-60,55,,,,,55,O,F,Raw,B,,2,,,
Daniela Poláková,1976,61.3,67.5,Czechia,,,,,-95,102.5,105,105,,,,,105,M2,F,Raw,B,,1,,,
Mónika Bazsó,1974,83.2,90,Hungary,,,,,-110,120,-122.5,120,,,,,120,M3,F,Raw,B,,1,,,
Nataly Barbosa,1971,71.1,75,South Africa,,,,,92.5,100,102.5,102.5,,,,,102.5,M3,F,Raw,B,,1,,,
Ana Catia Portilho Couto,1966,72.1,75,Brazil,,,,,85,90,95,95,,,,,95,M4,F,Raw,B,,1,,,
Irina Pomerantsev,1970,44.2,48,Israel,,,,,55,57.5,60,60,,,,,60,M3,F,Raw,B,,1,,,
Anita Nagy,1974,58.7,60,Hungary,,,,,80,85,-90,85,,,,,85,M3,F,Raw,B,,1,,,
Tatiana Magulová,1981,73.6,75,Slovakia,,,,,92.5,97.5,102.5,102.5,,,,,102.5,M1,F,Raw,B,,1,,,
Beáta Pusztai,1967,65.6,67.5,Hungary,,,,,70,75,-80,75,,,,,75,M4,F,Raw,B,,1,,,
Ester Cichá,1970,55.8,56,Czechia,,,,,60,65,67.5,67.5,,,,,67.5,M3,F,Raw,B,,1,,,
Hannah Webb-Cameron,1983,96.3,110,New Zealand,,,,,93,97.5,100,100,,,,,100,M1,F,Raw,B,,1,,,
Beáta Szalay,1979,79.2,82.5,Hungary,,,,,80,85,-87.5,85,,,,,85,M1,F,Raw,B,,1,,,
Gőz Erika Rékásiné,1976,55.8,56,Hungary,,,,,57.5,60,62.5,62.5,,,,,62.5,M2,F,Raw,B,,1,,,
Edit Gombos-Borka,1980,66.6,67.5,Hungary,,,,,70,75,-80,75,,,,,75,M1,F,Raw,B,,1,,,
Mária Hegedűs,1965,68.2,75,Hungary,,,,,50,55,57.5,57.5,,,,,57.5,M4,F,Raw,B,,2,,,
Tímea Ujvári,1980,84.3,90,Hungary,,,,,70,75,80,80,,,,,80,M1,F,Raw,B,,1,,,
Eva Strnadová,1983,52.3,56,Czechia,,,,,50,55,-57.5,55,,,,,55,M1,F,Raw,B,,1,,,
Ilona Egri,1972,59.9,60,Hungary,,,,,52.5,55,-57.5,55,,,,,55,M3,F,Raw,B,,2,,,
Mónika Molnár,1973,70.9,75,Hungary,,,,,47.5,50,52.5,52.5,,,,,52.5,M3,F,Raw,B,,2,,,
Judit Poliák,1973,51.2,52,Hungary,,,,,35,37.5,-40,37.5,,,,,37.5,M3,F,Raw,B,,1,,,
Szilvia Juhász-Ilyés,1976,86,90,Hungary,,,,,55,57.5,-60,57.5,,,,,57.5,M2,F,Raw,B,,1,,,
Brigitte Maczka,1961,66,67.5,Germany,,,,,32.5,-37.5,,32.5,,,,,32.5,M5,F,Raw,B,,1,,,
Klaudia Tanczos,1973,75.9,82.5,Slovakia,,,,,30,37.5,-42.5,37.5,,,,,37.5,M3,F,Raw,B,,1,,,
Rossana Da Rocha Frasso Corrêa,1981,49.3,52,Brazil,,,,,25,26,26.5,26.5,,,,,26.5,M1,F,Raw,B,,1,,-27,
Donát Ferku,2009,54.2,56,Hungary,,,,,100,105,110,110,,,,,110,T1,M,Raw,B,,1,,-112.5,
Jaroslav Novák,2006,89.4,90,Czechia,,,,,150,-155,-155,150,,,,,150,T3,M,Raw,B,,1,,,
Krisztofer Kosztics,2005,103.1,110,Hungary,,,,,160,-162.5,-162.5,160,,,,,160,T3,M,Raw,B,,1,,,
Tamás Csaba Antal,2006,89.3,90,Hungary,,,,,125,132.5,140,140,,,,,140,T3,M,Raw,B,,2,,,
Oliver Beránek,2007,120.6,125,Czechia,,,,,147.5,152.5,157.5,157.5,,,,,157.5,T2,M,Raw,B,,1,,,
Richárd Sós-Tóvizi,2007,72.7,75,Hungary,,,,,105,112.5,117.5,117.5,,,,,117.5,T2,M,Raw,B,,1,,,
Bence Kristóf Fodor,2006,107,110,Hungary,,,,,140,145,150,150,,,,,150,T3,M,Raw,B,,2,,,
Ádám Zsombok,2005,116.3,125,Hungary,,,,,140,145,150,150,,,,,150,T3,M,Raw,B,,1,,,
Václav Spurný,2006,67.3,67.5,Czechia,,,,,100,-110,-110,100,,,,,100,T3,M,Raw,B,,1,,,
Josef Švestka,2006,82,82.5,Czechia,,,,,110,120,-125,120,,,,,120,T2,M,Raw,B,,1,,,
Chakhvadze Soso,2005,102.8,110,Georgia,,,,,115,125,130,130,,,,,130,T3,M,Raw,B,,3,,,
Márk Tóth,2009,123.2,125,Hungary,,,,,115,125,135,135,,,,,135,T1,M,Raw,B,,1,,-137.5,
Dániel Sándor,2007,84.7,90,Hungary,,,,,100,107.5,115,115,,,,,115,T2,M,Raw,B,,1,,,
Luiz Edoardo Gondro,2006,59.9,60,Brazil,,,,,80,-90,-90,80,,,,,80,T2,M,Raw,B,,1,,,
Maximilián Pastva,2009,74.9,75,Slovakia,,,,,95,100,-105,100,,,,,100,T1,M,Raw,B,,1,,,
Zwoliński Marcin,2005,81.8,82.5,Poland,,,,,100,105,-110,105,,,,,105,T3,M,Raw,B,,1,,,
Bertalan Kaliba,2008,98.2,100,Hungary,,,,,95,105,110,110,,,,,110,T2,M,Raw,B,,1,,,
Áron Megyeri,2010,66.7,67.5,Hungary,,,,,70,75,80,80,,,,,80,T1,M,Raw,B,,1,,,
Dmytro Kovtoniuk,2008,72.2,75,Georgia,,,,,70,75,85,85,,,,,85,T2,M,Raw,B,,2,,,
Luka Diasamidze,2008,78.5,82.5,Georgia,,,,,70,75,85,85,,,,,85,T2,M,Raw,B,,2,,,
Mark Lutsyshyn,2009,80.9,82.5,Czechia,,,,,70,77.5,-85,77.5,,,,,77.5,T1,M,Raw,B,,1,,,
Adam Hutta,2009,97.8,100,Slovakia,,,,,80,-85,-87.5,80,,,,,80,T1,M,Raw,B,,1,,,
Timofejs Blūms,2005,62.8,67.5,Latvia,,,,,-95,-95,-95,,,,,,,T3,M,Raw,B,,DQ,,,
Filip Prchal,2003,69.3,75,Czechia,,,,,150,155,160,160,,,,,160,J,M,Raw,B,,1,,,
Michał Kowalski,2001,86.4,90,Poland,,,,,-190,190,-195,190,,,,,190,J,M,Raw,B,,1,,,
Kristopher Tan,2002,59,60,Singapore,,,,,120,127.5,-132.5,127.5,,,,,127.5,J,M,Raw,B,,1,,,
Daniel Dulai,2002,75.4,82.5,Slovakia,,,,,155,-165,-165,155,,,,,155,J,M,Raw,B,,1,,,
István József Szalai,2000,97.7,100,Hungary,,,,,165,175,-180,175,,,,,175,J,M,Raw,B,,1,,,
Maroš Fandel,2001,89.2,90,Slovakia,,,,,150,160,165,165,,,,,165,J,M,Raw,B,,2,,,
Hubert Bąbrych,2001,108,110,Poland,,,,,150,170,175,175,,,,,175,J,M,Raw,B,,1,,,
Josef Chaloupka,2001,81,82.5,Czechia,,,,,145,-155,-157.5,145,,,,,145,J,M,Raw,B,,2,,,
Petr Bartošík,2001,98.2,100,Czechia,,,,,150,155,160,160,,,,,160,J,M,Raw,B,,2,,,
Mattia Mariani,2004,74.4,75,Italy,,,,,92.5,100,-107.5,100,,,,,100,J,M,Raw,B,,2,,,
Daniel Převrátil,2002,81.6,82.5,Czechia,,,,,-115,-125,-125,,,,,,,J,M,Raw,B,,DQ,,,
Ladislav Gálik,2000,156.6,140+,Slovakia,,,,,-250,-260,-260,,,,,,,J,M,Raw,B,,DQ,,,
Tamás Marosán,2000,55.4,56,Hungary,,,,,135,142,145,145,,,,,145,O,M,Raw,B,,1,,150,
Alexandr Popa,1988,124.6,125,Czechia,,,,,250,260,-270,260,,,,,260,O,M,Raw,B,,1,,,
Norbert Gáleg,1996,121.4,125,Hungary,,,,,240,250,-262.5,250,,,,,250,O,M,Raw,B,,2,,,
Giedrius Kaleckas,1988,102.3,110,Lithuania,,,,,227.5,232.5,-235,232.5,,,,,232.5,O,M,Raw,B,,1,,,
Ákos Oláh,1989,98.7,100,Hungary,,,,,210,217.5,-222.5,217.5,,,,,217.5,O,M,Raw,B,,1,,,
Tomáš Nesvadba,1993,132.6,140,Czechia,,,,,225,235,-240,235,,,,,235,O,M,Raw,B,,1,,,
Sándor Csősz,1995,121.9,125,Hungary,,,,,220,230,-235,230,,,,,230,O,M,Raw,B,,3,,,
Eduard Laczko,1999,107.1,110,Slovakia,,,,,205,215,220,220,,,,,220,O,M,Raw,B,,2,,,
Łukasz Ślósarek,1987,99.1,100,Poland,,,,,205,210,212.5,212.5,,,,,212.5,O,M,Raw,B,,2,,,
Nogueira Thiago Baptista,1989,58.2,60,Brazil,,,,,125.5,130,-135,130,,,,,130,O,M,Raw,B,,1,,,
Július Mertvík,1996,102,110,Slovakia,,,,,200,205,210,210,,,,,210,O,M,Raw,B,,3,,,
Juraj Korman,1996,109.9,110,Slovakia,,,,,-210,210,-215,210,,,,,210,O,M,Raw,B,,4,,,
Lukáš Forejtek,1993,103.4,110,Czechia,,,,,200,205,-210,205,,,,,205,O,M,Raw,B,,5,,,
Mário Zastko,1995,73.9,75,Slovakia,,,,,150,157.5,162.5,162.5,,,,,162.5,O,M,Raw,B,,1,,,
Dominik Kovalčík,1999,94,100,Czechia,,,,,195,-205,-205,195,,,,,195,O,M,Raw,B,,3,,,
Gergő Vakarcs,1995,107.1,110,Hungary,,,,,195,205,-217.5,205,,,,,205,O,M,Raw,B,,6,,,
Patrík Korčok,1996,154.2,140+,Slovakia,,,,,210,220,-230,220,,,,,220,O,M,Raw,B,,1,,,
Dawid Rudnicki,1989,74.6,75,Poland,,,,,150,160,-165,160,,,,,160,O,M,Raw,B,,2,,,
Jan Slunečko,1994,87.1,90,Czechia,,,,,170,180,-182.5,180,,,,,180,O,M,Raw,B,,1,,,
Gábor Molnár,1992,87.9,90,Hungary,,,,,170,180,-185,180,,,,,180,O,M,Raw,B,,2,,,
Soma Rádóczi,1994,58.6,60,Hungary,,,,,105,112.5,117.5,117.5,,,,,117.5,O,M,Raw,B,,2,,,
László Bujdosó,1993,122.6,125,Hungary,,,,,190,200,-217.5,200,,,,,200,O,M,Raw,B,,4,,,
Michal Lukáč,1995,87.8,90,Slovakia,,,,,170,-180,-180,170,,,,,170,O,M,Raw,B,,3,,,
Tomasz Pierunek,1988,66.8,67.5,Poland,,,,,120,127.5,132.5,132.5,,,,,132.5,O,M,Raw,B,,1,,,
Jan Holub,1998,107.3,110,Czechia,,,,,170,180,-187.5,180,,,,,180,O,M,Raw,B,,7,,,
Adam Kornak,1988,142,140+,Czechia,,,,,190,-200,-200,190,,,,,190,O,M,Raw,B,,2,,,
Tomasz Wolski,1989,73.2,75,Poland,,,,,135,-140,-142.5,135,,,,,135,O,M,Raw,B,,3,,,
Michał Wołodko,1989,76.1,82.5,Poland,,,,,137.5,140,-142.5,140,,,,,140,O,M,Raw,B,,2,,,
Robert Kolena,1995,104.2,110,Czechia,,,,,160,170,-177.5,170,,,,,170,O,M,Raw,B,,8,,,
Mark Abadzhian,1995,78.6,82.5,Russia,,,,,130,-140,142.5,142.5,,,,,142.5,O,M,Raw,B,,1,,,
Luděk Šmíd,1996,67.4,67.5,Czechia,,,,,110,120,-132.5,120,,,,,120,O,M,Raw,B,,2,,,
Mariusz Małkowski,1987,102.9,110,Poland,,,,,155,160,-165,160,,,,,160,O,M,Raw,B,,9,,,
Stanislav Cimpa,1991,66.2,67.5,Czechia,,,,,95,102.5,-107.5,102.5,,,,,102.5,O,M,Raw,B,,3,,,
Schulz William Koster,1987,73.5,75,Brazil,,,,,90,100,-105,100,,,,,100,O,M,Raw,B,,4,,,
Filip Stanko,1990,82.3,82.5,Slovakia,,,,,-195,-200,-205,,,,,,,O,M,Raw,B,,DQ,,,
László Kupcsik,1967,82.3,82.5,Hungary,,,,,150,170,180,180,,,,,180,M4,M,Raw,B,,1,,,
Krzysztof Kłopocki,1959,104,110,Poland,,,,,175,-180,-180,175,,,,,175,M6,M,Raw,B,,1,,,
Jałocha Krzysztof Bożyczko,1965,109.4,110,Poland,,,,,190,195,200,200,,,,,200,M4,M,Raw,B,,1,,-207.5,
František Nováček,1964,109.6,110,Czechia,,,,,185,195,200,200,,,,,200,M4,M,Raw,B,,2,,,
László Kurucz,1953,62.6,67.5,Hungary,,,,,90,100,102.5,102.5,,,,,102.5,M7,M,Raw,B,,1,,,
Antoni Kaliňski,1953,60,60,Poland,,,,,90,96,-97.5,96,,,,,96,M7,M,Raw,B,,1,,,
Makowski Stanisław Gąsienica,1973,99,100,Poland,,,,,210,215,-217.5,215,,,,,215,M3,M,Raw,B,,1,,,
Oļegs Illarionovs,1965,95,100,Latvia,,,,,180,185,-190,185,,,,,185,M4,M,Raw,B,,1,,,
István Ágoston,1962,91.7,100,Hungary,,,,,160,170,-175,170,,,,,170,M5,M,Raw,B,,1,,,
Karel Schoř,1955,79.6,82.5,Czechia,,,,,120,-130,130,130,,,,,130,M6,M,Raw,B,,1,,,
Jindřich Dressler,1977,108.9,110,Czechia,,,,,210,222.5,227.5,227.5,,,,,227.5,M2,M,Raw,B,,1,,,
Milan Mrázek,1979,153.5,140+,Czechia,,,,,250,-257.5,-257.5,250,,,,,250,M2,M,Raw,B,,1,,,
Mirosław Urbaniak,1961,87.4,90,Poland,,,,,-155,155,-160,155,,,,,155,M5,M,Raw,B,,2,,,
Péter Ödön Takács,1973,109.1,110,Hungary,,,,,200,207.5,212.5,212.5,,,,,212.5,M3,M,Raw,B,,1,,,
Petr Novák,1977,96.5,100,Czechia,,,,,202.5,212.5,217.5,217.5,,,,,217.5,M2,M,Raw,B,,1,,,
Hovhannes Yazichyan,1971,96.3,100,Poland,,,,,185,195,-202.5,195,,,,,195,M3,M,Raw,B,,2,,,
Andrzej Gron,1959,88.3,90,Ireland,,,,,147.5,-152.5,-152.5,147.5,,,,,147.5,M6,M,Raw,B,,1,,,
Tilo Kupper,1964,88.7,90,Switzerland,,,,,160,162.5,-165,162.5,,,,,162.5,M5,M,Raw,B,,1,,,
George Doneathy,1967,153,140+,UK,,,,,-202.5,202.5,-227.5,202.5,,,,,202.5,M4,M,Raw,B,,1,,-227.5,
Piotr Strzała,1966,110.9,125,Poland,,,,,-185,185,190,190,,,,,190,M4,M,Raw,B,,1,,,
Georgijs Stoļerovs,1970,79.1,82.5,Latvia,,,,,157.5,162.5,-170,162.5,,,,,162.5,M3,M,Raw,B,,2,,,
Marek Strzałkowski,1959,92.2,100,Poland,,,,,145,-150,150,150,,,,,150,M5,M,Raw,B,,3,,,
Dezső Korom Sr,1971,82.5,82.5,Hungary,,,,,165,170,-175,170,,,,,170,M3,M,Raw,B,,1,,,
Attila Jeremiás,1942,87.3,90,Hungary,,,,,85,-95,97.5,97.5,,,,,97.5,M9,M,Raw,B,,2,,,
Miklós Pomázi,1963,94.5,100,Hungary,,,,,160,-172.5,-172.5,160,,,,,160,M5,M,Raw,B,,2,,,
Jozef Kišš,1975,96,100,Slovakia,,,,,190,197.5,-200,197.5,,,,,197.5,M2,M,Raw,B,,3,,,
Imre Élő József,1942,85.6,90,Hungary,,,,,-90,90,97.5,97.5,,,,,97.5,M9,M,Raw,B,,1,,,
Zsolt Karlik,1972,74.1,75,Hungary,,,,,150,155,,155,,,,,155,M3,M,Raw,B,,1,,,
František Štěpánek,1978,91.8,100,Czechia,,,,,195,200,-205,200,,,,,200,M2,M,Raw,B,,2,,,
Imrich Vörös,1984,182,140+,Slovakia,,,,,235,245,250,250,,,,,250,M1,M,Raw,B,,1,,,
László Horváth,1972,129.5,140,Hungary,,,,,195,202.5,205,205,,,,,205,M3,M,Raw,B,,1,,,
Pavel Žibrita,1970,121.3,125,Czechia,,,,,-192.5,195,-200,195,,,,,195,M3,M,Raw,B,,1,,,
László Jobbágy,1947,80.5,82.5,Hungary,,,,,100,-110,,100,,,,,100,M8,M,Raw,B,,1,,,
Ryszard Wilczak,1955,101.5,110,Poland,,,,,135,-140,140,140,,,,,140,M6,M,Raw,B,,2,,,
Zsolt Kotrócz,1967,87.2,90,Hungary,,,,,145,155,160,160,,,,,160,M4,M,Raw,B,,1,,,
József Tóth,1974,97.1,100,Hungary,,,,,190,-202.5,,190,,,,,190,M3,M,Raw,B,,3,,,
Miroslav Kolek,1954,90.9,100,Czechia,,,,,115,120,125,125,,,,,125,M7,M,Raw,B,,2,,,
Sándor Vörös,1975,141,140+,Slovakia,,,,,195,210,-227.5,210,,,,,210,M2,M,Raw,B,,2,,,
Valery Tomilov,1965,100.7,110,Israel,,,,,145,155,162.5,162.5,,,,,162.5,M4,M,Raw,B,,3,,,
Vojtech Lázók,1968,117.7,125,Slovakia,,,,,170,180,-187.5,180,,,,,180,M4,M,Raw,B,,2,,,
Assirelli Marc,1948,94.5,100,France,,,,,90,-100,110,110,,,,,110,M8,M,Raw,B,,1,,,
Tomas Drevnickis,1979,130.2,140,Lithuania,,,,,205,215,-225,215,,,,,215,M2,M,Raw,B,,1,,,
Jozef Matej,1954,99.5,100,Slovakia,,,,,120,125,127.5,127.5,,,,,127.5,M7,M,Raw,B,,1,,,
István Répás,1977,66.4,67.5,Hungary,,,,,135,140,-143,140,,,,,140,M2,M,Raw,B,,1,,,
Erick Christiano Gattoni Saukas,1976,80.6,82.5,Brazil,,,,,155,162.5,165,165,,,,,165,M2,M,Raw,B,,2,,,
Marcel Baláž,1977,107.9,110,Slovakia,,,,,180,190,195,195,,,,,195,M2,M,Raw,B,,2,,,
Péter Barkó,1974,80.1,82.5,Hungary,,,,,147.5,157.5,-160,157.5,,,,,157.5,M3,M,Raw,B,,3,,,
Stefano Pavia,1961,97.5,100,Italy,,,,,135,142.5,-147.5,142.5,,,,,142.5,M5,M,Raw,B,,5,,,
Sławomír Purta,1973,89.3,90,Poland,,,,,167.5,-172.5,-172.5,167.5,,,,,167.5,M3,M,Raw,B,,1,,,
Felipe Irlei,1970,121.7,125,Brazil,,,,,165,175,180,180,,,,,180,M3,M,Raw,B,,2,,,
Krzysztof Kozielski,1962,95.1,100,Poland,,,,,130,137.5,142.5,142.5,,,,,142.5,M5,M,Raw,B,,4,,,
László Németh,1980,95.8,100,Hungary,,,,,185,190,-195,190,,,,,190,M1,M,Raw,B,,2,,,
Spas Razhankov,1977,84.2,90,Bulgaria,,,,,-162.5,162.5,167.5,167.5,,,,,167.5,M2,M,Raw,B,,1,,,
Samek Gąsienica Stanisław,1983,89.9,90,Poland,,,,,182.5,187.5,-195,187.5,,,,,187.5,M1,M,Raw,B,,1,,,
István Szeifert,1977,100.7,110,Hungary,,,,,175,185,-195,185,,,,,185,M2,M,Raw,B,,3,,,
Sebastian Niedziela,1979,82.2,82.5,Poland,,,,,160,165,167.5,167.5,,,,,167.5,M2,M,Raw,B,,1,,,
Vincent Karička,1967,72.9,75,Slovakia,,,,,-115,117.5,125,125,,,,,125,M4,M,Raw,B,,1,,,
Stefan Fekken,1981,110.8,125,Germany,,,,,190,-200,200,200,,,,,200,M1,M,Raw,B,,1,,,
Gavin Rafferty,1981,99.7,100,UK,,,,,180,-190,192.5,192.5,,,,,192.5,M1,M,Raw,B,,1,,,
Csaba Molnár,1964,133.3,140,Hungary,,,,,160,,,160,,,,,160,M5,M,Raw,B,,1,,,
Lazar Zahariev,1979,122.5,125,North Macedonia,,,,,190,-200,200,200,,,,,200,M2,M,Raw,B,,1,,,
Vladan Zapletal,1971,87.9,90,Czechia,,,,,150,155,-160,155,,,,,155,M3,M,Raw,B,,2,,,
Andreas Donath,1984,89.4,90,Germany,,,,,180,185,-192.5,185,,,,,185,M1,M,Raw,B,,2,,,
István Kucsera,1954,86.8,90,Hungary,,,,,110,-130,,110,,,,,110,M7,M,Raw,B,,1,,,
Radovan Tellner,1981,139,140,Czechia,,,,,190,-205,205,205,,,,,205,M1,M,Raw,B,,1,,,
Mieczysłąw Maczka,1954,82.5,82.5,Germany,,,,,100,105,,105,,,,,105,M7,M,Raw,B,,1,,,
Gábor Minya,1969,138.2,140,Hungary,,,,,165,175,-177.5,175,,,,,175,M3,M,Raw,B,,2,,,
Boško Stamenkovski,1971,82.1,82.5,North Macedonia,,,,,-140,140,145,145,,,,,145,M3,M,Raw,B,,4,,,
Roman Růžička,1965,101.9,110,Czechia,,,,,137.5,142.5,147.5,147.5,,,,,147.5,M4,M,Raw,B,,4,,,
Davtuna Mzhavanadze,1972,110,110,Georgia,,,,,150,162.5,170,170,,,,,170,M3,M,Raw,B,,2,,,
Vladimír Kúdelka,1980,79.3,82.5,Slovakia,,,,,145,155,157.5,157.5,,,,,157.5,M1,M,Raw,B,,1,,,
Béla Serfőző,1964,106.2,110,Hungary,,,,,135,140,145,145,,,,,145,M5,M,Raw,B,,1,,,
Marcin Szreiber,1981,86.9,90,Poland,,,,,165,170,-172.5,170,,,,,170,M1,M,Raw,B,,3,,,
Gábor Teleki Zsolt,1953,82.5,82.5,Hungary,,,,,90,95,100,100,,,,,100,M7,M,Raw,B,,2,,,
Jozef Gabrhel,1955,72.9,75,Slovakia,,,,,90,95,,95,,,,,95,M6,M,Raw,B,,1,,,
Gyula Ujvári,1978,133.8,140,Hungary,,,,,180,185,190,190,,,,,190,M2,M,Raw,B,,2,,,
Igors Marudins,1975,81.2,82.5,Latvia,,,,,130,140,150,150,,,,,150,M2,M,Raw,B,,3,,,
Mihails Rekaikins,1976,99.1,100,Latvia,,,,,160,170,-177.5,170,,,,,170,M2,M,Raw,B,,4,,,
Milan Greguš,1968,100,100,Czechia,,,,,140,147.5,150,150,,,,,150,M4,M,Raw,B,,2,,,
Artur Średniawski,1967,66.8,67.5,Poland,,,,,95,107.5,-117.5,107.5,,,,,107.5,M4,M,Raw,B,,1,,,
Marcel Gorgas,1983,132.1,140,Germany,,,,,200,-205,-205,200,,,,,200,M1,M,Raw,B,,2,,,
Piotr Podgórski,1968,131.6,140,Poland,,,,,150,160,-170,160,,,,,160,M4,M,Raw,B,,1,,,
Imre Nagy,1962,102.1,110,Hungary,,,,,120,135,-140,135,,,,,135,M5,M,Raw,B,,2,,,
Grzegorz Kantor,1972,140.3,140+,Poland,,,,,160,170,-172.5,170,,,,,170,M3,M,Raw,B,,1,,,
Ferenc Klemm,1979,112.5,125,Hungary,,,,,170,180,-185,180,,,,,180,M1,M,Raw,B,,2,,,
Tamás Marosán Sr,1975,73.5,75,Hungary,,,,,125,130,-135,130,,,,,130,M2,M,Raw,B,,1,,,
Pál Kovács,1962,141.8,140+,Hungary,,,,,130,135,140,140,,,,,140,M5,M,Raw,B,,1,,-142.5,
László Göbölös,1963,72.9,75,Hungary,,,,,100,105,-107.5,105,,,,,105,M5,M,Raw,B,,1,,,
Károly Szalay,1977,96,100,Hungary,,,,,160,-170,-170,160,,,,,160,M2,M,Raw,B,,5,,,
Ľudovít Fürješ,1972,139.7,140,Slovakia,,,,,150,-160,160,160,,,,,160,M3,M,Raw,B,,3,,,
Pavel Vechter,1976,73.5,75,Slovakia,,,,,125,-127.5,-127.5,125,,,,,125,M2,M,Raw,B,,2,,,
Krzysztof Halczyk,1974,122.1,125,Poland,,,,,150,160,162.5,162.5,,,,,162.5,M2,M,Raw,B,,2,,,
Károly Willand,1972,106.6,110,Hungary,,,,,145,-160,-160,145,,,,,145,M3,M,Raw,B,,3,,,
Peter Herák,1960,90.8,100,Slovakia,,,,,105,110,-115,110,,,,,110,M5,M,Raw,B,,6,,,
Andrzej Juraszek,1977,96.1,100,Poland,,,,,145,150,,150,,,,,150,M2,M,Raw,B,,6,,,
Robert Sielicki,1964,80,82.5,UK,,,,,100,-107.5,107.5,107.5,,,,,107.5,M4,M,Raw,B,,2,,,
Gábor Kovács,1962,87.5,90,Hungary,,,,,110,-115,-115,110,,,,,110,M5,M,Raw,B,,3,,,
Michal Jandora,1979,116.5,125,Czechia,,,,,160,-170,-170,160,,,,,160,M2,M,Raw,B,,3,,,
Norbert Deli,1981,84.1,90,Hungary,,,,,135,140,,140,,,,,140,M1,M,Raw,B,,4,,,
Ivan Polichetti,1981,107.7,110,Italy,,,,,140,145,150,150,,,,,150,M1,M,Raw,B,,1,,,
János Tóth,1974,59,60,Hungary,,,,,80,-85,-85,80,,,,,80,M3,M,Raw,B,,1,,,
Zdeno Pupiš,1964,81.7,82.5,Slovakia,,,,,85,90,95,95,,,,,95,M5,M,Raw,B,,1,,,
Dominik Lowas,1982,103.7,110,Poland,,,,,125,135,140,140,,,,,140,M1,M,Raw,B,,2,,,
Aleks Piciga,1981,74.4,75,Slovenia,,,,,100,107.5,110,110,,,,,110,M1,M,Raw,B,,1,,,
Karol Kornel Repiský,1964,137.5,140,Slovakia,,,,,110,,,110,,,,,110,M5,M,Raw,B,,2,,,
Jozef Bartek,1945,74.6,75,Slovakia,,,,,-55,-55,55,55,,,,,55,M8,M,Raw,B,,1,,,
Mihály Balázs,1983,111.4,125,Hungary,,,,,130,,,130,,,,,130,M1,M,Raw,B,,3,,,
Gracjan Podpora,1982,99.3,100,Poland,,,,,115,120,122.5,122.5,,,,,122.5,M1,M,Raw,B,,3,,,
Armando Pistilli,1969,84.2,90,Italy,,,,,85,-90,-92.5,85,,,,,85,M4,M,Raw,B,,2,,,
Marcin Czaja,1976,133.7,140,Poland,,,,,100,,,100,,,,,100,M2,M,Raw,B,,3,,,
Alfredo Haydaz,1973,107.8,110,Brazil,,,,,45,,,45,,,,,45,M3,M,Raw,B,,4,,,
Norbert Hajas,1972,76.9,82.5,,,,,,-155,-155,,,,,,,,M3,M,Raw,B,,DQ,,,
Stanislav Tůma,1977,89.1,90,Czechia,,,,,-155,-155,-155,,,,,,,M2,M,Raw,B,,DQ,,,
Sándor Vaszilkó,1982,104.9,110,Hungary,,,,,-170,,,,,,,,,M1,M,Raw,B,,DQ,,,
Ondřej Šťastný,1978,109.3,110,Czechia,,,,,-110,-110,,,,,,,,M2,M,Raw,B,,DQ,,,
Tomáš Chludil,1973,122.5,125,Czechia,,,,,-190,-190,,,,,,,,M3,M,Raw,B,,DQ,,,
Panna Kratofil,2008,64.9,67.5,Hungary,,,,,65,70,75,75,,,,,75,T2,F,Multi-ply,B,,1,,,
Ilka Németh,2004,124,110+,Hungary,,,,,80,90,95,95,,,,,95,J,F,Multi-ply,B,,1,,,
Marie Skřivánková,2002,76.4,82.5,Czechia,,,,,65,-75,-77.5,65,,,,,65,J,F,Multi-ply,B,,1,,,
Mónika Bazsó,1974,83.2,90,Hungary,,,,,140,170,,170,,,,,170,M3,F,Multi-ply,B,,1,,,
Erika Molnár,1977,69.5,75,Hungary,,,,,95,105,110,110,,,,,110,M2,F,Multi-ply,B,,1,,,
Astrid Fehr,1953,56.1,60,Germany,,,,,47.5,-50,50,50,,,,,50,M7,F,Multi-ply,B,,1,,,
Andrea Csuti,1975,93.9,110,Hungary,,,,,80,85,-90,85,,,,,85,M2,F,Multi-ply,B,,1,,,
Tál Lívia Némethné,1971,72.5,75,Hungary,,,,,65,,,65,,,,,65,M3,F,Multi-ply,B,,1,,,
Maximilián Pastva,2009,74.9,75,Slovakia,,,,,105,115,-122.5,115,,,,,115,T1,M,Multi-ply,B,,1,,,
Máté Balassa,2008,117.9,125,Hungary,,,,,110,120,,120,,,,,120,T2,M,Multi-ply,B,,1,,,
Oliver Krajčovič,2002,121.6,125,Slovakia,,,,,240,-260,-260,240,,,,,240,J,M,Multi-ply,B,,1,,,
Pavel Janíček,2002,80.8,82.5,Czechia,,,,,175,-185,-185,175,,,,,175,J,M,Multi-ply,B,,1,,,
Petr Matěna,2001,127.3,140,Czechia,,,,,170,185,200,200,,,,,200,J,M,Multi-ply,B,,1,,,
Lukacz Kaim,1988,113.6,125,Poland,,,,,320,-340,-340,320,,,,,320,O,M,Multi-ply,B,,1,,,
Bogusław Ufir,1993,68.5,75,Poland,,,,,225,-250,-255,225,,,,,225,O,M,Multi-ply,B,,1,,,
Imre Kadenszki,1993,98.2,100,Hungary,,,,,180,200,220,220,,,,,220,O,M,Multi-ply,B,,1,,,
Soma Rádóczi,1994,58.6,60,Hungary,,,,,120,130,,130,,,,,130,O,M,Multi-ply,B,,1,,,
Franciszek Szabluk,1956,98.2,100,Poland,,,,,230,-250,-250,230,,,,,230,M6,M,Multi-ply,B,,1,,,
Sebastian Dąbrowski,1980,95.6,100,Poland,,,,,-335,335,-375,335,,,,,335,M1,M,Multi-ply,B,,1,,,
Gábor Salamon,1978,160.1,140+,Hungary,,,,,300,320,360,360,,,,,360,M2,M,Multi-ply,B,,1,,,
Csaba Molnár,1964,133.3,140,Hungary,,,,,250,260,270,270,,,,,270,M5,M,Multi-ply,B,,1,,,
Károly Németh,1971,140.4,140+,Hungary,,,,,250,280,,280,,,,,280,M3,M,Multi-ply,B,,1,,,
Oļegs Illarionovs,1965,95,100,Latvia,,,,,210,230,-240,230,,,,,230,M4,M,Multi-ply,B,,1,,,
Attila Marosi,1972,97.6,100,Hungary,,,,,255,,,255,,,,,255,M3,M,Multi-ply,B,,1,,,
Ödön Hermész,1965,87.9,90,Hungary,,,,,205,-222.5,-222.5,205,,,,,205,M4,M,Multi-ply,B,,1,,,
Dave McGuinness,1979,103.4,110,Ireland,,,,,200,230,260,260,,,,,260,M2,M,Multi-ply,B,,1,,,
Róbert Csetényi,1977,89,90,Hungary,,,,,220,230,-250,230,,,,,230,M2,M,Multi-ply,B,,1,,,
György Bajzák,1983,102.1,110,Hungary,,,,,260,-265,-265,260,,,,,260,M1,M,Multi-ply,B,,1,,,
János Savanyú,1978,138,140,Hungary,,,,,-240,240,250,250,,,,,250,M2,M,Multi-ply,B,,1,,,
Péter Póhr,1979,85.9,90,Hungary,,,,,190,200,210,210,,,,,210,M2,M,Multi-ply,B,,2,,,
Darren Bennett,1984,109.1,110,Ireland,,,,,230,245,-262.5,245,,,,,245,M1,M,Multi-ply,B,,2,,,
Edward Homanowski,1976,105.5,110,Poland,,,,,220,-240,-270,220,,,,,220,M2,M,Multi-ply,B,,2,,,
György Wimmer,1969,88.8,90,Slovakia,,,,,-180,180,-207.5,180,,,,,180,M4,M,Multi-ply,B,,2,,,
Ákos Bugár,1972,107.3,110,Hungary,,,,,180,190,200,200,,,,,200,M3,M,Multi-ply,B,,1,,,
Nial McGuinness,1957,78.2,82.5,Ireland,,,,,110,120,125,125,,,,,125,M6,M,Multi-ply,B,,1,,,
Christian Stoebke,1976,88.9,90,Germany,,,,,170,175,180,180,,,,,180,M2,M,Multi-ply,B,,3,,,
József Rezicska,1983,79,82.5,Hungary,,,,,130,135,140,140,,,,,140,M1,M,Multi-ply,B,,1,,,
Klaudia Savanyu,2005,58.9,60,Hungary,,,,,80,90,-100,90,,,,,90,T3,F,Unlimited,B,,1,,,
Vanda Savanyú,2009,72.6,75,Hungary,,,,,80,90,95,95,,,,,95,T1,F,Unlimited,B,,1,,,
Lesley Jayne Thomas,1966,68.2,75,UK,,,,,95,100,-105,100,,,,,100,M4,F,Unlimited,B,,1,,,
Erika Molnár,1977,69.5,75,Hungary,,,,,100,108,-110,108,,,,,108,M2,F,Unlimited,B,,1,,,
Tál Lívia Némethné,1971,72.5,75,Hungary,,,,,80,-85,-85,80,,,,,80,M3,F,Unlimited,B,,1,,,
János Bialik,2000,133.2,140,Hungary,,,,,330,345,-347.5,345,,,,,345,J,M,Unlimited,B,,1,,,
Remigiusz Zwoliński,2003,103.8,110,Poland,,,,,-265,-275,,,,,,,,J,M,Unlimited,B,,DQ,,,
Dániel Oláh,1998,89.8,90,Hungary,,,,,330,-345,-345,330,,,,,330,O,M,Unlimited,B,,1,,,
Levente Péter Szakál,1989,107.2,110,Hungary,,,,,305,-320,-320,305,,,,,305,O,M,Unlimited,B,,1,,,
Tim Hausner,1998,105.6,110,Germany,,,,,200,212.5,-230,212.5,,,,,212.5,O,M,Unlimited,B,,2,,,
Dávid Kökényesy,2000,91.3,100,Hungary,,,,,-180,-180,180,180,,,,,180,O,M,Unlimited,B,,1,,,
Lajos Biró,1996,151.5,140+,Hungary,,,,,-400,-400,-400,,,,,,,O,M,Unlimited,B,,DQ,,,
Søren Bertelsen,1961,100.3,110,Denmark,,,,,-295,-300,300,300,,,,,300,M5,M,Unlimited,B,,1,,,
Ferenc Balázs,1970,104.7,110,Hungary,,,,,300,-307.5,-307.5,300,,,,,300,M3,M,Unlimited,B,,1,,,
Dave McGuinness,1979,103.4,110,Ireland,,,,,310,320,331,331,,,,,331,M2,M,Unlimited,B,,1,,,
Peter Rathke,1959,89.3,90,Germany,,,,,-200,200,222.5,222.5,,,,,222.5,M5,M,Unlimited,B,,1,,-230,
Daniel Kaufmann,1976,91.8,100,Germany,,,,,282.5,-312.5,-320,282.5,,,,,282.5,M2,M,Unlimited,B,,1,,,
Attila Marosi,1972,97.6,100,Hungary,,,,,-265,265,,265,,,,,265,M3,M,Unlimited,B,,1,,,
Károly Németh,1971,140.4,140+,Hungary,,,,,277.5,,,277.5,,,,,277.5,M3,M,Unlimited,B,,1,,,
Zoltán Győri,1975,96.9,100,Hungary,,,,,250,-260,-262.5,250,,,,,250,M2,M,Unlimited,B,,2,,,
János Savanyú,1978,138,140,Hungary,,,,,246,260,,260,,,,,260,M2,M,Unlimited,B,,1,,,
Nial McGuinness,1957,78.2,82.5,Ireland,,,,,125,-131,131,131,,,,,131,M6,M,Unlimited,B,,1,,132.5,
Tibor Horváth,1956,102.3,110,Hungary,,,,,150,,,150,,,,,150,M6,M,Unlimited,B,,1,,,
Jozef Kopálek,1982,118.3,125,Slovakia,,,,,230,240,-250,240,,,,,240,M1,M,Unlimited,B,,1,,,
Ákos Bugár,1973,107.3,110,Hungary,,,,,200,,,200,,,,,200,M3,M,Unlimited,B,,2,,,
Richárd Dominkó,1978,122.3,125,Hungary,,,,,-200,200,,200,,,,,200,M2,M,Unlimited,B,,1,,,
Róbert Csetényi,1977,89,90,Hungary,,,,,-280,-280,-280,,,,,,,M2,M,Unlimited,B,,DQ,,,
David Thomas #4,1951,110.4,125,UK,,,,,,,,,,,,,,M7,M,Unlimited,B,,DQ,,,
Ernő Eck,1972,127.2,140,Hungary,,,,,-352.5,-352.5,,,,,,,,M3,M,Unlimited,B,,DQ,,,
Csaba Molnár,1964,133.3,140,Hungary,,,,,-310,-310,,,,,,,,M5,M,Unlimited,B,,DQ,,,
Tereza Pivoňková,2005,66.4,67.5,Czechia,,,,,,,,,,,,160,160,T3,F,Raw,D,,1,,,
Fabiana Conflitti,2007,52.5,56,Italy,,,,,,,,,,,,125,125,T2,F,Raw,D,,1,,,-140.5
Joanna Mosor,2006,89.2,90,Poland,,,,,,,,,,,,172.5,172.5,T3,F,Raw,D,,1,,,
Lilla Adamik,2009,41.9,44,Hungary,,,,,,,,,,,,90,90,T1,F,Raw,D,,1,,,
Gabriela Hatlas,2008,45.3,48,Poland,,,,,,,,,,,,90,90,T2,F,Raw,D,,1,,,
Gréta Tadanaj,2009,72.9,75,Hungary,,,,,,,,,,,,137.5,137.5,T1,F,Raw,D,,1,,,
Simona Vokounová,2004,64.3,67.5,Czechia,,,,,,,,,,,,117.5,117.5,T3,F,Raw,D,,2,,,
Ana Laura Bedin,2006,59.4,60,Brazil,,,,,,,,,,,,110,110,T3,F,Raw,D,,1,,,
Aleksandra Jarończyk,2008,59.7,60,Poland,,,,,,,,,,,,110,110,T2,F,Raw,D,,1,,,
Tamara Bugár,2007,82.3,82.5,Hungary,,,,,,,,,,,,127.5,127.5,T2,F,Raw,D,,1,,,
Monika Kačmárová,2006,57.7,60,Slovakia,,,,,,,,,,,,100,100,T2,F,Raw,D,,2,,,
Simona Onuferová,2009,65.8,67.5,Slovakia,,,,,,,,,,,,110,110,T1,F,Raw,D,,1,,,-123
Vanesa Džopková,2005,60,60,Slovakia,,,,,,,,,,,,87.5,87.5,T3,F,Raw,D,,2,,,
Helena Wyrozębska,2011,64.5,67.5,Poland,,,,,,,,,,,,80,80,T1,F,Raw,D,,2,,,
Petra Orovecz,2004,66,67.5,Hungary,,,,,,,,,,,,,,T3,F,Raw,D,,DQ,,,
Magdalena Szpila,2002,49.4,52,Poland,,,,,,,,,,,,132.5,132.5,J,F,Raw,D,,1,,,
Petra Patai,2004,65.9,67.5,Hungary,,,,,,,,,,,,165,165,J,F,Raw,D,,1,,,-167
Francesca Tedesco,2004,51.7,52,Italy,,,,,,,,,,,,130,130,J,F,Raw,D,,2,,,
Ilona Czinkó,2004,68.6,75,Hungary,,,,,,,,,,,,142.5,142.5,J,F,Raw,D,,1,,,
Vivien Hüse,2000,68.3,75,Hungary,,,,,,,,,,,,140,140,J,F,Raw,D,,2,,,
Mercédesz Pankovics,2004,54.7,56,Hungary,,,,,,,,,,,,115,115,J,F,Raw,D,,1,,,
Simona Rančev,2002,58.8,60,Czechia,,,,,,,,,,,,117.5,117.5,J,F,Raw,D,,1,,,
Tereza Šimková,2004,93.7,110,Czechia,,,,,,,,,,,,145,145,J,F,Raw,D,,1,,,
Charlotte Metcalfe,2004,64.2,67.5,UK,,,,,,,,,,,,112.5,112.5,J,F,Raw,D,,2,,,
Viktória Angyal,2003,66.6,67.5,Hungary,,,,,,,,,,,,105,105,J,F,Raw,D,,3,,,
Tinna Pálsdóttir,1987,65,67.5,Iceland,,,,,,,,,,,,225,225,O,F,Raw,D,,1,,,-230
Jana Vašková,1994,81.8,82.5,Slovakia,,,,,,,,,,,,225,225,O,F,Raw,D,,1,,,-234
Veronika Strolená,1985,80.6,82.5,Czechia,,,,,,,,,,,,182.5,182.5,O,F,Raw,D,,2,,,
Stella Širmerová,1999,51.3,52,Czechia,,,,,,,,,,,,120,120,O,F,Raw,D,,1,,,
Lilla Bodon,1992,53.9,56,Slovakia,,,,,,,,,,,,120,120,O,F,Raw,D,,1,,,
Eva Padová,1990,59.4,60,Slovakia,,,,,,,,,,,,125,125,O,F,Raw,D,,1,,,
Zsófia Blaskó,1998,95.3,110,Hungary,,,,,,,,,,,,152.5,152.5,O,F,Raw,D,,1,,,
Ivana Šprochová,1985,55.6,56,Slovakia,,,,,,,,,,,,110,110,O,F,Raw,D,,2,,,
Petra Pokorná,1988,127.1,110+,Czechia,,,,,,,,,,,,175,175,O,F,Raw,D,,1,,,
Nataly Barbosa,1971,70,75,South Africa,,,,,,,,,,,,200,200,M3,F,Raw,D,,1,,,
Ana Catia Portilho Couto,1966,72,75,Brazil,,,,,,,,,,,,172.5,172.5,M4,F,Raw,D,,1,,,
Ester Cichá,1970,55.2,56,Czechia,,,,,,,,,,,,140,140,M3,F,Raw,D,,1,,,
Almira Lizde,1982,88.4,90,Bosnia and Herzegovina,,,,,,,,,,,,210,210,M1,F,Raw,D,,1,,,
Kati Györökné,1973,54.1,56,Hungary,,,,,,,,,,,,135,135,M3,F,Raw,D,,2,,,
Dragomir Dóra Stáhlné,1977,67.1,67.5,Hungary,,,,,,,,,,,,150,150,M2,F,Raw,D,,1,,,
Judit Poliák,1973,50.5,52,Hungary,,,,,,,,,,,,102.5,102.5,M3,F,Raw,D,,1,,,
Brigitte Maczka,1961,65.5,67.5,Germany,,,,,,,,,,,,102.5,102.5,M5,F,Raw,D,,1,,,
Sörös Andrea Megyesiné,1979,62.7,67.5,Hungary,,,,,,,,,,,,132.5,132.5,M2,F,Raw,D,,2,,,
Eva Strnadová,1983,52.2,56,Czechia,,,,,,,,,,,,115,115,M1,F,Raw,D,,1,,,
Květuše Baranovičová,1953,61.3,67.5,Slovakia,,,,,,,,,,,,80,80,M7,F,Raw,D,,1,,,
Tímea Ujvári,1980,84.2,90,Hungary,,,,,,,,,,,,150,150,M1,F,Raw,D,,2,,,
Jana Janoušková,1960,59,60,Czechia,,,,,,,,,,,,85,85,M5,F,Raw,D,,1,,,
Anita Melinda Danicser,1979,94.1,110,Hungary,,,,,,,,,,,,150,150,M2,F,Raw,D,,1,,,
Melinda Derdák,1975,78.2,82.5,Hungary,,,,,,,,,,,,130,130,M2,F,Raw,D,,1,,,
Hannah Webb-Cameron,1983,95,110,New Zealand,,,,,,,,,,,,155,155,M1,F,Raw,D,,1,,,
Rossana Da Rocha Frasso Corrêa,1981,49.2,52,Brazil,,,,,,,,,,,,70,70,M1,F,Raw,D,,1,,,75
Josef Scholz,2006,74.9,75,Czechia,,,,,,,,,,,,260,260,T3,M,Raw,D,,1,,,
Rocco Struglia,2007,66.8,67.5,Italy,,,,,,,,,,,,220,220,T2,M,Raw,D,,1,,,
Jozef Suchánek,2006,71.7,75,Slovakia,,,,,,,,,,,,210,210,T3,M,Raw,D,,2,,,
Benjámin Balogh,2006,78,82.5,Hungary,,,,,,,,,,,,225,225,T3,M,Raw,D,,1,,,
Chakhvadze Soso,2005,103.9,110,Georgia,,,,,,,,,,,,265,265,T3,M,Raw,D,,1,,,
Zsolt János Dankó,2006,87.1,90,Hungary,,,,,,,,,,,,235,235,T3,M,Raw,D,,1,,,
Jakub Jarończyk,2005,103.1,110,Poland,,,,,,,,,,,,250,250,T3,M,Raw,D,,2,,,
Bence Török,2006,77.7,82.5,Hungary,,,,,,,,,,,,205,205,T3,M,Raw,D,,3,,,
Adam Harom,2006,81.1,82.5,Slovakia,,,,,,,,,,,,210,210,T3,M,Raw,D,,2,,,
Ján Christopher Kónya,2009,75,75,Slovakia,,,,,,,,,,,,190,190,T1,M,Raw,D,,1,,,
Daniel Tomek,2008,73.2,75,Czechia,,,,,,,,,,,,185,185,T2,M,Raw,D,,1,,,
Bartlomiej Petk,2005,87.9,90,Poland,,,,,,,,,,,,212.5,212.5,T3,M,Raw,D,,2,,,
Szymon Krok,2008,62.3,67.5,Poland,,,,,,,,,,,,150,150,T2,M,Raw,D,,2,,,
Zénó Czinkó,2009,72.2,75,Hungary,,,,,,,,,,,,170,170,T1,M,Raw,D,,2,,,
Tomáš Marko,2006,102.6,110,Slovakia,,,,,,,,,,,,217.5,217.5,T3,M,Raw,D,,3,,,
Jan Karbowiak,2005,94.9,100,Poland,,,,,,,,,,,,210,210,T3,M,Raw,D,,1,,,
Peter Ladislav Berky,2006,92.4,100,Slovakia,,,,,,,,,,,,205,205,T3,M,Raw,D,,2,,,
Filip Legutko,2008,83.7,90,Poland,,,,,,,,,,,,190,190,T2,M,Raw,D,,1,,,
Maximilián Pastva,2009,75,75,Slovakia,,,,,,,,,,,,165,165,T1,M,Raw,D,,3,,,
Dávid Mužík,2008,77.5,82.5,Slovakia,,,,,,,,,,,,170,170,T2,M,Raw,D,,1,,,
Adrián Fikner,2005,80.3,82.5,Hungary,,,,,,,,,,,,170,170,T3,M,Raw,D,,4,,,
Róbert Šimko Jr,2010,62.6,67.5,Slovakia,,,,,,,,,,,,132.5,132.5,T1,M,Raw,D,,1,,,
Attila Vámosi,2005,107.1,110,Hungary,,,,,,,,,,,,200,200,T3,M,Raw,D,,4,,,
Samuel Rauch,2008,78.2,82.5,Slovakia,,,,,,,,,,,,160,160,T2,M,Raw,D,,2,,,
Samuel Savka,2007,73.1,75,Slovakia,,,,,,,,,,,,150,150,T2,M,Raw,D,,2,,,
Alessandro Croce,2010,70.2,75,Italy,,,,,,,,,,,,137.5,137.5,T1,M,Raw,D,,4,,,
Márk Tóth,2009,122.4,125,Hungary,,,,,,,,,,,,190,190,T1,M,Raw,D,,1,,,-200
Tomasz Palarz,2009,77.5,82.5,Poland,,,,,,,,,,,,150,150,T1,M,Raw,D,,1,,,
Jan Haberny,2008,79.1,82.5,Poland,,,,,,,,,,,,140,140,T2,M,Raw,D,,3,,,
Adam Hutta,2009,98,100,Slovakia,,,,,,,,,,,,155,155,T1,M,Raw,D,,1,,,
Luka Diasamidze,2008,79.1,82.5,Georgia,,,,,,,,,,,,130,130,T2,M,Raw,D,,4,,,
Mark Lutsyshyn,2009,81.2,82.5,Czechia,,,,,,,,,,,,130,130,T1,M,Raw,D,,2,,,
Dmytro Kovtoniuk,2008,72.6,75,Georgia,,,,,,,,,,,,100,100,T2,M,Raw,D,,3,,,
Jakub Kružliak,2001,101.4,110,Slovakia,,,,,,,,,,,,267.5,267.5,J,M,Raw,D,,2,,,
Szymon Skrudlik,2001,71.8,75,Poland,,,,,,,,,,,,207.5,207.5,J,M,Raw,D,,1,,,
David Mareš,2001,80.4,82.5,Czechia,,,,,,,,,,,,230,230,J,M,Raw,D,,1,,,
Petr Kalčík,2000,80.6,82.5,Czechia,,,,,,,,,,,,230,230,J,M,Raw,D,,2,,,
Oliver Sidorjak,2003,109.2,110,Slovakia,,,,,,,,,,,,270,270,J,M,Raw,D,,1,,,
Mattia Mariani,2004,73.7,75,Italy,,,,,,,,,,,,200,200,J,M,Raw,D,,2,,,
Adam Sokol,2003,80.5,82.5,Czechia,,,,,,,,,,,,210,210,J,M,Raw,D,,3,,,
Simone Tisi,2001,62.6,67.5,Italy,,,,,,,,,,,,150,150,J,M,Raw,D,,1,,,
Daniel Kmetík,2002,110.5,125,Slovakia,,,,,,,,,,,,220,220,J,M,Raw,D,,1,,,
Elias Bersgset,2001,118.1,125,Norway,,,,,,,,,,,,220,220,J,M,Raw,D,,2,,,
Bence Eklics,2003,97,100,Hungary,,,,,,,,,,,,,,J,M,Raw,D,,DQ,,,
Denis Jarma,1999,60.7,67.5,Czechia,,,,,,,,,,,,240,240,O,M,Raw,D,,1,,,
Dušan Jovanović,1992,107.9,110,Serbia,,,,,,,,,,,,360,360,O,M,Raw,D,,1,,,
Lubomír Teplý,2000,74.6,75,Czechia,,,,,,,,,,,,270,270,O,M,Raw,D,,1,,,
Jiří Balabán,1995,81.2,82.5,Czechia,,,,,,,,,,,,282.5,282.5,O,M,Raw,D,,1,,,
Danijel Parac,1994,67.2,67.5,Croatia,,,,,,,,,,,,235,235,O,M,Raw,D,,2,,,
Tomáš Halaj,1993,150.2,140+,Slovakia,,,,,,,,,,,,350,350,O,M,Raw,D,,1,,,
Juraj Kačmárik,1985,117.1,125,Slovakia,,,,,,,,,,,,325,325,O,M,Raw,D,,1,,,
Szabolcs Szatmári,1992,96.5,100,Hungary,,,,,,,,,,,,300,300,O,M,Raw,D,,1,,,
Jakub Telička,1998,105.3,110,Czechia,,,,,,,,,,,,305,305,O,M,Raw,D,,2,,,
Vojtěch Semerád,1994,89.5,90,Czechia,,,,,,,,,,,,280,280,O,M,Raw,D,,1,,,
Miklós Mátyás Müller,1999,65.1,67.5,Hungary,,,,,,,,,,,,210,210,O,M,Raw,D,,3,,,
Pál Tóth,1991,90,90,Hungary,,,,,,,,,,,,275,275,O,M,Raw,D,,2,,,
Tamás Kurcz,1988,127.7,140,Hungary,,,,,,,,,,,,310,310,O,M,Raw,D,,1,,,
Daniel Devine,1988,107.6,110,Ireland,,,,,,,,,,,,292.5,292.5,O,M,Raw,D,,3,,,
Róbert Šimko Sr,1986,146.1,140+,Slovakia,,,,,,,,,,,,310,310,O,M,Raw,D,,2,,,
Ivan Dávid,1996,89.3,90,Slovakia,,,,,,,,,,,,255,255,O,M,Raw,D,,3,,,
Erik Karvai,1987,92.2,100,Slovakia,,,,,,,,,,,,260,260,O,M,Raw,D,,2,,,
Roland Szabó,1996,86.6,90,Hungary,,,,,,,,,,,,247.5,247.5,O,M,Raw,D,,4,,,
Luciano Lambarella,1998,76.8,82.5,,,,,,,,,,,,,225,225,O,M,Raw,D,,2,,,
Lajos Biró,1996,151.1,140+,Hungary,,,,,,,,,,,,287.5,287.5,O,M,Raw,D,,3,,,
László Bujdosó,1993,122.1,125,Hungary,,,,,,,,,,,,270,270,O,M,Raw,D,,2,,,
Ján Gribanič,1995,73.9,75,Slovakia,,,,,,,,,,,,200,200,O,M,Raw,D,,2,,,
Vojtěch Žemba,1997,90,90,Czechia,,,,,,,,,,,,220,220,O,M,Raw,D,,5,,,
Tomáš Thüringer,1989,162.7,140+,Slovakia,,,,,,,,,,,,250,250,O,M,Raw,D,,4,,,
Csaba Csenteri,1990,63.1,67.5,Hungary,,,,,,,,,,,,130,130,O,M,Raw,D,,4,,,
Ondřej Kratochvíl,1985,107.5,110,Czechia,,,,,,,,,,,,,,O,M,Raw,D,,DQ,,,
Carlo Aniello Ricci,1947,64.9,67.5,Italy,,,,,,,,,,,,167.5,167.5,M8,M,Raw,D,,1,,,
Ladislau Kiss,1948,93.7,100,Hungary,,,,,,,,,,,,230,230,M8,M,Raw,D,,1,,,
Lee Marshall,1959,113.6,125,UK,,,,,,,,,,,,275,275,M6,M,Raw,D,,1,,,282.5
Józef Bejgrowicz,1952,81.5,82.5,Poland,,,,,,,,,,,,190,190,M7,M,Raw,D,,1,,,
Stefan Sochaňski,1948,81.3,82.5,Poland,,,,,,,,,,,,175,175,M8,M,Raw,D,,1,,,
Józef Sokołowski,1955,108.2,110,Poland,,,,,,,,,,,,220,220,M6,M,Raw,D,,1,,,
Evandro Casa Grande,1970,109,110,Brazil,,,,,,,,,,,,292.5,292.5,M3,M,Raw,D,,1,,,
Peter Herák,1960,88,90,Slovakia,,,,,,,,,,,,220,220,M5,M,Raw,D,,1,,,
Mbarim Mehmeti,1982,71.6,75,Albania,,,,,,,,,,,,255,255,M1,M,Raw,D,,1,,,
Tomáš Šesták,1973,74.4,75,Czechia,,,,,,,,,,,,230,230,M3,M,Raw,D,,1,,,
Tibor Gejdoš,1963,104.3,110,Slovakia,,,,,,,,,,,,245,245,M5,M,Raw,D,,1,,,
József Imre Kovács,1948,88.5,90,Hungary,,,,,,,,,,,,160,160,M8,M,Raw,D,,1,,,
Robert Brasseur,1961,111.2,125,France,,,,,,,,,,,,230,230,M5,M,Raw,D,,1,,,
Brian Harte,1969,74.9,75,Ireland,,,,,,,,,,,,210,210,M4,M,Raw,D,,1,,,
Zdeněk Brauner,1972,96.5,100,Czechia,,,,,,,,,,,,265,265,M3,M,Raw,D,,1,,,
Adam Švehla,1981,134.1,140,Czechia,,,,,,,,,,,,327.5,327.5,M1,M,Raw,D,,1,,,
Petr Rambousek,1964,84.2,90,Czechia,,,,,,,,,,,,210,210,M5,M,Raw,D,,2,,,
Jiří Táborský,1963,97.4,100,Czechia,,,,,,,,,,,,225,225,M5,M,Raw,D,,1,,,
Davtuna Mzhavanadze,1972,107,110,Georgia,,,,,,,,,,,,272.5,272.5,M3,M,Raw,D,,2,,,
Marián Csadi,1974,92.2,100,Slovakia,,,,,,,,,,,,260,260,M3,M,Raw,D,,2,,,
Robert Nemś,1969,116,125,Poland,,,,,,,,,,,,260,260,M4,M,Raw,D,,1,,,
Angelo Finelli,1975,67.5,67.5,Italy,,,,,,,,,,,,200,200,M2,M,Raw,D,,1,,,205
Jozef Gabrhel,1955,72,75,Slovakia,,,,,,,,,,,,150,150,M6,M,Raw,D,,1,,,
Pál Gubicza,1980,119.9,125,Hungary,,,,,,,,,,,,305,305,M1,M,Raw,D,,1,,,
Ben Kelly,1980,81.2,82.5,Ireland,,,,,,,,,,,,250,250,M1,M,Raw,D,,1,,,
Tibor Karalyos,1973,137.7,140,Hungary,,,,,,,,,,,,280,280,M3,M,Raw,D,,1,,,
Ferenc Som,1974,119.5,125,Hungary,,,,,,,,,,,,270,270,M2,M,Raw,D,,1,,,
Vlastimil Yacoub Bandík,1981,74.9,75,Slovakia,,,,,,,,,,,,220,220,M1,M,Raw,D,,2,,,
Tibor Bulátkó,1975,108.5,110,Hungary,,,,,,,,,,,,255,255,M2,M,Raw,D,,1,,,
Štefan Elischer,1982,109.3,110,Slovakia,,,,,,,,,,,,280,280,M1,M,Raw,D,,1,,,
József Kovács,1977,88.2,90,Hungary,,,,,,,,,,,,235,235,M2,M,Raw,D,,1,,,
Mieczysłąw Maczka,1954,82.5,82.5,Germany,,,,,,,,,,,,142.5,142.5,M7,M,Raw,D,,2,,,
Ramaz Gabaidze,1982,101.5,110,Georgia,,,,,,,,,,,,255,255,M1,M,Raw,D,,2,,,
Lajos Bán,1976,107.2,110,Hungary,,,,,,,,,,,,240,240,M2,M,Raw,D,,2,,,
Jaroslav Troníček,1971,109.4,110,Czechia,,,,,,,,,,,,220,220,M3,M,Raw,D,,3,,,
Attila Heizer,1965,97,100,Hungary,,,,,,,,,,,,190,190,M4,M,Raw,D,,1,,,
Marcel Vasilenko,1979,95.9,100,Slovakia,,,,,,,,,,,,230,230,M2,M,Raw,D,,1,,,
Adam Barkman,1970,89.4,90,Ireland,,,,,,,,,,,,192.5,192.5,M3,M,Raw,D,,2,,,
János Illés,1972,88.8,90,Hungary,,,,,,,,,,,,197.5,197.5,M3,M,Raw,D,,1,,,
Ákos Takács,1976,109.3,110,Hungary,,,,,,,,,,,,230,230,M2,M,Raw,D,,3,,,
Zdeno Pupiš,1964,81.2,82.5,Slovakia,,,,,,,,,,,,160,160,M5,M,Raw,D,,1,,,
Dariusz Zwoliński,1974,84.7,90,Poland,,,,,,,,,,,,190,190,M2,M,Raw,D,,2,,,
Martin Martinka,1975,91.7,100,Slovakia,,,,,,,,,,,,200,200,M2,M,Raw,D,,2,,,
Pietro Molinari,1975,95.9,100,Italy,,,,,,,,,,,,200,200,M2,M,Raw,D,,3,,,
Aleks Piciga,1981,74.1,75,Slovenia,,,,,,,,,,,,180,180,M1,M,Raw,D,,3,,,
Mariusz Wyrozębski,1980,156.4,140+,Poland,,,,,,,,,,,,240,240,M1,M,Raw,D,,1,,,
Martin Sýkora,1983,85.1,90,Czechia,,,,,,,,,,,,200,200,M1,M,Raw,D,,1,,,
Spas Razhankov,1977,82.3,82.5,Bulgaria,,,,,,,,,,,,180,180,M2,M,Raw,D,,1,,,
Marcin Musiał,1977,112.1,125,Poland,,,,,,,,,,,,210,210,M2,M,Raw,D,,2,,,
Pascquale Ricci,1978,59.6,60,Italy,,,,,,,,,,,,130,130,M2,M,Raw,D,,1,,,
Ondrej Döme,1955,90.7,100,Slovakia,,,,,,,,,,,,130,130,M6,M,Raw,D,,1,,,
Francisco Teles,1968,108.6,110,Brazil,,,,,,,,,,,,180,180,M4,M,Raw,D,,1,,,
Imre Hajdú-Kemény,1966,133,140,Hungary,,,,,,,,,,,,175,175,M4,M,Raw,D,,1,,,
Mihály Balázs,1983,111.7,125,Hungary,,,,,,,,,,,,210,210,M1,M,Raw,D,,2,,,
Jozej Bartek,1945,73.6,75,Slovakia,,,,,,,,,,,,80,80,M8,M,Raw,D,,1,,,
Konstantin Glok,1975,89.7,90,Germany,,,,,,,,,,,,165,165,M2,M,Raw,D,,3,,,
Gábor Kovács,1962,87.8,90,Hungary,,,,,,,,,,,,100,100,M5,M,Raw,D,,3,,,
Fábio Corrêa De Lyra,1973,92.4,100,Brazil,,,,,,,,,,,,,,M3,M,Raw,D,,DQ,,,
Brigitte Maczka,1961,65.5,67.5,Germany,,,,,,,,,,,,107.5,107.5,M5,F,Multi-ply,D,,1,,,
Klaudia Tanczos,1973,75.1,82.5,Slovakia,,,,,,,,,,,,120,120,M3,F,Multi-ply,D,,1,,,
Hunor Hablicsek,2007,68.6,75,Hungary,,,,,,,,,,,,150,150,T2,M,Multi-ply,D,,1,,,155
Jan Cafourek,2002,88.6,90,Czechia,,,,,,,,,,,,280,280,J,M,Multi-ply,D,,1,,,
Václav Jírovec,2004,80.3,82.5,Czechia,,,,,,,,,,,,242.5,242.5,J,M,Multi-ply,D,,1,,,-250
Danijel Parac,1994,67.2,67.5,Croatia,,,,,,,,,,,,235,235,O,M,Multi-ply,D,,1,,,
Martin Studnička,1993,97,100,Czechia,,,,,,,,,,,,310,310,O,M,Multi-ply,D,,1,,,
Mátyás Sándor Mészáros,1995,98.4,100,Hungary,,,,,,,,,,,,295,295,O,M,Multi-ply,D,,2,,,
Leon Pavlovic,1992,110.1,125,Norway,,,,,,,,,,,,300,300,O,M,Multi-ply,D,,1,,,
Ondřej Kratochvíl,1985,107.5,110,Czechia,,,,,,,,,,,,280,280,O,M,Multi-ply,D,,1,,,
František Szobolovszký,1994,95.5,100,Slovakia,,,,,,,,,,,,250,250,O,M,Multi-ply,D,,3,,,
Edward Rożnowski,1951,84.9,90,Poland,,,,,,,,,,,,205,205,M7,M,Multi-ply,D,,1,,,
László Posnyák,1993,77.1,82.5,Hungary,,,,,,,,,,,,180,180,O,M,Multi-ply,D,,1,,,
Ladislau Kiss,1948,93.7,100,Hungary,,,,,,,,,,,,240,240,M8,M,Multi-ply,D,,1,,,
Aleksandr Romanichev,1963,55.5,56,Israel,,,,,,,,,,,,180,180,M5,M,Multi-ply,D,,1,,,
Stefan Sochaňski,1948,81.3,82.5,Poland,,,,,,,,,,,,202.5,202.5,M8,M,Multi-ply,D,,1,,,
Dennis Ruygrok,1975,136.2,140,Canada,,,,,,,,,,347.5,351,351,351,M2,M,Multi-ply,D,,1,,,-363
Valery Tomilov,1965,99,100,Israel,,,,,,,,,,,,270,270,M4,M,Multi-ply,D,,1,,,
Jaroslav Tomanec,1943,79.8,82.5,Czechia,,,,,,,,,,,,140,140,M9,M,Multi-ply,D,,1,,,
Peter Lincmaier,1983,95.9,100,Slovakia,,,,,,,,,,,,315,315,M1,M,Multi-ply,D,,1,,,-326
Evandro Casa Grande,1970,109,110,Brazil,,,,,,,,,,,,275,275,M3,M,Multi-ply,D,,1,,,
Daniel Tatarka,1983,77.3,82.5,Slovakia,,,,,,,,,,,,265,265,M1,M,Multi-ply,D,,1,,,
Milan Greguš,1968,100.3,110,Czechia,,,,,,,,,,,,255,255,M4,M,Multi-ply,D,,1,,,
Michal Buranský,1980,81.9,82.5,Slovakia,,,,,,,,,,,,257.5,257.5,M1,M,Multi-ply,D,,2,,,
Michal Móry,1978,74.3,75,Slovakia,,,,,,,,,,,,225,225,M2,M,Multi-ply,D,,1,,,-240
Darren Bennett,1984,108.7,110,Ireland,,,,,,,,,,,,300,300,M1,M,Multi-ply,D,,1,,,
Karol Kornel Repiský,1964,134.9,140,Slovakia,,,,,,,,,,,,230,230,M5,M,Multi-ply,D,,1,,,
David Thomas #4,1951,107.3,110,UK,,,,,,,,,,,,160,160,M7,M,Multi-ply,D,,1,,,
Grzegorz Drewniany,1977,100.9,110,Poland,,,,,,,,,,,,250,250,M2,M,Multi-ply,D,,1,,,
Mieczysłąw Maczka,1954,82.5,82.5,Germany,,,,,,,,,,,,145,145,M7,M,Multi-ply,D,,1,,,
Vlastimil Yacoub Bandík,1981,74.9,75,Slovakia,,,,,,,,,,,,205,205,M1,M,Multi-ply,D,,1,,,
Josef Jeníček,1973,104.1,110,Czechia,,,,,,,,,,,,225,225,M3,M,Multi-ply,D,,2,,,
Michal Švajka,1978,94.9,100,Slovakia,,,,,,,,,,,,225,225,M2,M,Multi-ply,D,,2,,,
László Eck,1978,97.9,100,Hungary,,,,,,,,,,,,227.5,227.5,M2,M,Multi-ply,D,,1,,,
Ľubomír Trstenský,1974,111.5,125,Slovakia,,,,,,,,,,,,220,220,M2,M,Multi-ply,D,,1,,,
Norbert Hablicsek,1974,114,125,Hungary,,,,,,,,,,,,200,200,M3,M,Multi-ply,D,,1,,,
Spas Razhankov,1977,82.3,82.5,Bulgaria,,,,,,,,,,,,160,160,M2,M,Multi-ply,D,,1,,,
Konstantin Glok,1975,89.7,90,Germany,,,,,,,,,,,,165,165,M2,M,Multi-ply,D,,1,,,
Tibor Manzera,1968,111.4,125,Hungary,,,,,,,,,,,,100,100,M4,M,Multi-ply,D,,1,,,
