Sex,Name,Division,BodyweightKg,WeightClassKg,Squat1Kg,Squat2Kg,Squat3Kg,Squat4Kg,Best3SquatKg,Bench1Kg,Bench2Kg,Bench3Kg,Bench4Kg,Best3BenchKg,Deadlift1Kg,Deadlift2Kg,Deadlift3Kg,Deadlift4Kg,Best3DeadliftKg,TotalKg,Place,Equipment,Event
F,Lauryane Beauchais,F_OR_WPC,50.6,52,,,,,,42.5,47.5,-50,,47.5,,,,,,47.5,1,Raw,B
F,Sabine Arnaud,F_OR_WPC,48.2,52,,,,,,-50,-50,-50,,,,,,,,,DQ,Raw,B
F,Isabelle Camicas,F_OR_WPC,52.8,56,,,,,,35,-37.5,37.5,,37.5,,,,,,37.5,1,Raw,B
F,Fatiha Meddah,F_OR_WPC,65,67.5,,,,,,55,-57.5,-57.5,,55,,,,,,55,1,Raw,B
F,Edith Carneau,F_OR_WPC,65.6,67.5,,,,,,-55,-55,55,,55,,,,,,55,2,Raw,B
F,Sandrine Chabert,F_OEM_WPC,76.9,82.5,,,,,,-130,-140,140,,140,,,,,,140,1,Multi-ply,B
F,Maïlys Platel,F_OCR_WPC,44,44,50,52.5,55,,55,25,27.5,30,,30,65,70,75,,75,160,1,Wraps,SBD
F,Chantal Rostagnat,F_OEM_WPC,60,60,-130,130,145,,145,60,65,-70,,65,135,142.5,-150,,142.5,352.5,1,Multi-ply,SBD
F,Sandrine Chabert,F_OCR_WPC,77,82.5,130,135,140,,140,90,97.5,-100,,97.5,150,160,-170,,160,397.5,1,Wraps,SBD
M,Eric Segura,M_OR_WPC,58.8,60,,,,,,55,57.5,-60,,57.5,,,,,,57.5,2,Raw,B
M,Jean-Claude Camicas,M_OR_WPC,59.5,60,,,,,,80,85,-87.5,,85,,,,,,85,1,Raw,B
M,Emerick Viot,M_OR_WPC,64.8,67.5,,,,,,-105,-107.5,107.5,,107.5,,,,,,107.5,2,Raw,B
M,Florian Hebert,M_OR_WPC,65.1,67.5,,,,,,112.5,117.5,-120,,117.5,,,,,,117.5,1,Raw,B
M,Joël Tartare,M_OR_WPC,73.4,75,,,,,,90,96,-97.5,,96,,,,,,96,4,Raw,B
M,Frederic Pin,M_OR_WPC,72.3,75,,,,,,-97.5,102.5,-107.5,,102.5,,,,,,102.5,3,Raw,B
M,Fabien Ibacache,M_OR_WPC,72.2,75,,,,,,115,-120,-120,,115,,,,,,115,2,Raw,B
M,Damien Thoniel,M_OR_WPC,74.5,75,,,,,,130,-140,-140,,130,,,,,,130,1,Raw,B
M,Vincent Eldin,M_OEM_WPC,73.8,75,,,,,,-180,185,-200,,185,,,,,,185,1,Multi-ply,B
M,Fabrice Lapiccirella,M_OR_WPC,79.5,82.5,,,,,,100,105,-110,,105,,,,,,105,1,Raw,B
M,Fabrice Lapiccirella,M_OEM_WPC,78.3,82.5,,,,,,-140,140,-150,,140,,,,,,140,1,Multi-ply,B
M,Aaron Keriguy,M_OR_WPC,79.8,82.5,,,,,,150,-162.5,-162.5,,150,,,,,,150,2,Raw,B
M,Merlin Bocka,M_OR_WPC,79.5,82.5,,,,,,-160,-160,160,,160,,,,,,160,1,Raw,B
M,Aaron Keriguy,M_OEM_WPC,79.9,82.5,,,,,,190,-200,-200,,190,,,,,,190,2,Multi-ply,B
M,Valentin Cacici,M_OEM_WPC,81.6,82.5,,,,,,187.5,-200,202.5,205.5,202.5,,,,,,202.5,1,Multi-ply,B
M,Stéphane Chavin Gazalier,M_OEM_WPC,82.5,82.5,,,,,,-200,-200,-200,,,,,,,,,DQ,Multi-ply,B
M,Corrado Callegari,M_OR_WPC,89.3,90,,,,,,140,-152.5,152.5,,152.5,,,,,,152.5,6,Raw,B
M,Romain Clapier,M_OR_WPC,86,90,,,,,,152.5,157.5,-162.5,,157.5,,,,,,157.5,5,Raw,B
M,Quentin Buhlman,M_OR_WPC,87.2,90,,,,,,160,165,-170,,165,,,,,,165,4,Raw,B
M,Movsar Baliev,M_OR_WPC,85.7,90,,,,,,160,-167.5,167.5,,167.5,,,,,,167.5,3,Raw,B
M,Amaury Riche,M_OEM_WPC,86.4,90,,,,,,180,-190,-190,,180,,,,,,180,2,Multi-ply,B
M,Sebastien Lefaux,M_OEM_WPC,88,90,,,,,,240,252.5,-260,,252.5,,,,,,252.5,1,Multi-ply,B
M,Herve Viot,M_OR_WPC,94.7,100,,,,,,110,120,-122.5,,120,,,,,,120,7,Raw,B
M,Mario Viera,M_OR_WPC,91.2,100,,,,,,122.5,-130,-130,,122.5,,,,,,122.5,6,Raw,B
M,Jean-Francois Lemoine,M_OR_WPC,98.8,100,,,,,,125,135,140,-145,140,,,,,,140,5,Raw,B
M,Sylvain Segura,M_OR_WPC,98,100,,,,,,140,145,-150,,145,,,,,,145,4,Raw,B
M,Adrien Yoncourt,M_OR_WPC,93.6,100,,,,,,150,-162.5,-162.5,,150,,,,,,150,3,Raw,B
M,Baptiste Marchais,M_OR_WPC,97.7,100,,,,,,180,190,,,190,,,,,,190,2,Raw,B
M,Steeve Barros Gameiro,M_OEM_WPC,97,100,,,,,,-225,235,-250,,235,,,,,,235,1,Multi-ply,B
M,Stéphane Gurini,M_OEM_WPC,98.5,100,,,,,,-215,-222.5,-222.5,,,,,,,,,DQ,Multi-ply,B
M,Nicolas Ribeyre,M_OR_WPC,98.5,100,,,,,,-135,-135,-135,,,,,,,,,DQ,Raw,B
M,Victor Viot,M_OR_WPC,105.8,110,,,,,,110,-125,-125,,110,,,,,,110,1,Raw,B
M,Victor Viot,M_OEM_WPC,105,110,,,,,,120,130,-140,,130,,,,,,130,4,Multi-ply,B
M,Olivier Petrossi,M_OEM_WPC,104.9,110,,,,,,-235,-235,235,,235,,,,,,235,3,Multi-ply,B
M,Eric Platel,M_OEM_WPC,108.4,110,,,,,,-270,270,-280,,270,,,,,,270,2,Multi-ply,B
M,Bruno Szambelanczyk,M_OEM_WPC,110,110,,,,,,320,-340,-340,,320,,,,,,320,1,Multi-ply,B
M,Bastien Madine,M_OR_WPC,120.2,125,,,,,,-190,-190,190,,190,,,,,,190,3,Raw,B
M,Didier Michelon,M_OR_WPC,119.1,125,,,,,,192.5,205,207,,207,,,,,,207,2,Raw,B
M,Christophe Lannes,M_OR_WPC,123.8,125,,,,,,220,227.5,230,-232.5,230,,,,,,230,1,Raw,B
M,Merah Salim,M_OEM_WPC,122.8,125,,,,,,260,-300,-305,,260,,,,,,260,2,Multi-ply,B
M,Didier Michelon,M_OEM_WPC,118.4,125,,,,,,335,-352.5,-352.5,,335,,,,,,335,1,Multi-ply,B
M,Jean Furman,M_OR_WPC,133.1,140,,,,,,190,-200,200,,200,,,,,,200,1,Raw,B
M,Vincent Lofe,M_OEM_WPC,137.4,140,,,,,,215,-230,-240,,215,,,,,,215,1,Multi-ply,B
M,Florient Vazon,M_OR_WPC,128.3,140,,,,,,215,225,-232.5,,225,,,,,,225,1,Raw,B
M,Florent Blanc,M_OCR_WPC,77.5,82.5,150,160,165,,165,115,125,-130,,125,190,210,-215,,210,500,2,Wraps,SBD
M,Jean Douliez,M_OCR_WPC,81.6,82.5,130,140,150,,150,125,130,135,,135,185,200,210,,210,495,3,Wraps,SBD
M,Jérémy Babin #1,M_OCR_WPC,82,82.5,185,200,212.5,,212.5,130,140.5,-145,,140.5,210,230,240.5,247.5,240.5,593.5,1,Wraps,SBD
M,Patrick Breton,M_OEM_WPC,78.7,82.5,230,250,260,,260,120,130,,,130,260,-280,-280,,260,650,2,Multi-ply,SBD
M,Franck Cheron,M_OEM_WPC,81.3,82.5,230,255,265,,265,150,160,-167.5,,160,210,230,-245,,230,655,1,Multi-ply,SBD
M,Sébastien Hupfer,M_OCR_WPC,89.5,90,245,-260,260,,260,160,-170,170,,170,255,-270,-270,,255,685,1,Wraps,SBD
M,Eric Athias,M_OEM_WPC,88.4,90,340,-367.5,367.5,385,367.5,215,225,232.5,237.5,232.5,300,315,-320,,315,915,1,Multi-ply,SBD
M,Didier LeBrun,M_OEM_WPC,87,90,160,170,190,,190,-155,-155,-155,,,190,205,210,,210,,DQ,Multi-ply,SBD
M,Pascal Bouquillon,M_OCR_WPC,93.9,100,185,205,220,,220,175,-190,-200,,175,200,225,-232.5,,225,620,1,Wraps,SBD
M,Jimmy Le Scornec,M_OCR_WPC,99,100,200,210,220,,220,140,150,160,,160,215,230,240,,240,620,2,Wraps,SBD
M,Andre Falcao,M_OEM_WPC,100,100,-360,360,-380,,360,-270,-270,-270,,,,,,,,,DQ,Multi-ply,SBD
M,Alexandre Moustapha,M_OCR_WPC,106.7,110,-185,205,220,,220,160,-175,-182.5,,160,245,265,285,300,285,665,1,Wraps,SBD
M,Gilles Zozzoli,M_OEM_WPC,106.1,110,240,270,300,,300,200,-230,-230,,200,220,240,260,,260,760,1,Multi-ply,SBD
M,Hervé Gainche,M_OEM_WPC,123.4,125,-270,285,-300,,285,190,200.5,-205,,200.5,210,230,240,,240,725.5,2,Multi-ply,SBD
M,Tony Chard,M_OEM_WPC,122.9,125,-280,280,-305,,280,200,210,-220,,210,280,310,-322.5,,310,800,1,Multi-ply,SBD
