Place,Name,BirthDate,Sex,Equipment,Division,BodyweightKg,WeightClassKg,Squat1Kg,Squat2Kg,Squat3Kg,Best3SquatKg,Bench1Kg,Bench2Kg,Bench3Kg,Best3BenchKg,Deadlift1Kg,Deadlift2Kg,Deadlift3Kg,Best3DeadliftKg,TotalKg,Event
1,Sambhavi Sneha Kumar,,F,Raw,FR-Jr,56.45,57,95,100,105,105,57.5,62.5,65,65,120,130,140,140,310,SBD
2,Theresa Grealy,,F,Raw,FR-Jr,55.15,57,90,95,97.5,97.5,50,52.5,55,55,125,132.5,137.5,137.5,290,SBD
1,Courtney Brown #2,,F,Raw,FR-Jr,60.1,63,87.5,95,105,105,67.5,72.5,77.5,77.5,120,132.5,140,140,322.5,SBD
1,Jodie Partington,,F,Raw,FR-Jr,65.4,69,117.5,125,130,130,70,75,80,80,135,142.5,147.5,147.5,357.5,SBD
1,Amore Farrag,,F,Raw,FR-Jr,97.95,84+,140,147.5,152.5,152.5,60,67.5,72.5,72.5,170,180,-190,180,405,SBD
2,Anastasia Simpson,,F,Raw,FR-Jr,91.2,84+,-125,125,-140,125,40,45,-50,45,125,135,140,140,310,SBD
1,Niki Neocleous,,F,Raw,FR-O,61.95,63,137.5,-147.5,-147.5,137.5,72.5,77.5,-80,77.5,147.5,155,165,165,380,SBD
1,Olivia Price,,F,Raw,FR-O,68.35,69,132.5,142.5,150,150,77.5,82.5,85,85,165,175,182.5,182.5,417.5,SBD
1,Samantha Henderson,,F,Raw,FR-O,70.15,76,130,140,145,145,75,77.5,80,80,155,165,170,170,395,SBD
2,Clare Miles,,F,Raw,FR-O,73.5,76,105,112.5,-117.5,112.5,60,-65,65,65,130,140,145,145,322.5,SBD
1,Liz Onen,,F,Raw,FR-O,83.1,84,137.5,145,-150,145,50,55,57.5,57.5,165,175,182.5,182.5,385,SBD
2,Amy Preston,,F,Raw,FR-O,82.65,84,117.5,125,130,130,70,77.5,80,80,142.5,152.5,-157.5,152.5,362.5,SBD
3,Florence Eastwood,,F,Raw,FR-O,76.5,84,125,-132.5,135,135,62.5,65,67.5,67.5,135,145,155,155,357.5,SBD
4,Chantelle Bradford,,F,Raw,FR-O,79.35,84,90,95,100,100,62.5,67.5,-72.5,67.5,132.5,140,-145,140,307.5,SBD
1,Liam Neil,,M,Raw,MR-Jr,65.35,66,170,177.5,-182.5,177.5,100,105,107.5,107.5,195,210,-227.5,210,495,SBD
1,Abdul Wajid Butt,,M,Raw,MR-Jr,73.05,74,202.5,220,227.5,227.5,140,147.5,152.5,152.5,242.5,257.5,-270,257.5,637.5,SBD
2,Bartosz Kwit,,M,Raw,MR-Jr,71.1,74,152.5,162.5,170,170,102.5,107.5,112.5,112.5,185,195,-205,195,477.5,SBD
1,Harry Smith,,M,Raw,MR-Jr,80.85,83,195,207.5,212.5,212.5,140,145,150,150,210,230,237.5,237.5,600,SBD
2,Yuvraj Agarwal,,M,Raw,MR-Jr,81.5,83,187.5,197.5,205,205,120,125,-130,125,217.5,230,240,240,570,SBD
1,Shubang Nagalotimath,,M,Raw,MR-Jr,88.9,93,235,250,260,260,147.5,155,160,160,285,305,320,320,740,SBD
2,Charlie Cambridge,,M,Raw,MR-Jr,92.3,93,202.5,215,222.5,222.5,140,147.5,152.5,152.5,275,295,305.5,305.5,680.5,SBD
3,Taha Ahmed,,M,Raw,MR-Jr,90.1,93,160,172.5,180,180,100,107.5,112.5,112.5,200,215,225,225,517.5,SBD
1,Ethan McDerment,,M,Raw,MR-Jr,103.75,105,215,230,237.5,237.5,147.5,152.5,-160,152.5,240,260,-277.5,260,650,SBD
2,Ethan Dell #1,,M,Raw,MR-Jr,101.5,105,180,192.5,205,205,140,145,150,150,205,220,232.5,232.5,587.5,SBD
1,Charlie Moore,,M,Raw,MR-Jr,114.65,120,212.5,225,235,235,142.5,150,155,155,277.5,295.5,310,310,700,SBD
1,John Sanderson,,M,Raw,MR-M1,166.5,120+,280,300,305,305,165,172.5,180,180,270,290,310,310,795,SBD
1,Ben Hampson,,M,Raw,MR-O,59,59,-162.5,167.5,170,170,110,115,,115,170,180,,180,465,SBD
1,Louis Lattuca,,M,Raw,MR-O,73.55,74,195,-202.5,-207.5,195,122.5,127.5,,127.5,225,240,250,250,572.5,SBD
2,Lawrence White,,M,Raw,MR-O,68.65,74,180,190,-200,190,115,120,-125,120,205,-220,230,230,540,SBD
3,Amir Tamang,,M,Raw,MR-O,73.5,74,182.5,195,205,205,97.5,105,110,110,200,210,225,225,540,SBD
4,Khac Huy Peter Le,,M,Raw,MR-O,71.5,74,180,190,-197.5,190,110,117.5,125,125,220,-240,-240,220,535,SBD
5,Julio Nallamappanan de Cabo,,M,Raw,MR-O,72.75,74,165,175,180,180,97.5,102.5,-105,102.5,250,-262.5,-262.5,250,532.5,SBD
1,Anujan Srikantha,,M,Raw,MR-O,82.65,83,220,230,-237.5,230,175,185,190,190,215,-230,-230,215,635,SBD
2,Adam Spruce,,M,Raw,MR-O,80.2,83,142.5,152.5,162.5,162.5,87.5,95,102.5,102.5,170,182.5,190,190,455,SBD
1,Tavis Royer,,M,Raw,MR-O,92.15,93,-230,255,262.5,262.5,142.5,150,155,155,250,270,-300,270,687.5,SBD
2,Daniel Edwards,,M,Raw,MR-O,91.9,93,212.5,222.5,232.5,232.5,145,155,-162.5,155,235,247.5,262.5,262.5,650,SBD
3,Sunny Tank,,M,Raw,MR-O,90.6,93,205,220,227.5,227.5,127.5,135,140,140,250,272.5,-292.5,272.5,640,SBD
4,Peter Byrne,,M,Raw,MR-O,92.4,93,205,-217.5,217.5,217.5,147.5,155,-157.5,155,242.5,262.5,-272.5,262.5,635,SBD
5,Hongyu Qi,,M,Raw,MR-O,92,93,195,212.5,220,220,125,-135,-135,125,225,245,-255,245,590,SBD
6,Logan Dickson,,M,Raw,MR-O,89.4,93,175,190,200,200,90,95,100,100,185,200,210,210,510,SBD
7,Sam Blackaby,,M,Raw,MR-O,89.8,93,150,160,170,170,95,100,107.5,107.5,177.5,192.5,202.5,202.5,480,SBD
8,Matthew Garnham,,M,Raw,MR-O,83.55,93,145,155,165,165,100,110,112.5,112.5,160,170,177.5,177.5,455,SBD
1,Kieron Tang,,M,Raw,MR-O,103.75,105,220,230,235,235,130,140,147.5,147.5,225,245,-262.5,245,627.5,SBD
2,Jack Humpage,,M,Raw,MR-O,101.85,105,187.5,205,217.5,217.5,117.5,125,130,130,215,235,-252.5,235,582.5,SBD
1,Hayden Williamson,,M,Raw,MR-Sj,64.9,66,152.5,157.5,162.5,162.5,107.5,113,117,117,170,182.5,192.5,192.5,472,SBD
1,Santi Alonso,,M,Raw,MR-Sj,70.7,74,160,167.5,175,175,90,95,100,100,-160,165,172.5,172.5,447.5,SBD
1,Vincent Tiley,,M,Raw,MR-Sj,82,83,215,230,-245,230,120,130,-137.5,130,225,235,240,240,600,SBD
