Name,Country,BirthDate,BodyweightKg,WeightClassKg,Bench1Kg,Bench2Kg,Bench3Kg,Bench4Kg,Best3BenchKg,TotalKg,Place,Event,Equipment,Sex,Division
Omar S H Qarada,Jordan,1981-03-01,47.66,49,167,-171,174,,174,174,1,B,Raw,M,Open
Cong van Le,Vietnam,1984-06-20,46.78,49,167,170,-173,,170,170,2,B,Raw,M,Open
P K Parmjeet Kumar,India,1992-02-02,47.16,49,-158,158,-159,,158,158,3,B,Raw,M,Open
Muslim Al-Sudani,Iraq,2002-03-05,47.33,49,-155,-155,155,,155,155,4,B,Raw,M,Open
Yu Zheng,China,1976-03-26,48.28,49,153,-159,-159,,153,153,5,B,Raw,M,Open
Parvin Mammadov,Azerbaijan,1995-02-16,48,49,-143,146,-159,,146,146,6,B,Raw,M,Open
Maksim Boitsov,Russia,1992-06-09,48.24,49,-140,140,146,,146,146,1,B,Raw,M,Open
Hadj Ahmed Beyour,Algeria,1983-03-09,46.03,49,140,145,-149,,145,145,2,B,Raw,M,Open
Nándor Tunkel,Hungary,1988-04-08,47.97,49,141,-146,-146,,141,141,3,B,Raw,M,Open
Jhonny A Morales Gonzalez,Colombia,1999-01-28,47.48,49,132,-140,-141,,132,132,4,B,Raw,M,Open
Tetsuo Nishizaki,Japan,1977-04-26,48.22,49,132,-139,-139,,132,132,5,B,Raw,M,Open
Lucas M Dos Santos,Brazil,2001-11-20,47.65,49,130,-133,-133,,130,130,6,B,Raw,M,Open
Sławomir Szymański,Poland,1985-03-19,47.69,49,123,126,-132,,126,126,7,B,Raw,M,Open
Adnan Noorsaeed,Saudi Arabia,2003-09-18,47.69,49,-110,110,123,,123,123,8,B,Raw,M,Open
Boryslav Nekrotiuk,Ukraine,2000-06-23,47.52,49,-117,117,121,,121,121,9,B,Raw,M,Open
Haydar Ayar,Turkey,2002-07-10,47.61,49,121,-125,-125,,121,121,10,B,Raw,M,Open
Hiroshi Miura,Japan,1964-10-14,45.88,49,110,114,118,,118,118,11,B,Raw,M,Open
Rodrigo Villamarin,Argentina,1997-08-22,46.86,49,100,-105,-105,,100,100,12,B,Raw,M,Open
Boonyang Butprom,Thailand,1998-10-02,47.76,49,-95,95,100,,100,100,13,B,Raw,M,Open
Heber Israel Leyton Sanchez,Chile,1999-08-08,45.84,49,85,-91,91,,91,91,14,B,Raw,M,Open
Jhon J Perez Alejandria,Peru,1992-09-18,44.45,49,90,-95,-95,,90,90,15,B,Raw,M,Open
Diego E Silva Herrera,Chile,2001-09-26,48.17,49,-90,90,-94,,90,90,16,B,Raw,M,Open
Nopphakhun Ngaopatcha,Thailand,2003-10-19,47.07,49,70,75,-81,,75,75,17,B,Raw,M,Open
Pascal B Seh Ndoumou,Cameroon,1975-09-15,47,49,-100,-100,-110,,,,DQ,B,Raw,M,Open
Muhammet K Akturk,Turkey,2000-03-25,47.35,49,-140,-140,-140,,,,DQ,B,Raw,M,Open
Vladimir Balynets,Russia,1985-04-25,48.38,49,-163,-163,-163,,,,DQ,B,Raw,M,Open
David Degtyarev,Kazakhstan,1996-06-12,52.95,54,175,178,-186,,178,178,1,B,Raw,M,Open
Jinglang Yang,China,1990-04-24,53.31,54,160,165,172,,172,172,2,B,Raw,M,Open
Taha Abdelmajid,Egypt,1987-06-08,53.36,54,157,161,-166,,161,161,3,B,Raw,M,Open
Stanislav Shakiyev,Kazakhstan,1988-01-11,53.4,54,156,161,-168,,161,161,4,B,Raw,M,Open
Axel Bourlon,France,1991-03-14,53.22,54,-153,157,-162,,157,157,5,B,Raw,M,Open
Joao Maria Franca Junior,Brazil,1995-10-20,52.46,54,-155,155,-161,,155,155,6,B,Raw,M,Open
Kostiantyn Panasiuk,Ukraine,1991-06-06,53.19,54,150,155,-161,,155,155,7,B,Raw,M,Open
Keun Jin Choi,South Korea,1976-11-13,53.26,54,-150,150,-158,,150,150,8,B,Raw,M,Open
Ali Reza Izadi,Iran,1999-05-04,51,54,-140,140,145,,145,145,9,B,Raw,M,Open
Javier I Yajue Gomez,Chile,1997-06-17,53.24,54,135,-140,141,,141,141,10,B,Raw,M,Open
Carlos M Yajue Gomez,Colombia,1998-06-12,52.39,54,140,-145,-145,,140,140,11,B,Raw,M,Open
Rafał Roch,Poland,1983-10-04,52.46,54,138,-144,-146,,138,138,12,B,Raw,M,Open
David Montiel Caballero,Mexico,1990-02-27,51.72,54,-133,-133,133,,133,133,13,B,Raw,M,Open
Paolo Agosti,Italy,1991-05-13,52.59,54,131,-133,-133,,131,131,14,B,Raw,M,Open
Diego Quispe,Peru,1998-12-08,52.95,54,-120,-120,120,,120,120,15,B,Raw,M,Open
Thanakrit Makkntorn,Thailand,1998-01-22,51.91,54,100,105,111,,111,111,16,B,Raw,M,Open
Agustin Kitan,Philippines,1976-08-06,52.24,54,103,,,,103,103,17,B,Raw,M,Open
Khlaeo Motnok,Thailand,1967-01-01,53.27,54,95,-101,101,,101,101,18,B,Raw,M,Open
Yuji Okada,Japan,1976-07-16,52.64,54,-100,100,-111,,100,100,19,B,Raw,M,Open
Elias F Medina,Argentina,2001-04-29,51.18,54,-78,-78,80,,80,80,20,B,Raw,M,Open
Mitsunori Ichikawa,Japan,1974-01-15,52.12,54,-130,-135,-135,,,,DQ,B,Raw,M,Open
Alidou Diamoutene,Ivory Coast,1977-09-20,53.01,54,-145,-145,-150,,,,DQ,B,Raw,M,Open
Binh An Nguyen,Vietnam,1985-01-28,53.34,54,-170,-170,-173,,,,DQ,B,Raw,M,Open
Sherif Osman,Egypt,1982-09-15,58.41,59,186,190,195,,195,195,1,B,Raw,M,Open
Herbert Aceituno,South Africa,1985-11-01,57.59,59,-182,182,183,,183,183,2,B,Raw,M,Open
Juan Carlos Garrido Acevedo,Chile,1980-03-04,58.4,59,-182,182,-184,,182,182,3,B,Raw,M,Open
Seyed Y Yousefi Pashaki,Iran,1988-07-18,58.92,59,178,-183,-184,,178,178,4,B,Raw,M,Open
Mohsen Bakhtiar,Iran,1998-05-17,58.5,59,165,173,-183,,173,173,5,B,Raw,M,Open
Iurii Egorchenkov,Russia,1992-01-30,56.99,59,165,172,-182,,172,172,6,B,Raw,M,Open
Yongkai Qi,China,1998-11-08,57.53,59,170,-182,-183,,170,170,7,B,Raw,M,Open
Mohamed Elmenyawy,Egypt,1998-10-10,56.55,59,167,-172,-174,,167,167,8,B,Raw,M,Open
Bruno Carra,Brazil,1989-01-20,57.85,59,156,160,-162,,160,160,9,B,Raw,M,Open
Serkan Cakmaz,Turkey,1996-02-01,57.2,59,151,-158,-158,,151,151,10,B,Raw,M,Open
Emmanuel Omale Ugwu,Nigeria,1994-06-23,56.66,59,150,-154,-154,,150,150,11,B,Raw,M,Open
Tomohiro Kouse,Japan,1993-03-23,57.83,59,146,-151,-152,,146,146,12,B,Raw,M,Open
Amorntep Pongsao,Thailand,1995-11-13,57.02,59,141,-150,-150,,141,141,13,B,Raw,M,Open
Vasyl Rozhko,Ukraine,1998-01-13,55.31,59,137,-141,-141,,137,137,14,B,Raw,M,Open
György Sztanó,Hungary,1997-04-11,57.04,59,130,135,-141,,135,135,15,B,Raw,M,Open
Azizbek Turgunov,Uzbekistan,1999-10-22,57.34,59,125,135,-142,,135,135,16,B,Raw,M,Open
Sean Clare,UK,1993-07-09,57.4,59,-130,-135,135,,135,135,17,B,Raw,M,Open
Yuya Toda,Japan,1982-04-17,57.44,59,-125,-131,131,,131,131,18,B,Raw,M,Open
Blaze Foster,USA,1989-02-03,57.36,59,109,-114,-114,,109,109,19,B,Raw,M,Open
Paschalis Kouloumoglou,Greece,1994-11-03,57.47,59,90,,,,90,90,20,B,Raw,M,Open
Omar N Garcia Correa,Colombia,1994-11-23,57.08,59,-145,-145,-145,,,,DQ,B,Raw,M,Open
Suhil Masaud,Libya,1998-07-25,58.45,59,-130,-135,-135,,,,DQ,B,Raw,M,Open
Hocine Bettir,Algeria,1990-08-02,64.13,65,183,187,194,,194,194,1,B,Raw,M,Open
Amir Jafari Arangeh,Iran,1985-12-22,63.49,65,176,186,193,,193,193,2,B,Raw,M,Open
Yi Zou,China,1995-11-11,63.6,65,184,192,-195,,192,192,3,B,Raw,M,Open
Mark Swan,UK,2001-07-02,64,65,178,184,192,,192,192,4,B,Raw,M,Open
Thomas Kure,Nigeria,1988-12-15,63.11,65,185,190,-195,,190,190,5,B,Raw,M,Open
Ayrat Zakiev,Russia,1981-10-02,64.3,65,180,187,-194,,187,187,6,B,Raw,M,Open
Jorge Eduardo Carinao Cardenas,Chile,1991-02-18,60.71,65,-183,183,-187,,183,183,7,B,Raw,M,Open
Ali Seifi,Iran,1997-05-24,62,65,165,175,-178,,175,175,8,B,Raw,M,Open
Marek Trykacz,Poland,1985-10-06,64,65,-165,-168,174,,174,174,9,B,Raw,M,Open
Bryan S Balanta Barona,Colombia,1996-10-19,63.55,65,165,168,173,,173,173,10,B,Raw,M,Open
Sanjar Ollaberganov,Uzbekistan,1991-03-23,63.72,65,158,165,169,,169,169,11,B,Raw,M,Open
Hossam Elgafary,Egypt,1985-08-10,62.38,65,155,163,168,,168,168,12,B,Raw,M,Open
Ahmed Al-Karkhi,Iraq,2002-06-19,62.93,65,164,167,-170,,167,167,13,B,Raw,M,Open
Grzegorz Lanzer,Poland,1986-04-27,59.11,65,150,158,-163,,158,158,14,B,Raw,M,Open
Kazuki Okuyama,Japan,1997-06-24,62.61,65,150,156,-160,,156,156,15,B,Raw,M,Open
Narong Kasanun,Thailand,1977-07-04,62.87,65,151,156,-161,,156,156,16,B,Raw,M,Open
Carlos Betancourt,Venezuela,1981-10-02,64.22,65,-145,-152,152,,152,152,17,B,Raw,M,Open
Luciano Dantas,Brazil,1981-05-20,63.59,65,151,-155,-157,,151,151,18,B,Raw,M,Open
Adou Herve Ano,Ivory Coast,1983-05-30,63.69,65,150,-156,-160,,150,150,19,B,Raw,M,Open
Gwangyeoul Park,South Korea,1989-04-26,63.08,65,143,148,-150,,148,148,20,B,Raw,M,Open
Jose M Abud Coronado,Dominican Republic,1974-10-26,63.74,65,142,146,-149,,146,146,21,B,Raw,M,Open
Conrat F Atangana,Cameroon,1987-03-09,61.08,65,-140,140,-160,,140,140,22,B,Raw,M,Open
Yoshiki Sano,Japan,1968-09-06,63.76,65,133,-139,139,,139,139,23,B,Raw,M,Open
Vladimir Nizavitin,Kazakhstan,1998-01-17,63.35,65,128,133,-137,,133,133,24,B,Raw,M,Open
Obadah Husawi,South Africa,1999-07-18,62.98,65,115,125,-130,,125,125,25,B,Raw,M,Open
Garrison Redd,USA,1988-06-22,60.26,65,122,-127,-127,,122,122,26,B,Raw,M,Open
Lasha Alelishvili,Georgia,1996-12-07,60.45,65,-110,120,-125,,120,120,27,B,Raw,M,Open
Yonghun Shin,South Korea,1997-11-30,62.55,65,105,110,113,,113,113,28,B,Raw,M,Open
Harut Mkhitaryan,Armenia,1984-01-13,61.48,65,111,-120,-130,,111,111,29,B,Raw,M,Open
Ashok Ashok,India,1989-04-27,60.31,65,-157,-157,-157,,,,DQ,B,Raw,M,Open
Giuseppe Colantuoni,Italy,1993-04-30,63.93,65,-132,-132,-137,,,,DQ,B,Raw,M,Open
Bonnie B. Gustin,Malaysia,1999-06-03,68.9,72,200,206,210,,210,210,1,B,Raw,M,Open
Peng Hu,China,1989-01-26,70.61,72,187,195,196,,196,196,2,B,Raw,M,Open
Shaban Yehia Ibrahim,Egypt,1975-09-14,70.07,72,186,192,195,,195,195,3,B,Raw,M,Open
Nader Moradi,Iran,1982-09-21,70.27,72,180,187,193,,193,193,4,B,Raw,M,Open
Mahmoud Attia,Egypt,1981-08-12,69.36,72,186,-192,-195,,186,186,5,B,Raw,M,Open
Ezequiel Correa,Brazil,1987-10-23,70.17,72,175,180,-193,,180,180,6,B,Raw,M,Open
Rey Melchor Dimas Vasquez,Panama,1986-01-06,70.79,72,170,175,-181,,175,175,7,B,Raw,M,Open
Tomasz Kociubiński,Poland,1981-04-15,70.9,72,173,-175,-176,,173,173,8,B,Raw,M,Open
Yashinbek Oltiev,Uzbekistan,1993-03-10,67.74,72,161,169,172,,172,172,9,B,Raw,M,Open
Gyuho Kim,South Korea,1981-10-27,70.32,72,170,-180,-180,,170,170,10,B,Raw,M,Open
Kentaro Higuchi,Japan,1972-12-09,70.78,72,160,164,168,,168,168,11,B,Raw,M,Open
Dmitri Stepanov,Russia,1998-06-19,68.79,72,163,-170,-173,,163,163,12,B,Raw,M,Open
Yuniel Suarez Vargas,Cuba,1990-01-25,69.86,72,150,160,-165,,160,160,13,B,Raw,M,Open
Sergey Meladze,Turkmenistan,1980-04-01,70.08,72,160,-170,-170,,160,160,14,B,Raw,M,Open
Matteo Cattini,Italy,1984-07-17,70.41,72,154,159,-163,,159,159,15,B,Raw,M,Open
Matthew Harding,UK,1999-07-15,68.68,72,144,150,155,,155,155,16,B,Raw,M,Open
Saif Mohamed Zaabi,UAE,1979-08-30,68.97,72,152,-158,-158,,152,152,17,B,Raw,M,Open
Tolga Isik,Turkey,1991-03-27,69.82,72,-140,-140,146,,146,146,18,B,Raw,M,Open
Alexandr Daskov,Kazakhstan,1987-03-12,65.27,72,137,141,144,,144,144,19,B,Raw,M,Open
Aseel Alhawsawi,South Africa,1997-05-18,70.39,72,135,142,-148,,142,142,20,B,Raw,M,Open
Medet Zhunusov,Kazakhstan,1983-11-29,70.68,72,-141,141,-147,,141,141,21,B,Raw,M,Open
Abraheem Othman,Libya,1993-07-10,70.51,72,-135,-137,137,,137,137,22,B,Raw,M,Open
Beomjo Seo,South Korea,1999-03-21,68.06,72,123,128,130,,130,130,23,B,Raw,M,Open
Cesar A Pina Alvarez,Chile,2001-07-31,67.69,72,115,-120,120,,120,120,24,B,Raw,M,Open
Phutachat Panomkhet,Thailand,2004-09-16,68.21,72,110,115,-121,,115,115,25,B,Raw,M,Open
Luis Enesto Jorge,Dominican Republic,1983-10-04,70.01,72,113,-118,-118,,113,113,26,B,Raw,M,Open
Shota Omarashvili,Georgia,1981-11-25,70.32,72,-150,-160,-161,,,,DQ,B,Raw,M,Open
Jai Deep Jai Deep,India,1989-12-30,70.53,72,-162,-163,-163,,,,DQ,B,Raw,M,Open
Gabriel Magu Wanjiku,Kenya,1987-06-14,,72,,,,,,,NS,B,Raw,M,Open
Emmanuel Nii T Oku,Ghana,1990-10-13,,72,,,,,,,NS,B,Raw,M,Open
Xiao-Fei Gu,China,1989-03-14,78.08,80,216,221,230,,230,230,1,B,Raw,M,Open
Roohallah Rostami,Iran,1989-05-02,79.67,80,218,-225,230,,230,230,2,B,Raw,M,Open
Mohamed Sobhy Shaaban Elelfat,Egypt,1979-06-25,78.77,80,211,217,-222,,217,217,3,B,Raw,M,Open
Rasool Mohsin,Iraq,1987-11-17,75.07,80,200,210,-218,,210,210,4,B,Raw,M,Open
Donato Telesca,Italy,1999-02-05,78.69,80,191,199,-202,,199,199,5,B,Raw,M,Open
Ahmad Razm Azar,Georgia,1992-03-02,76.32,80,194,-200,-202,,194,194,6,B,Raw,M,Open
Yurii Babynets,Ukraine,1995-07-17,78.73,80,193,-199,-202,,193,193,7,B,Raw,M,Open
Gkremislav Moysiadis,Greece,1978-09-26,78.33,80,185,191,-194,,191,191,8,B,Raw,M,Open
Michael Yule,UK,1978-12-24,76.74,80,183,-190,190,,190,190,9,B,Raw,M,Open
Francisco Tulio Palomeque Palacios,Colombia,1967-10-19,77.59,80,190,-196,-201,,190,190,10,B,Raw,M,Open
Ailton Bento de Souza,Brazil,1985-03-07,79.07,80,186,-192,-195,,186,186,11,B,Raw,M,Open
Alexander Belov,Russia,1991-05-17,79.03,80,-175,175,-192,,175,175,12,B,Raw,M,Open
Bryan J Gustin,Malaysia,1997-06-13,76.96,80,160,165,170,,170,170,13,B,Raw,M,Open
Porfirio Arrendondo Luna,Mexico,1971-09-15,78.6,80,167,-174,-174,,167,167,14,B,Raw,M,Open
Tamás Stadler,Hungary,1992-09-16,77.38,80,153,158,163,,163,163,15,B,Raw,M,Open
Jesus Rodriguez Vallejo,Dominican Republic,1988-11-18,78.68,80,-152,155,161,,161,161,16,B,Raw,M,Open
Oscar E Makoube Moussima,Cameroon,1981-06-18,78.21,80,150,-158,160,,160,160,17,B,Raw,M,Open
Chinnaphop Khamdam,Thailand,1993-12-31,79.61,80,146,152,-161,,152,152,18,B,Raw,M,Open
Jonathan G Astudillo Rozas,Chile,1992-10-12,75.91,80,-145,145,150,,150,150,19,B,Raw,M,Open
Matias A Reveco Caravel,Chile,1996-07-09,78.39,80,140,145,150,,150,150,20,B,Raw,M,Open
Zhaksylyk Bakkozha,Kazakhstan,1993-08-20,77.87,80,-145,-145,147,,147,147,21,B,Raw,M,Open
Abboskhon Rakhimjonov,Uzbekistan,2000-11-07,78.01,80,145,-150,-150,,145,145,22,B,Raw,M,Open
Victoriano Mendoza Gonzalez,Panama,1984-03-04,78.94,80,140,-145,145,,145,145,23,B,Raw,M,Open
Mosab Gharsalla,Libya,1990-04-27,78.28,80,138,-144,144,,144,144,24,B,Raw,M,Open
Andrea Bruno,Italy,1988-04-17,78.84,80,137,142,-146,,142,142,25,B,Raw,M,Open
Juan A Ramirez Miramontes,Mexico,2000-09-27,78.1,80,-138,138,-142,,138,138,26,B,Raw,M,Open
Thanawat Kaengkhan,Thailand,2000-04-05,72.65,80,66,70,82,,82,82,27,B,Raw,M,Open
Hideki Odo,Japan,1974-10-17,77.97,80,66,,,,66,66,28,B,Raw,M,Open
Athanasios Vagenas,Greece,1999-06-19,75.92,80,-153,-153,-153,,,,DQ,B,Raw,M,Open
Abdelkareem M A Khattab,Jordan,1991-09-04,85.08,88,230,238,-242,250,238,238,1,B,Raw,M,Open
Magomed Dzhamalov,Russia,1994-10-10,87.04,88,206,211,212,,212,212,2,B,Raw,M,Open
Jixiong Ye,China,1993-05-25,82.32,88,205,-210,211,,211,211,3,B,Raw,M,Open
Farhod Umirzakov,Uzbekistan,1996-05-16,86.64,88,204,-206,207,,207,207,4,B,Raw,M,Open
Rafik Arabat,France,1990-12-04,85.37,88,-193,201,-206,,201,201,5,B,Raw,M,Open
Abdelbaset Mousa,Egypt,1989-01-21,85.33,88,185,193,200,,200,200,6,B,Raw,M,Open
Rakhmetzhan Khamayev,Kazakhstan,1986-11-25,86.88,88,195,-201,-206,,195,195,7,B,Raw,M,Open
Sudhir Sudhir,India,1994-10-27,85.24,88,-187,194,-206,,194,194,8,B,Raw,M,Open
Mohammed Hadj Ali,Algeria,1987-07-21,86.09,88,193,-201,-207,,193,193,9,B,Raw,M,Open
Wawrzyniec Latus,Poland,1981-09-10,85.39,88,188,-194,-195,,188,188,10,B,Raw,M,Open
Evanio Da Silva,Brazil,1984-09-02,81.56,88,183,185,-193,,185,185,11,B,Raw,M,Open
Hayder Alakdah,Iraq,1993-09-02,85.7,88,178,184,-187,,184,184,12,B,Raw,M,Open
Ahmed Shafik,USA,1973-11-10,85.11,88,183,-191,-191,,183,183,13,B,Raw,M,Open
Adel Shanbih,UAE,1989-12-13,84.38,88,175,180,-182,,180,180,14,B,Raw,M,Open
Oniger J Drake Vega,Cuba,1972-05-24,84.99,88,160,170,-175,,170,170,15,B,Raw,M,Open
Bahrom Kobilov,Uzbekistan,1993-12-29,83.67,88,160,169,-175,,169,169,16,B,Raw,M,Open
Shogo Tanaka,Japan,1985-02-27,80.84,88,158,168,-170,,168,168,17,B,Raw,M,Open
Harri Kauppila,Finland,1979-03-31,85.02,88,167,-175,-176,,167,167,18,B,Raw,M,Open
Nicodemus M. Moses,Malaysia,1992-12-09,85.14,88,165,-175,-175,,165,165,19,B,Raw,M,Open
Rashed Hassan Ahmed,UAE,1980-10-10,86.44,88,155,161,165,,165,165,20,B,Raw,M,Open
Boontun Chadarum,Thailand,1974-09-18,84.25,88,145,150,158,,158,158,21,B,Raw,M,Open
Jingeun Choi,South Korea,1982-02-06,86.11,88,155,-160,-161,,155,155,22,B,Raw,M,Open
Joginder Singh,India,1986-03-04,86.43,88,134,143,-150,,143,143,23,B,Raw,M,Open
Ton Yarnpairat,Thailand,1992-02-10,84.19,88,130,135,-141,,135,135,24,B,Raw,M,Open
Sedric R. Watchou Kouokam,Hungary,1986-02-19,85.18,88,-175,-175,-181,,,,DQ,B,Raw,M,Open
Tomasz Majewski,Poland,1993-10-15,85.66,88,-175,-175,-175,,,,DQ,B,Raw,M,Open
Ben Wright #2,Australia,1987-04-23,86.73,88,-170,-170,-170,,,,DQ,B,Raw,M,Open
Seyed Hamed Solhipour Avanji,Iraq,1989-05-22,94.95,97,217,225,-230,,225,225,1,B,Raw,M,Open
Hany Abdelhady,Egypt,1980-05-19,92.45,97,214,219,223,,223,223,2,B,Raw,M,Open
Mutaz Z. D. Aljuneidi,Jordan,1976-04-02,95.7,97,215,-220,220,,220,220,3,B,Raw,M,Open
Panpan Yan,China,1990-02-05,90.23,97,205,219,-224,,219,219,4,B,Raw,M,Open
Fabio Torres,Colombia,1976-05-07,94.53,97,218,-222,-223,,218,218,5,B,Raw,M,Open
Petar Milenković,Serbia,1984-10-25,93.01,97,-212,216,-224,,216,216,6,B,Raw,M,Open
Sachin Chaudhary,India,1983-09-30,96.57,97,192,-202,202,,202,202,7,B,Raw,M,Open
Stefan Rosca,Moldova,1990-08-06,95.21,97,193,-202,-202,,193,193,8,B,Raw,M,Open
Bobby Body,USA,1974-06-24,93.86,97,180,185,192,,192,192,9,B,Raw,M,Open
Nurlan Babajanov,Azerbaijan,1992-04-11,95.74,97,-187,-187,187,,187,187,10,B,Raw,M,Open
Andrea Maria Quarto,Italy,1989-08-20,95.96,97,185,-191,-192,,185,185,11,B,Raw,M,Open
Yong Won Na,South Korea,1976-05-12,88.75,97,170,-180,180,,180,180,12,B,Raw,M,Open
Denis Raiul,Moldova,1992-01-12,89.13,97,175,-180,-180,,175,175,13,B,Raw,M,Open
Andre Luiz Paz,Brazil,1988-05-17,89.55,97,173,-180,-181,,173,173,14,B,Raw,M,Open
Wan Nur A. Wan Azman,Malaysia,1997-09-29,95.3,97,160,-165,168,,168,168,15,B,Raw,M,Open
Mazuhito Sato,Japan,1980-05-21,95.22,97,160,165,-170,,165,165,16,B,Raw,M,Open
Askhat Zhumanov,Kazakhstan,1991-03-01,90.72,97,140,151,161,,161,161,17,B,Raw,M,Open
Yoshitaka Sato,Japan,1974-12-07,90.95,97,160,-170,-170,,160,160,18,B,Raw,M,Open
Abdulla Alarimi,UAE,1979-10-24,95.97,97,160,-166,-166,,160,160,19,B,Raw,M,Open
Fahad Mohammad,UAE,1993-04-22,89.6,97,150,153,-156,,153,153,20,B,Raw,M,Open
Arun Ranga,India,1993-12-11,89.15,97,120,-130,-130,,120,120,21,B,Raw,M,Open
Aliakbar Gharibshi,Iran,1982-03-21,105.19,107,243,245,-251,251,245,245,1,B,Raw,M,Open
Sodnompiljee Enkhbayar,Mongolia,1985-08-24,104.44,107,-242,244,-250,-250,244,244,2,B,Raw,M,Open
Saman Razi,Iran,1986-03-24,104.87,107,228,235,-240,,235,235,3,B,Raw,M,Open
Anton Kryukov,Ukraine,1988-07-25,105.13,107,228,235,-240,,235,235,4,B,Raw,M,Open
Nuriddin Davlatov,Uzbekistan,1989-02-19,102.68,107,200,206,213,,213,213,5,B,Raw,M,Open
Thaer Al-Ali,Iraq,1976-01-03,99.16,107,212,-218,-220,,212,212,6,B,Raw,M,Open
Yee Khie Jong,Malaysia,1988-11-19,102.99,107,210,-220,-236,,210,210,7,B,Raw,M,Open
Mateus de Assis Silva,Brazil,1997-05-27,103.37,107,201,-207,-214,,201,201,8,B,Raw,M,Open
Jose A Perez Gonzalez,Venezuela,1991-12-10,103.75,107,-190,190,-200,,190,190,9,B,Raw,M,Open
Moataz Maarouf,Egypt,1993-02-04,100.41,107,182,188,-190,,188,188,10,B,Raw,M,Open
Michal Salwa,Poland,1988-08-24,105.19,107,170,175,-180,,175,175,11,B,Raw,M,Open
Seong-Gu Lee,South Korea,1998-06-18,105.59,107,165,170,173,,173,173,12,B,Raw,M,Open
Pardeep J Pardeep Joon,India,1993-10-08,105.96,107,-172,172,-178,,172,172,13,B,Raw,M,Open
Khaled Alhammadi,UAE,1992-02-27,105.64,107,157,-162,-162,,157,157,14,B,Raw,M,Open
Vladimir Cherepanov,Kazakhstan,1990-01-23,106.04,107,145,-151,151,,151,151,15,B,Raw,M,Open
Nu Filo,New Zealand,1981-05-31,104.65,107,140,-150,150,,150,150,16,B,Raw,M,Open
Kalai Vanen,Singapore,1959-02-17,101.95,107,-140,140,145,,145,145,17,B,Raw,M,Open
José de Jesús Castillo Castillo,Mexico,1984-08-24,104.31,107,-227,-227,,,,,DQ,B,Raw,M,Open
Ahmad Aminzadeh,Iran,1991-03-08,135.36,107+,250,255,-260,,255,255,1,B,Raw,M,Open
Mahdi Sayadi,Iran,1996-01-04,147.8,107+,242,247,-256,,247,247,2,B,Raw,M,Open
Konstantin Matsnev,Russia,1972-07-09,112.94,107+,230,-242,243,,243,243,3,B,Raw,M,Open
Faris Saadoon Abed Al-Ageeli,Iraq,1974-05-20,129.21,107+,230,237,-243,,237,237,4,B,Raw,M,Open
Jamil Saleh Elshebli,Jordan,1979-04-09,130.46,107+,235,-243,,,235,235,5,B,Raw,M,Open
Akaki Jintcharadze,Georgia,1987-07-19,114.39,107+,218,225,-232,,225,225,6,B,Raw,M,Open
Liam McGarry,UK,1996-11-12,150.32,107+,211,216,220,,220,220,7,B,Raw,M,Open
Uhunoma Emwiobaiwi,Nigeria,1995-03-26,113.24,107+,210,218,-230,,218,218,8,B,Raw,M,Open
Jhon F. Castaneda Velasquez,Colombia,1980-04-17,123.8,107+,203,210,215,,215,215,9,B,Raw,M,Open
Faruk Ozturk,Turkey,1997-07-27,113.62,107+,202,210,-220,,210,210,10,B,Raw,M,Open
Ahmed Khamis Albaloushi,UAE,1974-12-01,115.11,107+,200,206,210,,210,210,11,B,Raw,M,Open
Zhyrgalbek Orosbaev,Kyrgyzstan,1993-07-19,118.83,107+,200,-206,208,,208,208,12,B,Raw,M,Open
Amr Mosaad,Egypt,1992-04-22,116.58,107+,200,-206,207,,207,207,13,B,Raw,M,Open
Eglain A Mena Lemus,Colombia,1995-07-24,117.99,107+,197,204,-211,,204,204,14,B,Raw,M,Open
Doston Abdusattarov,Uzbekistan,1995-11-13,112.37,107+,195,200,202,,202,202,15,B,Raw,M,Open
Konstantinos Dimou,Greece,1981-02-02,141.93,107+,202,-211,,,202,202,16,B,Raw,M,Open
Aleksander Pomorski,Poland,1996-10-24,116.85,107+,200,-206,-206,,200,200,17,B,Raw,M,Open
Hazar Ahmed,Iraq,1991-09-23,151.18,107+,200,-210,-210,,200,200,18,B,Raw,M,Open
Gani Issentemirov,Kazakhstan,1985-09-01,144.29,107+,181,186,-192,,186,186,19,B,Raw,M,Open
Miguel A Melendez Made,Mexico,1984-07-16,127.66,107+,180,185,-190,,185,185,20,B,Raw,M,Open
Okan Turan,Belarus,1994-02-23,142.86,107+,160,180,-192,,180,180,21,B,Raw,M,Open
Youngbae Moon,South Korea,1983-11-30,111.5,107+,-167,167,172,,172,172,22,B,Raw,M,Open
Modou Gamo,The Gambia,1986-06-22,107.34,107+,145,-150,150,,150,150,23,B,Raw,M,Open
Nuriddin Mangziyaev,Uzbekistan,1998-05-07,121.18,107+,-195,-197,-197,,,,DQ,B,Raw,M,Open
Giorgi Latsabidze,Georgia,1987-05-27,134.83,107+,-215,-215,-216,,,,DQ,B,Raw,M,Open
Tahiru Haruna,Ghana,1993-10-14,,107+,,,,,,,NS,B,Raw,M,Open
Antonio Deandre Martin,USA,1989-02-17,,107+,,,,,,,NS,B,Raw,M,Open
Lingling Guo,China,1989-08-18,40.31,41,103,-105,105,109.5,105,105,1,B,Raw,F,Open
Clara Fuentes,Venezuela,1997-08-12,40.69,41,98,-99,99,,99,99,2,B,Raw,F,Open
Esther Nworgu,Nigeria,2002-12-01,39.85,41,95,98,-105,,98,98,3,B,Raw,F,Open
Ni Nengah Widiasih #1,Indonesia,1992-12-12,39.67,41,-93,95,-98,,95,95,4,B,Raw,F,Open
Tatiana Zhavoronkova,Russia,1990-11-18,39.48,41,86,-90,91,,91,91,5,B,Raw,F,Open
Cristina Poblador G,Colombia,1995-03-23,39,41,90,-92,-93,,90,90,6,B,Raw,F,Open
Lara Aparecida de Lima,Brazil,2003-04-25,38.53,41,-86,-86,86,,86,86,7,B,Raw,F,Open
Maryna Kopiika,Ukraine,1991-01-12,40.09,41,-83,83,85,,85,85,8,B,Raw,F,Open
Yulia Vorontsova,Russia,1996-05-28,40.73,41,-85,85,-92,,85,85,9,B,Raw,F,Open
M K Manpreet Kaur,India,1987-01-17,39.28,41,-83,-83,83,,83,83,10,B,Raw,F,Open
Tursynay Kabyl,Kazakhstan,2000-01-07,38.9,41,75,79,-83,,79,79,11,B,Raw,F,Open
Akissi M. Kouadio,Ivory Coast,1979-08-01,39.69,41,-70,-70,71,,71,71,12,B,Raw,F,Open
Anara Akhanova,Kazakhstan,1996-12-16,39.75,41,60,64,-68,,64,64,13,B,Raw,F,Open
Simone Machado Fragoso,Portugal,1980-08-29,28.06,41,-35,-40,-40,,,,DQ,B,Raw,F,Open
Hellen W Kariuki,Kenya,1992-04-15,,41,,,,,,,NS,B,Raw,F,Open
Zhe Cui,China,1986-12-01,42.25,45,98,103,-108,,103,103,1,B,Raw,F,Open
Zoe Newson,UK,1992-03-24,42.04,45,-94,94,-95,,94,94,2,B,Raw,F,Open
Marina Beketova,Russia,1985-01-31,43.21,45,83,86,90,,90,90,3,B,Raw,F,Open
Justyna Kozdryk,Poland,1980-03-04,43.45,45,90,-93,-94,,90,90,4,B,Raw,F,Open
Samira Guerioua,Algeria,1984-03-13,42.99,45,-85,85,-91,,85,85,5,B,Raw,F,Open
Alina Solodukhina,Kazakhstan,1994-01-01,44.32,45,-80,80,-86,,80,80,6,B,Raw,F,Open
Lourdes Maciel,Argentina,1996-04-06,43.7,45,72,-75,75,,75,75,7,B,Raw,F,Open
Achelle Guion,Philippines,1971-12-29,43.48,45,-73,-73,73,,73,73,8,B,Raw,F,Open
Oriana Teran,Venezuela,1998-08-01,42.82,45,72,-74,-74,,72,72,9,B,Raw,F,Open
Adra Lamia,Algeria,1986-08-05,43.48,45,-70,-70,70,,70,70,10,B,Raw,F,Open
Pratima K Bonde,India,1987-01-15,44.31,45,65,-68,-68,,65,65,11,B,Raw,F,Open
Yuliya Petrusseva,Kazakhstan,1976-05-21,43.35,45,60,63,-65,,63,63,12,B,Raw,F,Open
Monika Majewska,Poland,1995-10-08,43.64,45,55,-60,-60,,55,55,13,B,Raw,F,Open
Miwa Naruke,Japan,1969-03-19,42.33,45,-47,48,52,,52,52,14,B,Raw,F,Open
Hanna Krychko,Belarus,1996-07-06,41.02,45,-50,-50,-50,,,,DQ,B,Raw,F,Open
Maria Rizonaide Da Silva,Brazil,1982-02-23,43.11,45,-82,-83,-83,,,,DQ,B,Raw,F,Open
Latifat Omolola Tijani,Nigeria,1981-11-08,43.19,45,-100,-100,-100,,,,DQ,B,Raw,F,Open
Rahab Ngare,Kenya,1991-07-12,,45,,,,,,,NS,B,Raw,F,Open
Rehab Ahmed,Egypt,1991-03-02,49.63,50,115,-120,-120,,115,115,1,B,Raw,F,Open
Olivia Broome,UK,2001-06-13,48.82,50,102,104,107,,107,107,2,B,Raw,F,Open
Lidiya Solovyova,Ukraine,1978-01-21,49.01,50,102,105,-108,,105,105,3,B,Raw,F,Open
Anastasiia Mamadamirova,Russia,1993-08-02,49.23,50,96,101,-106,,101,101,4,B,Raw,F,Open
Yi Wei,China,1991-08-17,45.62,50,-100,100,-106,,100,100,5,B,Raw,F,Open
Thi Linh Phuong Dang,Vietnam,1983-04-12,49.05,50,-95,95,-108,,95,95,6,B,Raw,F,Open
Loida Zabala Ollero,Spain,1987-04-05,49.13,50,-92,92,95,,95,95,7,B,Raw,F,Open
Gulim Kurmanbayeva,Kazakhstan,1988-04-06,48.58,50,87,-91,94,,94,94,8,B,Raw,F,Open
Larisa Berieva,Russia,1982-10-18,48.92,50,-82,-82,82,,82,82,9,B,Raw,F,Open
Sakina Khatun,India,1989-06-20,46.73,50,80,-85,,,80,80,10,B,Raw,F,Open
Charlotte McGuinness,UK,2001-10-19,49.23,50,77,80,-81,,80,80,11,B,Raw,F,Open
Maria L Santos De Oliveira,Brazil,1974-05-03,48.18,50,-79,79,-83,,79,79,12,B,Raw,F,Open
Laura Cerero Gabriel,Mexico,1967-08-18,47.61,50,-76,-76,76,,76,76,13,B,Raw,F,Open
Mayra A Hernandez G,Mexico,1990-08-06,46.53,50,-75,-75,75,,75,75,14,B,Raw,F,Open
Kamolpan Kraratpet,Thailand,2001-03-12,49.47,50,-72,-73,73,,73,73,15,B,Raw,F,Open
Kaia Scholl,Australia,1993-08-03,48.11,50,-64,64,68,,68,68,16,B,Raw,F,Open
Akiko Nakajima,Japan,1975-09-28,47.23,50,-53,53,-57,,53,53,17,B,Raw,F,Open
Bose Bejide,Nigeria,1985-12-05,46.02,50,-115,-115,-115,,,,DQ,B,Raw,F,Open
Nur Aini Mohamad Y,Singapore,1992-03-05,47.15,50,-78,-78,-78,,,,DQ,B,Raw,F,Open
Nayadet F Garces Cardenas,Chile,1997-01-16,47.55,50,-70,-70,-70,,,,DQ,B,Raw,F,Open
Suzanne Menye Meto,Cameroon,1987-05-15,47.59,50,-65,-75,-75,,,,DQ,B,Raw,F,Open
Emanuela Romano,Italy,1990-07-16,48.82,50,-77,-77,-81,,,,DQ,B,Raw,F,Open
Fariza Tolzhan,Kazakhstan,1995-12-06,48.93,50,-72,-72,-73,,,,DQ,B,Raw,F,Open
Yunki Shin,South Korea,1968-03-12,49.12,50,-73,-73,-73,,,,DQ,B,Raw,F,Open
Mariana Shevchuk,Ukraine,1996-05-22,53.76,55,125,128,133.5,,133.5,133.5,1,B,Raw,F,Open
Besra Duman,Turkey,2001-01-10,54.82,55,116,119,121,,121,121,2,B,Raw,F,Open
Tamara Podpalnaya,Russia,1972-01-03,54.49,55,113,116,120,,120,120,3,B,Raw,F,Open
Jinping Xiao,China,1998-03-08,53.24,55,106,113,-119,,113,113,4,B,Raw,F,Open
Camila Campos,Chile,1995-02-23,54.17,55,-112,112,-116,,112,112,5,B,Raw,F,Open
Wiunawis N. Hernandez,Venezuela,1974-08-19,54.36,55,-90,90,-95,,90,90,6,B,Raw,F,Open
Tetiana Bobrovska,Ukraine,1983-06-30,53.8,55,82,88,-90,,88,88,7,B,Raw,F,Open
Maria Paredes Albor,Mexico,1974-09-05,51.08,55,77,81,83,,83,83,8,B,Raw,F,Open
Awa Ouattara,Ivory Coast,1989-01-15,53.39,55,-83,83,-88,,83,83,9,B,Raw,F,Open
Mozah Alzeyoudi,UAE,1992-10-18,52.31,55,76,79,81,,81,81,10,B,Raw,F,Open
Halima Lemtakhem,Morocco,1983-02-20,52.53,55,78,79,81,,81,81,11,B,Raw,F,Open
Gulbanu Absykhalykova,Kazakhstan,1972-09-15,52.67,55,71,-75,75,,75,75,12,B,Raw,F,Open
Somkhoun Anon,Thailand,1977-10-14,54.53,55,70,75,-80,,75,75,13,B,Raw,F,Open
Katalin Mezei,Hungary,1979-09-28,53.76,55,67,71,-74,,71,71,14,B,Raw,F,Open
Kabira Askarova,Kazakhstan,1976-09-29,50.9,55,60,-66,,,60,60,15,B,Raw,F,Open
Hikari Nakamura,Japan,1991-02-12,53.52,55,-50,60,-65,,60,60,16,B,Raw,F,Open
Eri Yamamoto,Japan,1983-05-17,54.47,55,50,-55,-55,,50,50,17,B,Raw,F,Open
Raj Kumari Raj Kumari,India,1991-03-15,50.26,55,-65,-65,-65,,,,DQ,B,Raw,F,Open
Hoang Tuyet L Chau,Vietnam,1975-02-08,,55,,,,,,,NS,B,Raw,F,Open
Amalia Pérez Vazquez,Mexico,1973-07-10,58.69,61,122,128,132,,132,132,1,B,Raw,F,Open
Onyinyechi Mark,Nigeria,2001-07-05,56.49,61,120,124,131,,131,131,2,B,Raw,F,Open
Jianjin Cui,China,1988-07-09,60.33,61,118,121,-125,,121,121,3,B,Raw,F,Open
Fatma Korany,Egypt,2000-07-01,60.12,61,115,119,-126,,119,119,4,B,Raw,F,Open
Ruza Kuzieva,Uzbekistan,1994-03-12,57.06,61,117,-120,-121,,117,117,5,B,Raw,F,Open
Najat El Garraa,Morocco,1982-07-27,57.99,61,108,112,-115,,112,112,6,B,Raw,F,Open
Olesya Lafina,Russia,1979-12-05,57.76,61,102,108,-112,,108,108,7,B,Raw,F,Open
Rayisa Toporkova,Ukraine,1986-02-18,57.95,61,100,-105,105,,105,105,8,B,Raw,F,Open
Kimberley Dean,UK,1986-11-22,56.6,61,82,86,-87,,86,86,9,B,Raw,F,Open
Ya-Hsuan Lin,Taiwan,1976-08-11,58.94,61,73,77,-80,,77,77,10,B,Raw,F,Open
Nicola Dore,Ireland,1988-06-17,59.39,61,73,-75,76,,76,76,11,B,Raw,F,Open
Hat Motnok,Thailand,1977-02-03,58.18,61,71,-76,-76,,71,71,12,B,Raw,F,Open
Janel Manns,Australia,1966-05-28,59.18,61,54,-56,-56,,54,54,13,B,Raw,F,Open
Gauhar Omirzakova,Kazakhstan,1993-12-12,56.42,61,45,50,-56,,50,50,14,B,Raw,F,Open
Natela Gamidova,Georgia,1977-09-02,59.3,61,-50,50,-55,,50,50,15,B,Raw,F,Open
Lucy Ogechukwu Ejike,Nigeria,1977-10-16,61.99,67,122,126,-129,,126,126,1,B,Raw,F,Open
Yujiao Tan,China,1990-10-04,65.71,67,120,125,-129,,125,125,2,B,Raw,F,Open
Fatma Omar,Egypt,1973-10-17,64.13,67,117,121,122,,122,122,3,B,Raw,F,Open
Liye Liao,China,1999-10-13,64.04,67,110,115,121,,121,121,4,B,Raw,F,Open
Tetyana Shyrokolava,Ukraine,1979-08-11,61.63,67,107,111,-115,,111,111,5,B,Raw,F,Open
Nadezhda Sycheva,Russia,1988-05-12,66.03,67,106,111,-116,,111,111,6,B,Raw,F,Open
Youn Shil Joeng,South Korea,1974-05-17,66.43,67,103,-108,108,,108,108,7,B,Raw,F,Open
Ana Lucia Pinto Ochoa,Colombia,1993-06-30,64.07,67,100,103,107,,107,107,8,B,Raw,F,Open
Hyeong Hui Kim,South Korea,1973-10-21,65.47,67,95,100,106,,106,106,9,B,Raw,F,Open
Raushan Koishibayeva,Kazakhstan,1966-03-07,66.11,67,-105,106,-111,,106,106,10,B,Raw,F,Open
Kudratoy Toshpulatova,Uzbekistan,1995-12-01,63.93,67,105,-111,-111,,105,105,11,B,Raw,F,Open
Paulina Teresa Przywecka-Puziak,Poland,1991-10-05,61.52,67,93,95,101,,101,101,12,B,Raw,F,Open
Miriam I Aguilar Jimenez,Mexico,1979-02-18,63.42,67,101,-105,-106,,101,101,13,B,Raw,F,Open
Arawan Bootpo,Thailand,1984-10-10,64.55,67,93,96,-101,,96,96,14,B,Raw,F,Open
Maria Markou,Cyprus,1993-03-26,63.11,67,-95,95,-102,,95,95,15,B,Raw,F,Open
Angela Faria Teixeira,Brazil,1969-07-17,65.28,67,95,-101,-101,,95,95,16,B,Raw,F,Open
Zahraa Al-Obaidi,Iraq,1998-12-20,63.64,67,85,89,-91,,89,89,17,B,Raw,F,Open
Rebecca Bedford,UK,1998-05-26,63.39,67,83,87,-89,,87,87,18,B,Raw,F,Open
Geeta Geeta,India,1987-10-12,64.55,67,-82,82,-85,,82,82,19,B,Raw,F,Open
Magdalena Kostka,Poland,1993-01-17,62.82,67,74,77,-79,,77,77,20,B,Raw,F,Open
Takako Tatsukawa,Japan,1976-03-26,61.63,67,-65,-65,65,,65,65,21,B,Raw,F,Open
Estefania Gonzalez,Argentina,1992-04-20,61.9,67,-65,-65,65,,65,65,22,B,Raw,F,Open
Pamela D. Munoz Rojas,Chile,1989-07-18,67,67,60,-67,-67,,60,60,23,B,Raw,F,Open
Jelena Piper,Estonia,1976-06-28,66.12,67,55,58,-62,,58,58,24,B,Raw,F,Open
Lili Xu,China,1981-02-01,71.29,73,128,132,138,,138,138,1,B,Raw,F,Open
Mariana D'Andrea,Brazil,1998-02-12,69.28,73,133,135,-138,,135,135,2,B,Raw,F,Open
Kafila Almaruf,Nigeria,1994-04-18,71.29,73,120,124,130,,130,130,3,B,Raw,F,Open
Sibel Cam,Turkey,1990-07-04,72.14,73,121,126,-129,,126,126,4,B,Raw,F,Open
Safaa Hassan,Egypt,1986-07-14,69.08,73,118,-123,123,,123,123,5,B,Raw,F,Open
Souhad Ghazouani,France,1982-08-07,72.39,73,122,-129,-129,,122,122,6,B,Raw,F,Open
Britney Arendse,Ireland,1999-12-17,70.88,73,106,109,113,,113,113,7,B,Raw,F,Open
Sona Agon,Malaysia,1989-02-06,69.75,73,85,-90,-91,,85,85,8,B,Raw,F,Open
Edanur Boyraz,Turkey,1996-02-05,70.74,73,70,80,-86,,80,80,9,B,Raw,F,Open
Galina Marintseva,Russia,1982-05-10,71.73,73,80,-86,-86,,80,80,10,B,Raw,F,Open
Kanako Mizue,Japan,1987-12-19,70.44,73,63,64,68,,68,68,11,B,Raw,F,Open
Siraporn Thipmontree,Thailand,1996-09-29,70.74,73,40,43,-45,,43,43,12,B,Raw,F,Open
Larisa Marinenkova,Moldova,1969-03-07,67.26,73,-71,-75,-75,,,,DQ,B,Raw,F,Open
Bose Omolayo,Nigeria,1989-02-01,76.43,79,135,139,142,144,142,142,1,B,Raw,F,Open
Vera Muratova,Russia,1980-07-03,77.84,79,130,136,140,,140,140,2,B,Raw,F,Open
Miaoyu Han,China,1988-07-23,76.43,79,125,131,-140,,131,131,3,B,Raw,F,Open
Amal Mahmoud,Egypt,1978-10-21,73.55,79,117,121,122,,122,122,4,B,Raw,F,Open
Siti Mahmudah,Indonesia,1990-02-01,75.64,79,113,117,121,,121,121,5,B,Raw,F,Open
Asma Issa,Jordan,1991-09-25,76.59,79,117,-121,-122,,117,117,6,B,Raw,F,Open
Sanae Soubane,Malaysia,1978-05-20,75.27,79,100,105,-110,,105,105,7,B,Raw,F,Open
Maria M Alcoba Membrilla,Spain,1981-06-23,75.78,79,-104,-104,104,,104,104,8,B,Raw,F,Open
Gharam Alosmanee,Iraq,1995-04-01,76.59,79,95,-101,104,,104,104,9,B,Raw,F,Open
Beata Jankowska,Poland,1991-02-08,78.71,79,96,101,-104,,101,101,10,B,Raw,F,Open
Mayagozel Ekeyeva,Turkmenistan,1986-05-05,76.67,79,90,100,-103,,100,100,11,B,Raw,F,Open
Yuseon Hwang,South Korea,1996-08-03,76.63,79,93,98,-100,,98,98,12,B,Raw,F,Open
Elizete Araujo,Brazil,1975-03-24,77.9,79,75,91,,,91,91,13,B,Raw,F,Open
Thamar G Mengue,Cameroon,1992-05-07,76.71,79,70,77,80,,80,80,14,B,Raw,F,Open
Chika Sakamoto,Japan,1982-03-08,77.96,79,73,-78,78,,78,78,15,B,Raw,F,Open
Rusul Al-Khafaji,Iraq,1995-04-13,76.74,79,-73,73,-80,,73,73,16,B,Raw,F,Open
Josilene Ferreira,Brazil,1969-03-19,73.76,79,70,-75,-75,,70,70,17,B,Raw,F,Open
Tahana Abdualla,Libya,1979-10-28,75.74,79,55,65,-72,,65,65,18,B,Raw,F,Open
Joyce W. Njuguna,Kenya,1976-04-17,,79,,,,,,,NS,B,Raw,F,Open
Alice Folashade Oluwafemiayo,Nigeria,1985-03-11,85.05,86,140,144,148,152.5,148,148,1,B,Raw,F,Open
Feifei Zheng,China,1996-06-08,79.68,86,127,131,133,,133,133,2,B,Raw,F,Open
Nataliia Oliinyk,Ukraine,1981-07-09,82.77,86,125,128,132,,132,132,3,B,Raw,F,Open
Louise Sugden,UK,1984-07-20,83.86,86,126,130,-132,,130,130,4,B,Raw,F,Open
Randa Mahmoud,Egypt,1987-08-20,85.21,86,123,130,-133,,130,130,5,B,Raw,F,Open
Amany Ali,Egypt,1976-03-02,85.6,86,123,128,-133,,128,128,6,B,Raw,F,Open
Tharwh Tayseer H Alhajaj,Jordan,1973-01-01,83.63,86,-118,-123,123,,123,123,7,B,Raw,F,Open
Tayana Medeiros,Brazil,1993-03-14,85.05,86,123,-128,-132,,123,123,8,B,Raw,F,Open
Marion A Serrano Guajardo,Chile,1999-09-08,83.66,86,118,122,-125.5,,122,122,9,B,Raw,F,Open
Jaewon Yang,South Korea,1995-04-20,84.19,86,-100,100,107,,107,107,10,B,Raw,F,Open
Alina Kumeyko,Ukraine,1997-07-27,80.65,86,101,106,-108,,106,106,11,B,Raw,F,Open
Youngsun Lee,South Korea,1967-10-16,82.54,86,100,-107,-107,,100,100,12,B,Raw,F,Open
Macarena P Montero Escalona,Chile,1998-03-30,80.18,86,90,-94,-94,,90,90,13,B,Raw,F,Open
Mirgul Bolotalieva,Kyrgyzstan,1984-05-13,83.38,86,83,-88,-88,,83,83,14,B,Raw,F,Open
Bhawana Sharma,India,1993-12-15,84.07,86,70,-80,-80,,70,70,15,B,Raw,F,Open
Xuemei Deng,China,1991-12-03,101.76,86+,132,137,140,,140,140,1,B,Raw,F,Open
Irina Sadovnikova,Russia,1982-07-22,127.45,86+,126,133,136,,136,136,2,B,Raw,F,Open
Perla Patricia Bárcenas Ponce de León,Mexico,1971-05-13,101.32,86+,130,132,135,,135,135,3,B,Raw,F,Open
Marzena Zieba,Poland,1990-03-27,116.61,86+,121,126,135,,135,135,4,B,Raw,F,Open
Nadia Ali,Egypt,1974-07-27,110.98,86+,125,131,-135,,131,131,5,B,Raw,F,Open
Sriyanti Sriyanti,Indonesia,1985-10-23,102.44,86+,125,130,-135,,130,130,6,B,Raw,F,Open
Loveline Adaure Obiji,Nigeria,1990-09-11,92.66,86+,120,-125,-125,,120,120,7,B,Raw,F,Open
Hani Watson,Australia,1982-09-20,109.15,86+,-115,115,120,,120,120,8,B,Raw,F,Open
Hyun Jung Lee,South Korea,1986-05-04,114.16,86+,117,-123,-123,,117,117,9,B,Raw,F,Open
Maria D S Lira Partida,Mexico,1976-04-02,118.49,86+,100,107,112,,112,112,10,B,Raw,F,Open
Melaica Tuinfort,Netherlands,1990-03-11,104.33,86+,105,110,-115,,110,110,11,B,Raw,F,Open
Ashley Dyce,USA,1987-02-25,114.57,86+,-108,-108,109,,109,109,12,B,Raw,F,Open
Macia G Menezes,Brazil,1967-09-30,96.03,86+,105,108,-112,,108,108,13,B,Raw,F,Open
Sunjeong Choe,South Korea,1981-03-28,86.52,86+,93,98,-101,,98,98,14,B,Raw,F,Open
Ghazalah Alaqouri,Libya,1973-06-08,102.37,86+,80,88,91,,91,91,15,B,Raw,F,Open
Polina Katsman,Israel,1966-10-07,100.95,86+,90,-100,-100,,90,90,16,B,Raw,F,Open
Adeline Ancheta,Philippines,1973-12-13,106.74,86+,75,80,90,,90,90,17,B,Raw,F,Open
Yaime Bongo Medina,Cuba,1992-05-30,119.8,86+,-90,90,-101,,90,90,18,B,Raw,F,Open
