Division,WeightClassKg,Place,Name,Team,BodyweightKg,Best3SquatKg,Best3BenchKg,Best3DeadliftKg,TotalKg,Equipment,Event,Sex,BirthDate
Girls,44.23,1,Liza-Belle Garcia,San Diego,44.23,86.18,63.5,106.59,256.28,Unlimited,SBD,F,
Girls,44.23,2,Anistaschya Dix,Corpus Christi Calallen,44.18,81.65,54.43,99.79,235.87,Unlimited,SBD,F,
Girls,44.23,3,Chrisiana Turcios,Corpus Christi Tuloso-Midway,42,79.38,45.36,72.57,197.31,Unlimited,SBD,F,
Girls,44.23,4,Athena Cortez,Corpus Christi Calallen,43.82,63.5,38.56,90.72,192.78,Unlimited,SBD,F,
Girls,44.23,5,Makayela Gueldner,Corpus Christi Calallen,44,61.23,29.48,74.84,165.56,Unlimited,SBD,F,
Girls,44.23,6,Laci Marin,Corpus Christi Calallen,41.46,43.09,24.95,61.23,129.27,Unlimited,SBD,F,
Girls,44.23,DQ,Makenzie Chapa,San Diego,43.64,97.52,,,,Unlimited,SBD,F,
Girls,44.23,DQ,Mika Chase,Corpus Christi Calallen,43.09,,,,,Unlimited,SBD,F,
Girls,44.23,DQ,Jackie Perez,Woodsboro,44,90.72,31.75,,,Unlimited,SBD,F,
Girls,47.85,1,Vivien Gordon,Gregory-Portland,47.81,106.59,56.7,95.25,258.55,Unlimited,SBD,F,
Girls,47.85,2,Cheyenne Cano,Orange Grove,47.81,99.79,52.16,92.99,244.94,Unlimited,SBD,F,
Girls,47.85,3,Maryah Acosta,Gregory-Portland,46.81,79.38,56.7,106.59,242.67,Unlimited,SBD,F,
Girls,47.85,4,Ryleigh Rice,Corpus Christi Calallen,47.76,86.18,47.63,97.52,231.33,Unlimited,SBD,F,
Girls,47.85,5,Selina Herrera,Corpus Christi Tuloso-Midway,47.54,72.57,54.43,95.25,222.26,Unlimited,SBD,F,
Girls,47.85,6,Ariel Ortiz,San Diego,47.63,90.72,45.36,83.91,219.99,Unlimited,SBD,F,
Girls,47.85,7,Leela Green,Corpus Christi Calallen,46.99,47.63,24.95,70.31,142.88,Unlimited,SBD,F,
Girls,51.94,1,Gabriella Garza #3,Corpus Christi Calallen,50.44,136.08,74.84,129.27,340.19,Unlimited,SBD,F,
Girls,51.94,2,Taylor Ortiz,San Diego,50.62,129.27,72.57,108.86,310.71,Unlimited,SBD,F,
Girls,51.94,3,Jaylin Lozano,San Diego,50.08,111.13,65.77,131.54,308.44,Unlimited,SBD,F,
Girls,51.94,4,Kaiyo Torres,Corpus Christi Tuloso-Midway,51.53,115.67,54.43,104.33,274.42,Unlimited,SBD,F,
Girls,51.94,5,Natalia Sanchez,Corpus Christi Calallen,51.8,111.13,61.23,102.06,274.42,Unlimited,SBD,F,
Girls,51.94,6,Mamie Gonzalez,Orange Grove,51.26,106.59,47.63,111.13,265.35,Unlimited,SBD,F,
Girls,51.94,7,Jewlyana Sanchez,San Diego,51.35,97.52,52.16,115.67,265.35,Unlimited,SBD,F,
Girls,51.94,8,Illiana Arias,Corpus Christi Tuloso-Midway,51.8,102.06,43.09,111.13,256.28,Unlimited,SBD,F,
Girls,51.94,9,Cassidy Gordon,Gregory-Portland,49.53,97.52,49.9,83.91,231.33,Unlimited,SBD,F,
Girls,51.94,10,Ava Garcia,Corpus Christi Calallen,50.53,81.65,52.16,97.52,231.33,Unlimited,SBD,F,
Girls,51.94,11,Lily Salinas,Corpus Christi Calallen,51.89,58.97,31.75,97.52,188.24,Unlimited,SBD,F,
Girls,51.94,12,Chloe Brown,Corpus Christi Calallen,51.71,61.23,31.75,92.99,185.97,Unlimited,SBD,F,
Girls,51.94,13,Perla Robledo,Corpus Christi Calallen,50.35,61.23,31.75,70.31,163.29,Unlimited,SBD,F,
Girls,51.94,14,Emma Pullin,Corpus Christi Calallen,51.94,43.09,31.75,70.31,145.15,Unlimited,SBD,F,
Girls,51.94,DQ,Makenzie Saenz,Corpus Christi Calallen,51.26,56.7,,,,Unlimited,SBD,F,
Girls,56.02,1,Briana Pena,Orange Grove,54.61,145.15,65.77,129.27,340.19,Unlimited,SBD,F,
Girls,56.02,2,Destiny Erebia,San Diego,54.7,113.4,56.7,120.2,290.3,Unlimited,SBD,F,
Girls,56.02,3,Aracelli Solis,Gregory-Portland,54.79,102.06,72.57,108.86,283.5,Unlimited,SBD,F,
Girls,56.02,4,Sophia Villarreal,Corpus Christi Calallen,55.7,113.4,54.43,113.4,281.23,Unlimited,SBD,F,
Girls,56.02,5,Meaghan Barrigan,Orange Grove,54.16,88.45,45.36,92.99,226.8,Unlimited,SBD,F,
Girls,56.02,6,Autumn Gilday,Corpus Christi Calallen,55.97,70.31,34.02,117.93,222.26,Unlimited,SBD,F,
Girls,56.02,DQ,Amy Green,Corpus Christi Calallen,56.02,104.33,63.5,,,Unlimited,SBD,F,
Girls,56.02,DQ,Mia Garza,Orange Grove,54.61,120.2,72.57,,,Unlimited,SBD,F,
Girls,60.1,1,Sierra Gonzalez,Orange Grove,60.1,147.42,70.31,142.88,360.61,Unlimited,SBD,F,
Girls,60.1,2,Mariana Rodriguez,Orange Grove,59.15,124.74,56.7,142.88,324.32,Unlimited,SBD,F,
Girls,60.1,3,Isabella Saucedo,Orange Grove,58.33,117.93,58.97,131.54,308.44,Unlimited,SBD,F,
Girls,60.1,4,Cheyenne Cuellar,Gregory-Portland,58.79,102.06,63.5,117.93,283.5,Unlimited,SBD,F,
Girls,60.1,5,Serenity Flores,Corpus Christi Calallen,59.78,108.86,61.23,113.4,283.5,Unlimited,SBD,F,
Girls,60.1,6,Melodie Cortez,Corpus Christi Calallen,60.01,92.99,47.63,108.86,249.48,Unlimited,SBD,F,
Girls,60.1,7,Kailani Vargas,Gregory-Portland,57.7,88.45,56.7,99.79,244.94,Unlimited,SBD,F,
Girls,60.1,8,Sariiyah Tobias,Corpus Christi Calallen,59.24,81.65,54.43,99.79,235.87,Unlimited,SBD,F,
Girls,60.1,9,Ava Rios,Corpus Christi Calallen,59.6,86.18,47.63,102.06,235.87,Unlimited,SBD,F,
Girls,60.1,10,Chloe Sykora,Corpus Christi Calallen,58.79,86.18,54.43,92.99,233.6,Unlimited,SBD,F,
Girls,60.1,11,Reagan Weathersby,Corpus Christi Tuloso-Midway,57.06,61.23,40.82,77.11,179.17,Unlimited,SBD,F,
Girls,60.1,12,Ava Hofstetter,Corpus Christi Calallen,59.69,54.43,27.22,70.31,151.95,Unlimited,SBD,F,
Girls,60.1,DQ,Aariyanna Saldivar,Woodsboro,56.06,,,,,Unlimited,SBD,F,
Girls,60.1,DQ,Jennifer Herrera,Corpus Christi Tuloso-Midway,58.79,113.4,65.77,,,Unlimited,SBD,F,
Girls,67.36,1,Isabelle Solis,Gregory-Portland,61.78,104.33,86.18,120.2,310.71,Unlimited,SBD,F,
Girls,67.36,2,Cristina Robledo,Orange Grove,67.31,120.2,54.43,95.25,269.89,Unlimited,SBD,F,
Girls,67.36,3,Angela Facundo,Orange Grove,61.23,97.52,45.36,108.86,251.74,Unlimited,SBD,F,
Girls,67.36,4,Ivana Lopez,Corpus Christi Calallen,66.13,92.99,52.16,99.79,244.94,Unlimited,SBD,F,
Girls,67.36,5,Nicole Beltran,Corpus Christi Calallen,65.95,88.45,34.02,90.72,213.19,Unlimited,SBD,F,
Girls,67.36,6,Hailey Acosta,Corpus Christi Calallen,63.87,58.97,38.56,90.72,188.24,Unlimited,SBD,F,
Girls,75.07,1,Jalynn Garcia,San Diego,74.48,208.65,102.06,165.56,476.27,Unlimited,SBD,F,
Girls,75.07,2,Sara Vasquez,Corpus Christi Calallen,73.12,172.37,90.72,142.88,405.97,Unlimited,SBD,F,
Girls,75.07,3,Sidney Castillo,Woodsboro,71.03,129.27,58.97,149.69,337.93,Unlimited,SBD,F,
Girls,75.07,4,Raelyn Kendrick,Orange Grove,74.84,122.47,72.57,127.01,322.05,Unlimited,SBD,F,
Girls,75.07,5,Abigail Recio,Corpus Christi Calallen,73.57,74.84,61.23,106.59,242.67,Unlimited,SBD,F,
Girls,82.33,1,Madilyn Cantu,Corpus Christi Tuloso-Midway,79.11,142.88,97.52,138.35,378.75,Unlimited,SBD,F,
Girls,82.33,2,Aubrie Arredondo,Corpus Christi Tuloso-Midway,76.38,138.35,97.52,138.35,374.21,Unlimited,SBD,F,
Girls,82.33,3,Sydney Hardin,Gregory-Portland,76.29,124.74,81.65,106.59,312.98,Unlimited,SBD,F,
Girls,82.33,4,Eliana Guerra,Corpus Christi Calallen,80.29,102.06,72.57,129.27,303.91,Unlimited,SBD,F,
Girls,82.33,5,Maya Alaniz-Valdez,Corpus Christi Tuloso-Midway,76.48,120.2,70.31,106.59,297.1,Unlimited,SBD,F,
Girls,82.33,6,Trysta Contreras,San Diego,82.33,113.4,61.23,86.18,260.82,Unlimited,SBD,F,
Girls,82.33,7,Dhalia Duenas,Corpus Christi Calallen,76.29,70.31,49.9,104.33,224.53,Unlimited,SBD,F,
Girls,82.33,8,Gabriella Rodriguez,Corpus Christi Tuloso-Midway,77.66,72.57,40.82,102.06,215.46,Unlimited,SBD,F,
Girls,82.33,9,Kamryn Cleveland,Corpus Christi Calallen,75.39,72.57,43.09,97.52,213.19,Unlimited,SBD,F,
Girls,90.04,1,Abigail Brown,Corpus Christi Calallen,89.95,136.08,79.38,147.42,362.87,Unlimited,SBD,F,
Girls,90.04,2,Jennette Guerra,Gregory-Portland,84.64,117.93,68.04,136.08,322.05,Unlimited,SBD,F,
Girls,90.04,3,Erin Taylor,Corpus Christi Calallen,86.55,117.93,72.57,106.59,297.1,Unlimited,SBD,F,
Girls,90.04,4,Carlee Wiginton,Woodsboro,88.54,136.08,43.09,113.4,292.57,Unlimited,SBD,F,
Girls,90.04,5,Gwen Aguilar,Corpus Christi Calallen,85,81.65,56.7,117.93,256.28,Unlimited,SBD,F,
Girls,90.04,6,Adrianna Rosas,Woodsboro,84.01,90.72,34.02,104.33,229.06,Unlimited,SBD,F,
Girls,90.04,DQ,Kaitlyn Huff,Corpus Christi Calallen,85.91,,,,,Unlimited,SBD,F,
Girls,100.02,1,Clarissa Trevino,Gregory-Portland,98.61,142.88,104.33,151.95,399.16,Unlimited,SBD,F,
Girls,100.02,2,Keiana Hatchett,Woodsboro,93.53,127.01,54.43,127.01,308.44,Unlimited,SBD,F,
Girls,100.02,DQ,Mariah Kelsey,Gregory-Portland,96.43,,,,,Unlimited,SBD,F,
Girls,110,1,Emmerson Mokuiki,Corpus Christi Tuloso-Midway,101.33,179.17,104.33,129.27,412.77,Unlimited,SBD,F,
Girls,110,DQ,Selena Corter,Woodsboro,108.86,,,,,Unlimited,SBD,F,
Girls,110+,1,Maya Porter,San Diego,120.66,154.22,102.06,142.88,399.16,Unlimited,SBD,F,
Girls,110+,2,Kayla Norval,Corpus Christi Calallen,129.27,92.99,79.38,127.01,299.37,Unlimited,SBD,F,
